%!PS-Adobe-3.0 EPSF-3.0
%%Creator: (MATLAB, The Mathworks, Inc. Version 8.4.0.150421 \(R2014b\). Operating System: Mac OS X)
%%Title: ./parseSubjs_4_calibrationDifferences.eps
%%CreationDate: 2015-10-11T17:30:07
%%Pages: (atend)
%%BoundingBox: (atend)
%%LanguageLevel: 3
%%EndComments
%%BeginProlog
%%BeginResource: procset (Apache XML Graphics Std ProcSet) 1.2 0
%%Version: 1.2 0
%%Copyright: (Copyright 2001-2003,2010 The Apache Software Foundation. License terms: http://www.apache.org/licenses/LICENSE-2.0)
/bd{bind def}bind def
/ld{load def}bd
/GR/grestore ld
/M/moveto ld
/LJ/setlinejoin ld
/C/curveto ld
/f/fill ld
/LW/setlinewidth ld
/GC/setgray ld
/t/show ld
/N/newpath ld
/CT/concat ld
/cp/closepath ld
/S/stroke ld
/L/lineto ld
/CC/setcmykcolor ld
/A/ashow ld
/GS/gsave ld
/RC/setrgbcolor ld
/RM/rmoveto ld
/ML/setmiterlimit ld
/re {4 2 roll M
1 index 0 rlineto
0 exch rlineto
neg 0 rlineto
cp } bd
/_ctm matrix def
/_tm matrix def
/BT { _ctm currentmatrix pop matrix _tm copy pop 0 0 moveto } bd
/ET { _ctm setmatrix } bd
/iTm { _ctm setmatrix _tm concat } bd
/Tm { _tm astore pop iTm 0 0 moveto } bd
/ux 0.0 def
/uy 0.0 def
/F {
  /Tp exch def
  /Tf exch def
  Tf findfont Tp scalefont setfont
  /cf Tf def  /cs Tp def
} bd
/ULS {currentpoint /uy exch def /ux exch def} bd
/ULE {
  /Tcx currentpoint pop def
  gsave
  newpath
  cf findfont cs scalefont dup
  /FontMatrix get 0 get /Ts exch def /FontInfo get dup
  /UnderlinePosition get Ts mul /To exch def
  /UnderlineThickness get Ts mul /Tt exch def
  ux uy To add moveto  Tcx uy To add lineto
  Tt setlinewidth stroke
  grestore
} bd
/OLE {
  /Tcx currentpoint pop def
  gsave
  newpath
  cf findfont cs scalefont dup
  /FontMatrix get 0 get /Ts exch def /FontInfo get dup
  /UnderlinePosition get Ts mul /To exch def
  /UnderlineThickness get Ts mul /Tt exch def
  ux uy To add cs add moveto Tcx uy To add cs add lineto
  Tt setlinewidth stroke
  grestore
} bd
/SOE {
  /Tcx currentpoint pop def
  gsave
  newpath
  cf findfont cs scalefont dup
  /FontMatrix get 0 get /Ts exch def /FontInfo get dup
  /UnderlinePosition get Ts mul /To exch def
  /UnderlineThickness get Ts mul /Tt exch def
  ux uy To add cs 10 mul 26 idiv add moveto Tcx uy To add cs 10 mul 26 idiv add lineto
  Tt setlinewidth stroke
  grestore
} bd
/QT {
/Y22 exch store
/X22 exch store
/Y21 exch store
/X21 exch store
currentpoint
/Y21 load 2 mul add 3 div exch
/X21 load 2 mul add 3 div exch
/X21 load 2 mul /X22 load add 3 div
/Y21 load 2 mul /Y22 load add 3 div
/X22 load /Y22 load curveto
} bd
/SSPD {
dup length /d exch dict def
{
/v exch def
/k exch def
currentpagedevice k known {
/cpdv currentpagedevice k get def
v cpdv ne {
/upd false def
/nullv v type /nulltype eq def
/nullcpdv cpdv type /nulltype eq def
nullv nullcpdv or
{
/upd true def
} {
/sametype v type cpdv type eq def
sametype {
v type /arraytype eq {
/vlen v length def
/cpdvlen cpdv length def
vlen cpdvlen eq {
0 1 vlen 1 sub {
/i exch def
/obj v i get def
/cpdobj cpdv i get def
obj cpdobj ne {
/upd true def
exit
} if
} for
} {
/upd true def
} ifelse
} {
v type /dicttype eq {
v {
/dv exch def
/dk exch def
/cpddv cpdv dk get def
dv cpddv ne {
/upd true def
exit
} if
} forall
} {
/upd true def
} ifelse
} ifelse
} if
} ifelse
upd true eq {
d k v put
} if
} if
} if
} forall
d length 0 gt {
d setpagedevice
} if
} bd
%%EndResource
%%BeginResource: procset (Apache XML Graphics EPS ProcSet) 1.0 0
%%Version: 1.0 0
%%Copyright: (Copyright 2002-2003 The Apache Software Foundation. License terms: http://www.apache.org/licenses/LICENSE-2.0)
/BeginEPSF { %def
/b4_Inc_state save def         % Save state for cleanup
/dict_count countdictstack def % Count objects on dict stack
/op_count count 1 sub def      % Count objects on operand stack
userdict begin                 % Push userdict on dict stack
/showpage { } def              % Redefine showpage, { } = null proc
0 setgray 0 setlinecap         % Prepare graphics state
1 setlinewidth 0 setlinejoin
10 setmiterlimit [ ] 0 setdash newpath
/languagelevel where           % If level not equal to 1 then
{pop languagelevel             % set strokeadjust and
1 ne                           % overprint to their defaults.
{false setstrokeadjust false setoverprint
} if
} if
} bd
/EndEPSF { %def
count op_count sub {pop} repeat            % Clean up stacks
countdictstack dict_count sub {end} repeat
b4_Inc_state restore
} bd
%%EndResource
%FOPBeginFontDict
%%IncludeResource: font Courier-Bold
%%IncludeResource: font Helvetica
%%IncludeResource: font Courier-BoldOblique
%%IncludeResource: font Courier-Oblique
%%IncludeResource: font Times-Roman
%%IncludeResource: font Helvetica-BoldOblique
%%IncludeResource: font Helvetica-Bold
%%IncludeResource: font Helvetica-Oblique
%%IncludeResource: font Times-BoldItalic
%%IncludeResource: font Courier
%%IncludeResource: font Times-Italic
%%IncludeResource: font Times-Bold
%%IncludeResource: font Symbol
%%IncludeResource: font ZapfDingbats
%FOPEndFontDict
%%BeginResource: encoding WinAnsiEncoding
/WinAnsiEncoding [
/.notdef /.notdef /.notdef /.notdef /.notdef
/.notdef /.notdef /.notdef /.notdef /.notdef
/.notdef /.notdef /.notdef /.notdef /.notdef
/.notdef /.notdef /.notdef /.notdef /.notdef
/.notdef /.notdef /.notdef /.notdef /.notdef
/.notdef /.notdef /.notdef /.notdef /.notdef
/.notdef /.notdef /space /exclam /quotedbl
/numbersign /dollar /percent /ampersand /quotesingle
/parenleft /parenright /asterisk /plus /comma
/hyphen /period /slash /zero /one
/two /three /four /five /six
/seven /eight /nine /colon /semicolon
/less /equal /greater /question /at
/A /B /C /D /E
/F /G /H /I /J
/K /L /M /N /O
/P /Q /R /S /T
/U /V /W /X /Y
/Z /bracketleft /backslash /bracketright /asciicircum
/underscore /quoteleft /a /b /c
/d /e /f /g /h
/i /j /k /l /m
/n /o /p /q /r
/s /t /u /v /w
/x /y /z /braceleft /bar
/braceright /asciitilde /bullet /Euro /bullet
/quotesinglbase /florin /quotedblbase /ellipsis /dagger
/daggerdbl /circumflex /perthousand /Scaron /guilsinglleft
/OE /bullet /Zcaron /bullet /bullet
/quoteleft /quoteright /quotedblleft /quotedblright /bullet
/endash /emdash /asciitilde /trademark /scaron
/guilsinglright /oe /bullet /zcaron /Ydieresis
/space /exclamdown /cent /sterling /currency
/yen /brokenbar /section /dieresis /copyright
/ordfeminine /guillemotleft /logicalnot /sfthyphen /registered
/macron /degree /plusminus /twosuperior /threesuperior
/acute /mu /paragraph /middot /cedilla
/onesuperior /ordmasculine /guillemotright /onequarter /onehalf
/threequarters /questiondown /Agrave /Aacute /Acircumflex
/Atilde /Adieresis /Aring /AE /Ccedilla
/Egrave /Eacute /Ecircumflex /Edieresis /Igrave
/Iacute /Icircumflex /Idieresis /Eth /Ntilde
/Ograve /Oacute /Ocircumflex /Otilde /Odieresis
/multiply /Oslash /Ugrave /Uacute /Ucircumflex
/Udieresis /Yacute /Thorn /germandbls /agrave
/aacute /acircumflex /atilde /adieresis /aring
/ae /ccedilla /egrave /eacute /ecircumflex
/edieresis /igrave /iacute /icircumflex /idieresis
/eth /ntilde /ograve /oacute /ocircumflex
/otilde /odieresis /divide /oslash /ugrave
/uacute /ucircumflex /udieresis /yacute /thorn
/ydieresis
] def
%%EndResource
%FOPBeginFontReencode
/Courier-Bold findfont
dup length dict begin
  {1 index /FID ne {def} {pop pop} ifelse} forall
  /Encoding WinAnsiEncoding def
  currentdict
end
/Courier-Bold exch definefont pop
/Helvetica findfont
dup length dict begin
  {1 index /FID ne {def} {pop pop} ifelse} forall
  /Encoding WinAnsiEncoding def
  currentdict
end
/Helvetica exch definefont pop
/Courier-BoldOblique findfont
dup length dict begin
  {1 index /FID ne {def} {pop pop} ifelse} forall
  /Encoding WinAnsiEncoding def
  currentdict
end
/Courier-BoldOblique exch definefont pop
/Courier-Oblique findfont
dup length dict begin
  {1 index /FID ne {def} {pop pop} ifelse} forall
  /Encoding WinAnsiEncoding def
  currentdict
end
/Courier-Oblique exch definefont pop
/Times-Roman findfont
dup length dict begin
  {1 index /FID ne {def} {pop pop} ifelse} forall
  /Encoding WinAnsiEncoding def
  currentdict
end
/Times-Roman exch definefont pop
/Helvetica-BoldOblique findfont
dup length dict begin
  {1 index /FID ne {def} {pop pop} ifelse} forall
  /Encoding WinAnsiEncoding def
  currentdict
end
/Helvetica-BoldOblique exch definefont pop
/Helvetica-Bold findfont
dup length dict begin
  {1 index /FID ne {def} {pop pop} ifelse} forall
  /Encoding WinAnsiEncoding def
  currentdict
end
/Helvetica-Bold exch definefont pop
/Helvetica-Oblique findfont
dup length dict begin
  {1 index /FID ne {def} {pop pop} ifelse} forall
  /Encoding WinAnsiEncoding def
  currentdict
end
/Helvetica-Oblique exch definefont pop
/Times-BoldItalic findfont
dup length dict begin
  {1 index /FID ne {def} {pop pop} ifelse} forall
  /Encoding WinAnsiEncoding def
  currentdict
end
/Times-BoldItalic exch definefont pop
/Courier findfont
dup length dict begin
  {1 index /FID ne {def} {pop pop} ifelse} forall
  /Encoding WinAnsiEncoding def
  currentdict
end
/Courier exch definefont pop
/Times-Italic findfont
dup length dict begin
  {1 index /FID ne {def} {pop pop} ifelse} forall
  /Encoding WinAnsiEncoding def
  currentdict
end
/Times-Italic exch definefont pop
/Times-Bold findfont
dup length dict begin
  {1 index /FID ne {def} {pop pop} ifelse} forall
  /Encoding WinAnsiEncoding def
  currentdict
end
/Times-Bold exch definefont pop
%FOPEndFontReencode
%%EndProlog
%%Page: 1 1
%%PageBoundingBox: 0 0 576 432
%%BeginPageSetup
[1 0 0 -1 0 432] CT
%%EndPageSetup
GS
1 GC
N
0 0 576 432 re
f
GR
GS
1 GC
N
0 0 576 432 re
f
GR
GS
1 GC
N
75 180 M
521 180 L
521 32 L
75 32 L
cp
f
GR
GS
0.149 GC
2 setlinecap
10.0 ML
N
75 180 M
521 180 L
S
GR
GS
0.149 GC
2 setlinecap
10.0 ML
N
75 180 M
75 175.54 L
S
GR
GS
0.149 GC
2 setlinecap
10.0 ML
N
138.714 180 M
138.714 175.54 L
S
GR
GS
0.149 GC
2 setlinecap
10.0 ML
N
202.429 180 M
202.429 175.54 L
S
GR
GS
0.149 GC
2 setlinecap
10.0 ML
N
266.143 180 M
266.143 175.54 L
S
GR
GS
0.149 GC
2 setlinecap
10.0 ML
N
329.857 180 M
329.857 175.54 L
S
GR
GS
0.149 GC
2 setlinecap
10.0 ML
N
393.571 180 M
393.571 175.54 L
S
GR
GS
0.149 GC
2 setlinecap
10.0 ML
N
457.286 180 M
457.286 175.54 L
S
GR
GS
0.149 GC
2 setlinecap
10.0 ML
N
521 180 M
521 175.54 L
S
GR
GS
[1 0 0 1 75.00001 184] CT
0.149 GC
/Helvetica 10 F
GS
[1 0 0 1 0 0] CT
-6.951 7.7 moveto 
1 -1 scale
(0.1) t 
GR
GR
GS
[1 0 0 1 138.71428 184] CT
0.149 GC
/Helvetica 10 F
GS
[1 0 0 1 0 0] CT
-9.731 7.7 moveto 
1 -1 scale
(0.12) t 
GR
GR
GS
[1 0 0 1 202.42857 184] CT
0.149 GC
/Helvetica 10 F
GS
[1 0 0 1 0 0] CT
-9.731 7.7 moveto 
1 -1 scale
(0.14) t 
GR
GR
GS
[1 0 0 1 266.14285 184] CT
0.149 GC
/Helvetica 10 F
GS
[1 0 0 1 0 0] CT
-9.731 7.7 moveto 
1 -1 scale
(0.16) t 
GR
GR
GS
[1 0 0 1 329.85718 184] CT
0.149 GC
/Helvetica 10 F
GS
[1 0 0 1 0 0] CT
-9.731 7.7 moveto 
1 -1 scale
(0.18) t 
GR
GR
GS
[1 0 0 1 393.57144 184] CT
0.149 GC
/Helvetica 10 F
GS
[1 0 0 1 0 0] CT
-6.951 7.7 moveto 
1 -1 scale
(0.2) t 
GR
GR
GS
[1 0 0 1 457.28571 184] CT
0.149 GC
/Helvetica 10 F
GS
[1 0 0 1 0 0] CT
-9.731 7.7 moveto 
1 -1 scale
(0.22) t 
GR
GR
GS
[1 0 0 1 521 184] CT
0.149 GC
/Helvetica 10 F
GS
[1 0 0 1 0 0] CT
-9.731 7.7 moveto 
1 -1 scale
(0.24) t 
GR
GR
GS
[0 -1 1 0 54.09864 106] CT
0.149 GC
/Helvetica 11 F
GS
[1 0 0 1 0 0] CT
-18.036 -1.53 moveto 
1 -1 scale
(Block 1) t 
GR
GR
GS
0.149 GC
2 setlinecap
10.0 ML
N
75 180 M
75 32 L
S
GR
GS
0.149 GC
2 setlinecap
10.0 ML
N
75 180 M
79.46 180 L
S
GR
GS
0.149 GC
2 setlinecap
10.0 ML
N
75 161.5 M
79.46 161.5 L
S
GR
GS
0.149 GC
2 setlinecap
10.0 ML
N
75 143 M
79.46 143 L
S
GR
GS
0.149 GC
2 setlinecap
10.0 ML
N
75 124.5 M
79.46 124.5 L
S
GR
GS
0.149 GC
2 setlinecap
10.0 ML
N
75 106 M
79.46 106 L
S
GR
GS
0.149 GC
2 setlinecap
10.0 ML
N
75 87.5 M
79.46 87.5 L
S
GR
GS
0.149 GC
2 setlinecap
10.0 ML
N
75 69 M
79.46 69 L
S
GR
GS
0.149 GC
2 setlinecap
10.0 ML
N
75 50.5 M
79.46 50.5 L
S
GR
GS
0.149 GC
2 setlinecap
10.0 ML
N
75 32 M
79.46 32 L
S
GR
GS
[1 0 0 1 70.99999 180] CT
0.149 GC
/Helvetica 10 F
GS
[1 0 0 1 0 0] CT
-5.562 3.2 moveto 
1 -1 scale
(0) t 
GR
GR
GS
[1 0 0 1 70.99999 161.5] CT
0.149 GC
/Helvetica 10 F
GS
[1 0 0 1 0 0] CT
-13.901 3.2 moveto 
1 -1 scale
(0.5) t 
GR
GR
GS
[1 0 0 1 70.99999 143] CT
0.149 GC
/Helvetica 10 F
GS
[1 0 0 1 0 0] CT
-5.562 3.2 moveto 
1 -1 scale
(1) t 
GR
GR
GS
[1 0 0 1 70.99999 124.5] CT
0.149 GC
/Helvetica 10 F
GS
[1 0 0 1 0 0] CT
-13.901 3.2 moveto 
1 -1 scale
(1.5) t 
GR
GR
GS
[1 0 0 1 70.99999 106] CT
0.149 GC
/Helvetica 10 F
GS
[1 0 0 1 0 0] CT
-5.562 3.2 moveto 
1 -1 scale
(2) t 
GR
GR
GS
[1 0 0 1 70.99999 87.5] CT
0.149 GC
/Helvetica 10 F
GS
[1 0 0 1 0 0] CT
-13.901 3.2 moveto 
1 -1 scale
(2.5) t 
GR
GR
GS
[1 0 0 1 70.99999 69] CT
0.149 GC
/Helvetica 10 F
GS
[1 0 0 1 0 0] CT
-5.562 3.2 moveto 
1 -1 scale
(3) t 
GR
GR
GS
[1 0 0 1 70.99999 50.5] CT
0.149 GC
/Helvetica 10 F
GS
[1 0 0 1 0 0] CT
-13.901 3.2 moveto 
1 -1 scale
(3.5) t 
GR
GR
GS
[1 0 0 1 70.99999 32] CT
0.149 GC
/Helvetica 10 F
GS
[1 0 0 1 0 0] CT
-5.562 3.2 moveto 
1 -1 scale
(4) t 
GR
GR
GS
0.208 0.165 0.525 RC
N
128.095 180 M
128.095 106 L
165.262 106 L
cp
f
GR
GS
0.208 0.165 0.525 RC
N
128.095 180 M
165.262 106 L
165.262 180 L
cp
f
GR
GS
0.208 0.165 0.525 RC
N
202.429 180 M
202.429 32 L
239.595 32 L
cp
f
GR
GS
0.208 0.165 0.525 RC
N
202.429 180 M
239.595 32 L
239.595 180 L
cp
f
GR
GS
0.208 0.165 0.525 RC
N
313.929 180 M
313.929 69 L
351.095 69 L
cp
f
GR
GS
0.208 0.165 0.525 RC
N
313.929 180 M
351.095 69 L
351.095 180 L
cp
f
GR
GS
0.208 0.165 0.525 RC
N
425.429 180 M
425.429 69 L
462.595 69 L
cp
f
GR
GS
0.208 0.165 0.525 RC
N
425.429 180 M
462.595 69 L
462.595 180 L
cp
f
GR
GS
0.208 0.165 0.525 RC
N
462.595 180 M
462.595 143 L
499.762 143 L
cp
f
GR
GS
0.208 0.165 0.525 RC
N
462.595 180 M
499.762 143 L
499.762 180 L
cp
f
GR
GS
0.149 GC
2 setlinecap
10.0 ML
N
128.095 180 M
128.095 106 L
165.262 106 L
165.262 180 L
128.095 180 L
S
GR
GS
0.149 GC
2 setlinecap
10.0 ML
N
165.262 180 M
165.262 180 L
202.429 180 L
202.429 180 L
165.262 180 L
S
GR
GS
0.149 GC
2 setlinecap
10.0 ML
N
202.429 180 M
202.429 32 L
239.595 32 L
239.595 180 L
202.429 180 L
S
GR
GS
0.149 GC
2 setlinecap
10.0 ML
N
239.595 180 M
239.595 180 L
276.762 180 L
276.762 180 L
239.595 180 L
S
GR
GS
0.149 GC
2 setlinecap
10.0 ML
N
276.762 180 M
276.762 180 L
313.929 180 L
313.929 180 L
276.762 180 L
S
GR
GS
0.149 GC
2 setlinecap
10.0 ML
N
313.929 180 M
313.929 69 L
351.095 69 L
351.095 180 L
313.929 180 L
S
GR
GS
0.149 GC
2 setlinecap
10.0 ML
N
351.095 180 M
351.095 180 L
388.262 180 L
388.262 180 L
351.095 180 L
S
GR
GS
0.149 GC
2 setlinecap
10.0 ML
N
388.262 180 M
388.262 180 L
425.429 180 L
425.429 180 L
388.262 180 L
S
GR
GS
0.149 GC
2 setlinecap
10.0 ML
N
425.429 180 M
425.429 69 L
462.595 69 L
462.595 180 L
425.429 180 L
S
GR
GS
0.149 GC
2 setlinecap
10.0 ML
N
462.595 180 M
462.595 143 L
499.762 143 L
499.762 180 L
462.595 180 L
S
GR
GS
1 0 0 RC
[8 8] 0 setdash
2 LJ
2 LW
N
75 143 M
75 106 L
75 69 L
75 32 L
S
GR
GS
[1 0 0 1 298 29.25001] CT
/Helvetica-Bold 11 F
GS
[1 0 0 1 0 0] CT
-116.768 -1.53 moveto 
1 -1 scale
(Calibration accuracy differences: 3 excluded) t 
GR
GR
GS
1 GC
N
75 384 M
521 384 L
521 237 L
75 237 L
cp
f
GR
GS
0.149 GC
2 setlinecap
10.0 ML
N
75 384 M
521 384 L
S
GR
GS
0.149 GC
2 setlinecap
10.0 ML
N
75 384 M
75 379.54 L
S
GR
GS
0.149 GC
2 setlinecap
10.0 ML
N
124.556 384 M
124.556 379.54 L
S
GR
GS
0.149 GC
2 setlinecap
10.0 ML
N
174.111 384 M
174.111 379.54 L
S
GR
GS
0.149 GC
2 setlinecap
10.0 ML
N
223.667 384 M
223.667 379.54 L
S
GR
GS
0.149 GC
2 setlinecap
10.0 ML
N
273.222 384 M
273.222 379.54 L
S
GR
GS
0.149 GC
2 setlinecap
10.0 ML
N
322.778 384 M
322.778 379.54 L
S
GR
GS
0.149 GC
2 setlinecap
10.0 ML
N
372.333 384 M
372.333 379.54 L
S
GR
GS
0.149 GC
2 setlinecap
10.0 ML
N
421.889 384 M
421.889 379.54 L
S
GR
GS
0.149 GC
2 setlinecap
10.0 ML
N
471.444 384 M
471.444 379.54 L
S
GR
GS
0.149 GC
2 setlinecap
10.0 ML
N
521 384 M
521 379.54 L
S
GR
GS
[1 0 0 1 75 388] CT
0.149 GC
/Helvetica 10 F
GS
[1 0 0 1 0 0] CT
-8.616 7.7 moveto 
1 -1 scale
(-0.1) t 
GR
GR
GS
[1 0 0 1 124.55556 388] CT
0.149 GC
/Helvetica 10 F
GS
[1 0 0 1 0 0] CT
-11.396 7.7 moveto 
1 -1 scale
(-0.05) t 
GR
GR
GS
[1 0 0 1 174.11111 388] CT
0.149 GC
/Helvetica 10 F
GS
[1 0 0 1 0 0] CT
-2.781 7.7 moveto 
1 -1 scale
(0) t 
GR
GR
GS
[1 0 0 1 223.66667 388] CT
0.149 GC
/Helvetica 10 F
GS
[1 0 0 1 0 0] CT
-9.731 7.7 moveto 
1 -1 scale
(0.05) t 
GR
GR
GS
[1 0 0 1 273.22223 388] CT
0.149 GC
/Helvetica 10 F
GS
[1 0 0 1 0 0] CT
-6.951 7.7 moveto 
1 -1 scale
(0.1) t 
GR
GR
GS
[1 0 0 1 322.77777 388] CT
0.149 GC
/Helvetica 10 F
GS
[1 0 0 1 0 0] CT
-9.731 7.7 moveto 
1 -1 scale
(0.15) t 
GR
GR
GS
[1 0 0 1 372.33334 388] CT
0.149 GC
/Helvetica 10 F
GS
[1 0 0 1 0 0] CT
-6.951 7.7 moveto 
1 -1 scale
(0.2) t 
GR
GR
GS
[1 0 0 1 421.88889 388] CT
0.149 GC
/Helvetica 10 F
GS
[1 0 0 1 0 0] CT
-9.731 7.7 moveto 
1 -1 scale
(0.25) t 
GR
GR
GS
[1 0 0 1 471.44446 388] CT
0.149 GC
/Helvetica 10 F
GS
[1 0 0 1 0 0] CT
-6.951 7.7 moveto 
1 -1 scale
(0.3) t 
GR
GR
GS
[1 0 0 1 521 388] CT
0.149 GC
/Helvetica 10 F
GS
[1 0 0 1 0 0] CT
-9.731 7.7 moveto 
1 -1 scale
(0.35) t 
GR
GR
GS
[0 -1 1 0 62.43848 310.5] CT
0.149 GC
/Helvetica 11 F
GS
[1 0 0 1 0 0] CT
-18.036 -1.53 moveto 
1 -1 scale
(Block 2) t 
GR
GR
GS
0.149 GC
2 setlinecap
10.0 ML
N
75 384 M
75 237 L
S
GR
GS
0.149 GC
2 setlinecap
10.0 ML
N
75 384 M
79.46 384 L
S
GR
GS
0.149 GC
2 setlinecap
10.0 ML
N
75 354.6 M
79.46 354.6 L
S
GR
GS
0.149 GC
2 setlinecap
10.0 ML
N
75 325.2 M
79.46 325.2 L
S
GR
GS
0.149 GC
2 setlinecap
10.0 ML
N
75 295.8 M
79.46 295.8 L
S
GR
GS
0.149 GC
2 setlinecap
10.0 ML
N
75 266.4 M
79.46 266.4 L
S
GR
GS
0.149 GC
2 setlinecap
10.0 ML
N
75 237 M
79.46 237 L
S
GR
GS
[1 0 0 1 71 384] CT
0.149 GC
/Helvetica 10 F
GS
[1 0 0 1 0 0] CT
-5.562 3.2 moveto 
1 -1 scale
(0) t 
GR
GR
GS
[1 0 0 1 71 354.60001] CT
0.149 GC
/Helvetica 10 F
GS
[1 0 0 1 0 0] CT
-5.562 3.2 moveto 
1 -1 scale
(1) t 
GR
GR
GS
[1 0 0 1 71 325.20001] CT
0.149 GC
/Helvetica 10 F
GS
[1 0 0 1 0 0] CT
-5.562 3.2 moveto 
1 -1 scale
(2) t 
GR
GR
GS
[1 0 0 1 71 295.79999] CT
0.149 GC
/Helvetica 10 F
GS
[1 0 0 1 0 0] CT
-5.562 3.2 moveto 
1 -1 scale
(3) t 
GR
GR
GS
[1 0 0 1 71 266.39999] CT
0.149 GC
/Helvetica 10 F
GS
[1 0 0 1 0 0] CT
-5.562 3.2 moveto 
1 -1 scale
(4) t 
GR
GR
GS
[1 0 0 1 71 237] CT
0.149 GC
/Helvetica 10 F
GS
[1 0 0 1 0 0] CT
-5.562 3.2 moveto 
1 -1 scale
(5) t 
GR
GR
GS
0.208 0.165 0.525 RC
N
91.519 384 M
91.519 354.6 L
131.163 354.6 L
cp
f
GR
GS
0.208 0.165 0.525 RC
N
91.519 384 M
131.163 354.6 L
131.163 384 L
cp
f
GR
GS
0.208 0.165 0.525 RC
N
170.807 384 M
170.807 354.6 L
210.452 354.6 L
cp
f
GR
GS
0.208 0.165 0.525 RC
N
170.807 384 M
210.452 354.6 L
210.452 384 L
cp
f
GR
GS
0.208 0.165 0.525 RC
N
210.452 384 M
210.452 354.6 L
250.096 354.6 L
cp
f
GR
GS
0.208 0.165 0.525 RC
N
210.452 384 M
250.096 354.6 L
250.096 384 L
cp
f
GR
GS
0.208 0.165 0.525 RC
N
289.741 384 M
289.741 237 L
329.385 237 L
cp
f
GR
GS
0.208 0.165 0.525 RC
N
289.741 384 M
329.385 237 L
329.385 384 L
cp
f
GR
GS
0.208 0.165 0.525 RC
N
329.385 384 M
329.385 354.6 L
369.03 354.6 L
cp
f
GR
GS
0.208 0.165 0.525 RC
N
329.385 384 M
369.03 354.6 L
369.03 384 L
cp
f
GR
GS
0.208 0.165 0.525 RC
N
369.03 384 M
369.03 325.2 L
408.674 325.2 L
cp
f
GR
GS
0.208 0.165 0.525 RC
N
369.03 384 M
408.674 325.2 L
408.674 384 L
cp
f
GR
GS
0.208 0.165 0.525 RC
N
408.674 384 M
408.674 354.6 L
448.319 354.6 L
cp
f
GR
GS
0.208 0.165 0.525 RC
N
408.674 384 M
448.319 354.6 L
448.319 384 L
cp
f
GR
GS
0.208 0.165 0.525 RC
N
448.319 384 M
448.319 354.6 L
487.963 354.6 L
cp
f
GR
GS
0.208 0.165 0.525 RC
N
448.319 384 M
487.963 354.6 L
487.963 384 L
cp
f
GR
GS
0.149 GC
2 setlinecap
10.0 ML
N
91.519 384 M
91.519 354.6 L
131.163 354.6 L
131.163 384 L
91.519 384 L
S
GR
GS
0.149 GC
2 setlinecap
10.0 ML
N
131.163 384 M
131.163 384 L
170.807 384 L
170.807 384 L
131.163 384 L
S
GR
GS
0.149 GC
2 setlinecap
10.0 ML
N
170.807 384 M
170.807 354.6 L
210.452 354.6 L
210.452 384 L
170.807 384 L
S
GR
GS
0.149 GC
2 setlinecap
10.0 ML
N
210.452 384 M
210.452 354.6 L
250.096 354.6 L
250.096 384 L
210.452 384 L
S
GR
GS
0.149 GC
2 setlinecap
10.0 ML
N
250.096 384 M
250.096 384 L
289.741 384 L
289.741 384 L
250.096 384 L
S
GR
GS
0.149 GC
2 setlinecap
10.0 ML
N
289.741 384 M
289.741 237 L
329.385 237 L
329.385 384 L
289.741 384 L
S
GR
GS
0.149 GC
2 setlinecap
10.0 ML
N
329.385 384 M
329.385 354.6 L
369.03 354.6 L
369.03 384 L
329.385 384 L
S
GR
GS
0.149 GC
2 setlinecap
10.0 ML
N
369.03 384 M
369.03 325.2 L
408.674 325.2 L
408.674 384 L
369.03 384 L
S
GR
GS
0.149 GC
2 setlinecap
10.0 ML
N
408.674 384 M
408.674 354.6 L
448.319 354.6 L
448.319 384 L
408.674 384 L
S
GR
GS
0.149 GC
2 setlinecap
10.0 ML
N
448.319 384 M
448.319 354.6 L
487.963 354.6 L
487.963 384 L
448.319 384 L
S
GR
GS
1 0 0 RC
[8 8] 0 setdash
2 LJ
2 LW
N
273.222 354.6 M
273.222 325.2 L
273.222 295.8 L
273.222 266.4 L
273.222 237 L
S
GR
%%Trailer
%%BoundingBox: 44 34 530 412
%%Pages: 1
%%EOF
