%!PS-Adobe-3.0 EPSF-3.0
%%Creator: (MATLAB, The Mathworks, Inc. Version 8.4.0.150421 \(R2014b\). Operating System: Mac OS X)
%%Title: ./parseSubjs_1_learnPhaseTrialsSkipped.eps
%%CreationDate: 2015-10-11T17:30:03
%%Pages: (atend)
%%BoundingBox: (atend)
%%LanguageLevel: 3
%%EndComments
%%BeginProlog
%%BeginResource: procset (Apache XML Graphics Std ProcSet) 1.2 0
%%Version: 1.2 0
%%Copyright: (Copyright 2001-2003,2010 The Apache Software Foundation. License terms: http://www.apache.org/licenses/LICENSE-2.0)
/bd{bind def}bind def
/ld{load def}bd
/GR/grestore ld
/M/moveto ld
/LJ/setlinejoin ld
/C/curveto ld
/f/fill ld
/LW/setlinewidth ld
/GC/setgray ld
/t/show ld
/N/newpath ld
/CT/concat ld
/cp/closepath ld
/S/stroke ld
/L/lineto ld
/CC/setcmykcolor ld
/A/ashow ld
/GS/gsave ld
/RC/setrgbcolor ld
/RM/rmoveto ld
/ML/setmiterlimit ld
/re {4 2 roll M
1 index 0 rlineto
0 exch rlineto
neg 0 rlineto
cp } bd
/_ctm matrix def
/_tm matrix def
/BT { _ctm currentmatrix pop matrix _tm copy pop 0 0 moveto } bd
/ET { _ctm setmatrix } bd
/iTm { _ctm setmatrix _tm concat } bd
/Tm { _tm astore pop iTm 0 0 moveto } bd
/ux 0.0 def
/uy 0.0 def
/F {
  /Tp exch def
  /Tf exch def
  Tf findfont Tp scalefont setfont
  /cf Tf def  /cs Tp def
} bd
/ULS {currentpoint /uy exch def /ux exch def} bd
/ULE {
  /Tcx currentpoint pop def
  gsave
  newpath
  cf findfont cs scalefont dup
  /FontMatrix get 0 get /Ts exch def /FontInfo get dup
  /UnderlinePosition get Ts mul /To exch def
  /UnderlineThickness get Ts mul /Tt exch def
  ux uy To add moveto  Tcx uy To add lineto
  Tt setlinewidth stroke
  grestore
} bd
/OLE {
  /Tcx currentpoint pop def
  gsave
  newpath
  cf findfont cs scalefont dup
  /FontMatrix get 0 get /Ts exch def /FontInfo get dup
  /UnderlinePosition get Ts mul /To exch def
  /UnderlineThickness get Ts mul /Tt exch def
  ux uy To add cs add moveto Tcx uy To add cs add lineto
  Tt setlinewidth stroke
  grestore
} bd
/SOE {
  /Tcx currentpoint pop def
  gsave
  newpath
  cf findfont cs scalefont dup
  /FontMatrix get 0 get /Ts exch def /FontInfo get dup
  /UnderlinePosition get Ts mul /To exch def
  /UnderlineThickness get Ts mul /Tt exch def
  ux uy To add cs 10 mul 26 idiv add moveto Tcx uy To add cs 10 mul 26 idiv add lineto
  Tt setlinewidth stroke
  grestore
} bd
/QT {
/Y22 exch store
/X22 exch store
/Y21 exch store
/X21 exch store
currentpoint
/Y21 load 2 mul add 3 div exch
/X21 load 2 mul add 3 div exch
/X21 load 2 mul /X22 load add 3 div
/Y21 load 2 mul /Y22 load add 3 div
/X22 load /Y22 load curveto
} bd
/SSPD {
dup length /d exch dict def
{
/v exch def
/k exch def
currentpagedevice k known {
/cpdv currentpagedevice k get def
v cpdv ne {
/upd false def
/nullv v type /nulltype eq def
/nullcpdv cpdv type /nulltype eq def
nullv nullcpdv or
{
/upd true def
} {
/sametype v type cpdv type eq def
sametype {
v type /arraytype eq {
/vlen v length def
/cpdvlen cpdv length def
vlen cpdvlen eq {
0 1 vlen 1 sub {
/i exch def
/obj v i get def
/cpdobj cpdv i get def
obj cpdobj ne {
/upd true def
exit
} if
} for
} {
/upd true def
} ifelse
} {
v type /dicttype eq {
v {
/dv exch def
/dk exch def
/cpddv cpdv dk get def
dv cpddv ne {
/upd true def
exit
} if
} forall
} {
/upd true def
} ifelse
} ifelse
} if
} ifelse
upd true eq {
d k v put
} if
} if
} if
} forall
d length 0 gt {
d setpagedevice
} if
} bd
%%EndResource
%%BeginResource: procset (Apache XML Graphics EPS ProcSet) 1.0 0
%%Version: 1.0 0
%%Copyright: (Copyright 2002-2003 The Apache Software Foundation. License terms: http://www.apache.org/licenses/LICENSE-2.0)
/BeginEPSF { %def
/b4_Inc_state save def         % Save state for cleanup
/dict_count countdictstack def % Count objects on dict stack
/op_count count 1 sub def      % Count objects on operand stack
userdict begin                 % Push userdict on dict stack
/showpage { } def              % Redefine showpage, { } = null proc
0 setgray 0 setlinecap         % Prepare graphics state
1 setlinewidth 0 setlinejoin
10 setmiterlimit [ ] 0 setdash newpath
/languagelevel where           % If level not equal to 1 then
{pop languagelevel             % set strokeadjust and
1 ne                           % overprint to their defaults.
{false setstrokeadjust false setoverprint
} if
} if
} bd
/EndEPSF { %def
count op_count sub {pop} repeat            % Clean up stacks
countdictstack dict_count sub {end} repeat
b4_Inc_state restore
} bd
%%EndResource
%FOPBeginFontDict
%%IncludeResource: font Courier-Bold
%%IncludeResource: font Helvetica
%%IncludeResource: font Courier-BoldOblique
%%IncludeResource: font Courier-Oblique
%%IncludeResource: font Times-Roman
%%IncludeResource: font Helvetica-BoldOblique
%%IncludeResource: font Helvetica-Bold
%%IncludeResource: font Helvetica-Oblique
%%IncludeResource: font Times-BoldItalic
%%IncludeResource: font Courier
%%IncludeResource: font Times-Italic
%%IncludeResource: font Times-Bold
%%IncludeResource: font Symbol
%%IncludeResource: font ZapfDingbats
%FOPEndFontDict
%%BeginResource: encoding WinAnsiEncoding
/WinAnsiEncoding [
/.notdef /.notdef /.notdef /.notdef /.notdef
/.notdef /.notdef /.notdef /.notdef /.notdef
/.notdef /.notdef /.notdef /.notdef /.notdef
/.notdef /.notdef /.notdef /.notdef /.notdef
/.notdef /.notdef /.notdef /.notdef /.notdef
/.notdef /.notdef /.notdef /.notdef /.notdef
/.notdef /.notdef /space /exclam /quotedbl
/numbersign /dollar /percent /ampersand /quotesingle
/parenleft /parenright /asterisk /plus /comma
/hyphen /period /slash /zero /one
/two /three /four /five /six
/seven /eight /nine /colon /semicolon
/less /equal /greater /question /at
/A /B /C /D /E
/F /G /H /I /J
/K /L /M /N /O
/P /Q /R /S /T
/U /V /W /X /Y
/Z /bracketleft /backslash /bracketright /asciicircum
/underscore /quoteleft /a /b /c
/d /e /f /g /h
/i /j /k /l /m
/n /o /p /q /r
/s /t /u /v /w
/x /y /z /braceleft /bar
/braceright /asciitilde /bullet /Euro /bullet
/quotesinglbase /florin /quotedblbase /ellipsis /dagger
/daggerdbl /circumflex /perthousand /Scaron /guilsinglleft
/OE /bullet /Zcaron /bullet /bullet
/quoteleft /quoteright /quotedblleft /quotedblright /bullet
/endash /emdash /asciitilde /trademark /scaron
/guilsinglright /oe /bullet /zcaron /Ydieresis
/space /exclamdown /cent /sterling /currency
/yen /brokenbar /section /dieresis /copyright
/ordfeminine /guillemotleft /logicalnot /sfthyphen /registered
/macron /degree /plusminus /twosuperior /threesuperior
/acute /mu /paragraph /middot /cedilla
/onesuperior /ordmasculine /guillemotright /onequarter /onehalf
/threequarters /questiondown /Agrave /Aacute /Acircumflex
/Atilde /Adieresis /Aring /AE /Ccedilla
/Egrave /Eacute /Ecircumflex /Edieresis /Igrave
/Iacute /Icircumflex /Idieresis /Eth /Ntilde
/Ograve /Oacute /Ocircumflex /Otilde /Odieresis
/multiply /Oslash /Ugrave /Uacute /Ucircumflex
/Udieresis /Yacute /Thorn /germandbls /agrave
/aacute /acircumflex /atilde /adieresis /aring
/ae /ccedilla /egrave /eacute /ecircumflex
/edieresis /igrave /iacute /icircumflex /idieresis
/eth /ntilde /ograve /oacute /ocircumflex
/otilde /odieresis /divide /oslash /ugrave
/uacute /ucircumflex /udieresis /yacute /thorn
/ydieresis
] def
%%EndResource
%FOPBeginFontReencode
/Courier-Bold findfont
dup length dict begin
  {1 index /FID ne {def} {pop pop} ifelse} forall
  /Encoding WinAnsiEncoding def
  currentdict
end
/Courier-Bold exch definefont pop
/Helvetica findfont
dup length dict begin
  {1 index /FID ne {def} {pop pop} ifelse} forall
  /Encoding WinAnsiEncoding def
  currentdict
end
/Helvetica exch definefont pop
/Courier-BoldOblique findfont
dup length dict begin
  {1 index /FID ne {def} {pop pop} ifelse} forall
  /Encoding WinAnsiEncoding def
  currentdict
end
/Courier-BoldOblique exch definefont pop
/Courier-Oblique findfont
dup length dict begin
  {1 index /FID ne {def} {pop pop} ifelse} forall
  /Encoding WinAnsiEncoding def
  currentdict
end
/Courier-Oblique exch definefont pop
/Times-Roman findfont
dup length dict begin
  {1 index /FID ne {def} {pop pop} ifelse} forall
  /Encoding WinAnsiEncoding def
  currentdict
end
/Times-Roman exch definefont pop
/Helvetica-BoldOblique findfont
dup length dict begin
  {1 index /FID ne {def} {pop pop} ifelse} forall
  /Encoding WinAnsiEncoding def
  currentdict
end
/Helvetica-BoldOblique exch definefont pop
/Helvetica-Bold findfont
dup length dict begin
  {1 index /FID ne {def} {pop pop} ifelse} forall
  /Encoding WinAnsiEncoding def
  currentdict
end
/Helvetica-Bold exch definefont pop
/Helvetica-Oblique findfont
dup length dict begin
  {1 index /FID ne {def} {pop pop} ifelse} forall
  /Encoding WinAnsiEncoding def
  currentdict
end
/Helvetica-Oblique exch definefont pop
/Times-BoldItalic findfont
dup length dict begin
  {1 index /FID ne {def} {pop pop} ifelse} forall
  /Encoding WinAnsiEncoding def
  currentdict
end
/Times-BoldItalic exch definefont pop
/Courier findfont
dup length dict begin
  {1 index /FID ne {def} {pop pop} ifelse} forall
  /Encoding WinAnsiEncoding def
  currentdict
end
/Courier exch definefont pop
/Times-Italic findfont
dup length dict begin
  {1 index /FID ne {def} {pop pop} ifelse} forall
  /Encoding WinAnsiEncoding def
  currentdict
end
/Times-Italic exch definefont pop
/Times-Bold findfont
dup length dict begin
  {1 index /FID ne {def} {pop pop} ifelse} forall
  /Encoding WinAnsiEncoding def
  currentdict
end
/Times-Bold exch definefont pop
%FOPEndFontReencode
%%EndProlog
%%Page: 1 1
%%PageBoundingBox: 0 0 576 432
%%BeginPageSetup
[1 0 0 -1 0 432] CT
%%EndPageSetup
GS
1 GC
N
0 0 576 432 re
f
GR
GS
1 GC
N
0 0 576 432 re
f
GR
GS
1 GC
N
75 180 M
521 180 L
521 32 L
75 32 L
cp
f
GR
GS
0.149 GC
2 setlinecap
10.0 ML
N
75 180 M
521 180 L
S
GR
GS
0.149 GC
2 setlinecap
10.0 ML
N
75 180 M
75 175.54 L
S
GR
GS
0.149 GC
2 setlinecap
10.0 ML
N
119.6 180 M
119.6 175.54 L
S
GR
GS
0.149 GC
2 setlinecap
10.0 ML
N
164.2 180 M
164.2 175.54 L
S
GR
GS
0.149 GC
2 setlinecap
10.0 ML
N
208.8 180 M
208.8 175.54 L
S
GR
GS
0.149 GC
2 setlinecap
10.0 ML
N
253.4 180 M
253.4 175.54 L
S
GR
GS
0.149 GC
2 setlinecap
10.0 ML
N
298 180 M
298 175.54 L
S
GR
GS
0.149 GC
2 setlinecap
10.0 ML
N
342.6 180 M
342.6 175.54 L
S
GR
GS
0.149 GC
2 setlinecap
10.0 ML
N
387.2 180 M
387.2 175.54 L
S
GR
GS
0.149 GC
2 setlinecap
10.0 ML
N
431.8 180 M
431.8 175.54 L
S
GR
GS
0.149 GC
2 setlinecap
10.0 ML
N
476.4 180 M
476.4 175.54 L
S
GR
GS
0.149 GC
2 setlinecap
10.0 ML
N
521 180 M
521 175.54 L
S
GR
GS
[1 0 0 1 75 184] CT
0.149 GC
/Helvetica 10 F
GS
[1 0 0 1 0 0] CT
-2.781 7.7 moveto 
1 -1 scale
(0) t 
GR
GR
GS
[1 0 0 1 119.6 184] CT
0.149 GC
/Helvetica 10 F
GS
[1 0 0 1 0 0] CT
-5.562 7.7 moveto 
1 -1 scale
(10) t 
GR
GR
GS
[1 0 0 1 164.2 184] CT
0.149 GC
/Helvetica 10 F
GS
[1 0 0 1 0 0] CT
-5.562 7.7 moveto 
1 -1 scale
(20) t 
GR
GR
GS
[1 0 0 1 208.8 184] CT
0.149 GC
/Helvetica 10 F
GS
[1 0 0 1 0 0] CT
-5.562 7.7 moveto 
1 -1 scale
(30) t 
GR
GR
GS
[1 0 0 1 253.39999 184] CT
0.149 GC
/Helvetica 10 F
GS
[1 0 0 1 0 0] CT
-5.562 7.7 moveto 
1 -1 scale
(40) t 
GR
GR
GS
[1 0 0 1 298 184] CT
0.149 GC
/Helvetica 10 F
GS
[1 0 0 1 0 0] CT
-5.562 7.7 moveto 
1 -1 scale
(50) t 
GR
GR
GS
[1 0 0 1 342.60001 184] CT
0.149 GC
/Helvetica 10 F
GS
[1 0 0 1 0 0] CT
-5.562 7.7 moveto 
1 -1 scale
(60) t 
GR
GR
GS
[1 0 0 1 387.20001 184] CT
0.149 GC
/Helvetica 10 F
GS
[1 0 0 1 0 0] CT
-5.562 7.7 moveto 
1 -1 scale
(70) t 
GR
GR
GS
[1 0 0 1 431.79999 184] CT
0.149 GC
/Helvetica 10 F
GS
[1 0 0 1 0 0] CT
-5.562 7.7 moveto 
1 -1 scale
(80) t 
GR
GR
GS
[1 0 0 1 476.39999 184] CT
0.149 GC
/Helvetica 10 F
GS
[1 0 0 1 0 0] CT
-5.562 7.7 moveto 
1 -1 scale
(90) t 
GR
GR
GS
[1 0 0 1 521 184] CT
0.149 GC
/Helvetica 10 F
GS
[1 0 0 1 0 0] CT
-8.342 7.7 moveto 
1 -1 scale
(100) t 
GR
GR
GS
[0 -1 1 0 56.87695 106] CT
0.149 GC
/Helvetica 11 F
GS
[1 0 0 1 0 0] CT
-18.036 -1.53 moveto 
1 -1 scale
(Block 1) t 
GR
GR
GS
0.149 GC
2 setlinecap
10.0 ML
N
75 180 M
75 32 L
S
GR
GS
0.149 GC
2 setlinecap
10.0 ML
N
75 180 M
79.46 180 L
S
GR
GS
0.149 GC
2 setlinecap
10.0 ML
N
75 155.333 M
79.46 155.333 L
S
GR
GS
0.149 GC
2 setlinecap
10.0 ML
N
75 130.667 M
79.46 130.667 L
S
GR
GS
0.149 GC
2 setlinecap
10.0 ML
N
75 106 M
79.46 106 L
S
GR
GS
0.149 GC
2 setlinecap
10.0 ML
N
75 81.333 M
79.46 81.333 L
S
GR
GS
0.149 GC
2 setlinecap
10.0 ML
N
75 56.667 M
79.46 56.667 L
S
GR
GS
0.149 GC
2 setlinecap
10.0 ML
N
75 32 M
79.46 32 L
S
GR
GS
[1 0 0 1 71 180] CT
0.149 GC
/Helvetica 10 F
GS
[1 0 0 1 0 0] CT
-5.562 3.2 moveto 
1 -1 scale
(0) t 
GR
GR
GS
[1 0 0 1 71 155.33333] CT
0.149 GC
/Helvetica 10 F
GS
[1 0 0 1 0 0] CT
-5.562 3.2 moveto 
1 -1 scale
(2) t 
GR
GR
GS
[1 0 0 1 71 130.66667] CT
0.149 GC
/Helvetica 10 F
GS
[1 0 0 1 0 0] CT
-5.562 3.2 moveto 
1 -1 scale
(4) t 
GR
GR
GS
[1 0 0 1 71 106] CT
0.149 GC
/Helvetica 10 F
GS
[1 0 0 1 0 0] CT
-5.562 3.2 moveto 
1 -1 scale
(6) t 
GR
GR
GS
[1 0 0 1 71 81.33334] CT
0.149 GC
/Helvetica 10 F
GS
[1 0 0 1 0 0] CT
-5.562 3.2 moveto 
1 -1 scale
(8) t 
GR
GR
GS
[1 0 0 1 71 56.66667] CT
0.149 GC
/Helvetica 10 F
GS
[1 0 0 1 0 0] CT
-11.123 3.2 moveto 
1 -1 scale
(10) t 
GR
GR
GS
[1 0 0 1 71 32] CT
0.149 GC
/Helvetica 10 F
GS
[1 0 0 1 0 0] CT
-11.123 3.2 moveto 
1 -1 scale
(12) t 
GR
GR
GS
0.208 0.165 0.525 RC
N
75 180 M
75 32 L
119.6 32 L
cp
f
GR
GS
0.208 0.165 0.525 RC
N
75 180 M
119.6 32 L
119.6 180 L
cp
f
GR
GS
0.208 0.165 0.525 RC
N
476.4 180 M
476.4 167.667 L
521 167.667 L
cp
f
GR
GS
0.208 0.165 0.525 RC
N
476.4 180 M
521 167.667 L
521 180 L
cp
f
GR
GS
0.149 GC
2 setlinecap
10.0 ML
N
75 180 M
75 32 L
119.6 32 L
119.6 180 L
75 180 L
S
GR
GS
0.149 GC
2 setlinecap
10.0 ML
N
119.6 180 M
119.6 180 L
164.2 180 L
164.2 180 L
119.6 180 L
S
GR
GS
0.149 GC
2 setlinecap
10.0 ML
N
164.2 180 M
164.2 180 L
208.8 180 L
208.8 180 L
164.2 180 L
S
GR
GS
0.149 GC
2 setlinecap
10.0 ML
N
208.8 180 M
208.8 180 L
253.4 180 L
253.4 180 L
208.8 180 L
S
GR
GS
0.149 GC
2 setlinecap
10.0 ML
N
253.4 180 M
253.4 180 L
298 180 L
298 180 L
253.4 180 L
S
GR
GS
0.149 GC
2 setlinecap
10.0 ML
N
298 180 M
298 180 L
342.6 180 L
342.6 180 L
298 180 L
S
GR
GS
0.149 GC
2 setlinecap
10.0 ML
N
342.6 180 M
342.6 180 L
387.2 180 L
387.2 180 L
342.6 180 L
S
GR
GS
0.149 GC
2 setlinecap
10.0 ML
N
387.2 180 M
387.2 180 L
431.8 180 L
431.8 180 L
387.2 180 L
S
GR
GS
0.149 GC
2 setlinecap
10.0 ML
N
431.8 180 M
431.8 180 L
476.4 180 L
476.4 180 L
431.8 180 L
S
GR
GS
0.149 GC
2 setlinecap
10.0 ML
N
476.4 180 M
476.4 167.667 L
521 167.667 L
521 180 L
476.4 180 L
S
GR
GS
1 0 0 RC
[8 8] 0 setdash
2 LJ
2 LW
N
119.6 167.667 M
119.6 155.333 L
119.6 143 L
119.6 130.667 L
119.6 118.333 L
119.6 106 L
119.6 93.667 L
119.6 81.333 L
119.6 69 L
119.6 56.667 L
119.6 44.333 L
119.6 32 L
S
GR
GS
[1 0 0 1 298 29.25] CT
/Helvetica-Bold 11 F
GS
[1 0 0 1 0 0] CT
-109.726 -1.53 moveto 
1 -1 scale
(Learning-phase trials skipped: 1 excluded) t 
GR
GR
GS
1 GC
N
75 384 M
521 384 L
521 237 L
75 237 L
cp
f
GR
GS
0.149 GC
2 setlinecap
10.0 ML
N
75 384 M
521 384 L
S
GR
GS
0.149 GC
2 setlinecap
10.0 ML
N
75 384 M
75 379.54 L
S
GR
GS
0.149 GC
2 setlinecap
10.0 ML
N
119.6 384 M
119.6 379.54 L
S
GR
GS
0.149 GC
2 setlinecap
10.0 ML
N
164.2 384 M
164.2 379.54 L
S
GR
GS
0.149 GC
2 setlinecap
10.0 ML
N
208.8 384 M
208.8 379.54 L
S
GR
GS
0.149 GC
2 setlinecap
10.0 ML
N
253.4 384 M
253.4 379.54 L
S
GR
GS
0.149 GC
2 setlinecap
10.0 ML
N
298 384 M
298 379.54 L
S
GR
GS
0.149 GC
2 setlinecap
10.0 ML
N
342.6 384 M
342.6 379.54 L
S
GR
GS
0.149 GC
2 setlinecap
10.0 ML
N
387.2 384 M
387.2 379.54 L
S
GR
GS
0.149 GC
2 setlinecap
10.0 ML
N
431.8 384 M
431.8 379.54 L
S
GR
GS
0.149 GC
2 setlinecap
10.0 ML
N
476.4 384 M
476.4 379.54 L
S
GR
GS
0.149 GC
2 setlinecap
10.0 ML
N
521 384 M
521 379.54 L
S
GR
GS
[1 0 0 1 75 388] CT
0.149 GC
/Helvetica 10 F
GS
[1 0 0 1 0 0] CT
-2.781 7.7 moveto 
1 -1 scale
(0) t 
GR
GR
GS
[1 0 0 1 119.6 388] CT
0.149 GC
/Helvetica 10 F
GS
[1 0 0 1 0 0] CT
-2.781 7.7 moveto 
1 -1 scale
(1) t 
GR
GR
GS
[1 0 0 1 164.2 388] CT
0.149 GC
/Helvetica 10 F
GS
[1 0 0 1 0 0] CT
-2.781 7.7 moveto 
1 -1 scale
(2) t 
GR
GR
GS
[1 0 0 1 208.8 388] CT
0.149 GC
/Helvetica 10 F
GS
[1 0 0 1 0 0] CT
-2.781 7.7 moveto 
1 -1 scale
(3) t 
GR
GR
GS
[1 0 0 1 253.39999 388] CT
0.149 GC
/Helvetica 10 F
GS
[1 0 0 1 0 0] CT
-2.781 7.7 moveto 
1 -1 scale
(4) t 
GR
GR
GS
[1 0 0 1 298 388] CT
0.149 GC
/Helvetica 10 F
GS
[1 0 0 1 0 0] CT
-2.781 7.7 moveto 
1 -1 scale
(5) t 
GR
GR
GS
[1 0 0 1 342.60001 388] CT
0.149 GC
/Helvetica 10 F
GS
[1 0 0 1 0 0] CT
-2.781 7.7 moveto 
1 -1 scale
(6) t 
GR
GR
GS
[1 0 0 1 387.20001 388] CT
0.149 GC
/Helvetica 10 F
GS
[1 0 0 1 0 0] CT
-2.781 7.7 moveto 
1 -1 scale
(7) t 
GR
GR
GS
[1 0 0 1 431.79999 388] CT
0.149 GC
/Helvetica 10 F
GS
[1 0 0 1 0 0] CT
-2.781 7.7 moveto 
1 -1 scale
(8) t 
GR
GR
GS
[1 0 0 1 476.39999 388] CT
0.149 GC
/Helvetica 10 F
GS
[1 0 0 1 0 0] CT
-2.781 7.7 moveto 
1 -1 scale
(9) t 
GR
GR
GS
[1 0 0 1 521 388] CT
0.149 GC
/Helvetica 10 F
GS
[1 0 0 1 0 0] CT
-5.562 7.7 moveto 
1 -1 scale
(10) t 
GR
GR
GS
[0 -1 1 0 56.87695 310.5] CT
0.149 GC
/Helvetica 11 F
GS
[1 0 0 1 0 0] CT
-18.036 -1.53 moveto 
1 -1 scale
(Block 2) t 
GR
GR
GS
0.149 GC
2 setlinecap
10.0 ML
N
75 384 M
75 237 L
S
GR
GS
0.149 GC
2 setlinecap
10.0 ML
N
75 384 M
79.46 384 L
S
GR
GS
0.149 GC
2 setlinecap
10.0 ML
N
75 354.6 M
79.46 354.6 L
S
GR
GS
0.149 GC
2 setlinecap
10.0 ML
N
75 325.2 M
79.46 325.2 L
S
GR
GS
0.149 GC
2 setlinecap
10.0 ML
N
75 295.8 M
79.46 295.8 L
S
GR
GS
0.149 GC
2 setlinecap
10.0 ML
N
75 266.4 M
79.46 266.4 L
S
GR
GS
0.149 GC
2 setlinecap
10.0 ML
N
75 237 M
79.46 237 L
S
GR
GS
[1 0 0 1 71 384] CT
0.149 GC
/Helvetica 10 F
GS
[1 0 0 1 0 0] CT
-5.562 3.2 moveto 
1 -1 scale
(0) t 
GR
GR
GS
[1 0 0 1 71 354.60001] CT
0.149 GC
/Helvetica 10 F
GS
[1 0 0 1 0 0] CT
-5.562 3.2 moveto 
1 -1 scale
(2) t 
GR
GR
GS
[1 0 0 1 71 325.20001] CT
0.149 GC
/Helvetica 10 F
GS
[1 0 0 1 0 0] CT
-5.562 3.2 moveto 
1 -1 scale
(4) t 
GR
GR
GS
[1 0 0 1 71 295.79999] CT
0.149 GC
/Helvetica 10 F
GS
[1 0 0 1 0 0] CT
-5.562 3.2 moveto 
1 -1 scale
(6) t 
GR
GR
GS
[1 0 0 1 71 266.39999] CT
0.149 GC
/Helvetica 10 F
GS
[1 0 0 1 0 0] CT
-5.562 3.2 moveto 
1 -1 scale
(8) t 
GR
GR
GS
[1 0 0 1 71 237] CT
0.149 GC
/Helvetica 10 F
GS
[1 0 0 1 0 0] CT
-11.123 3.2 moveto 
1 -1 scale
(10) t 
GR
GR
GS
0.208 0.165 0.525 RC
N
75 384 M
75 237 L
119.6 237 L
cp
f
GR
GS
0.208 0.165 0.525 RC
N
75 384 M
119.6 237 L
119.6 384 L
cp
f
GR
GS
0.208 0.165 0.525 RC
N
119.6 384 M
119.6 354.6 L
164.2 354.6 L
cp
f
GR
GS
0.208 0.165 0.525 RC
N
119.6 384 M
164.2 354.6 L
164.2 384 L
cp
f
GR
GS
0.208 0.165 0.525 RC
N
476.4 384 M
476.4 369.3 L
521 369.3 L
cp
f
GR
GS
0.208 0.165 0.525 RC
N
476.4 384 M
521 369.3 L
521 384 L
cp
f
GR
GS
0.149 GC
2 setlinecap
10.0 ML
N
75 384 M
75 237 L
119.6 237 L
119.6 384 L
75 384 L
S
GR
GS
0.149 GC
2 setlinecap
10.0 ML
N
119.6 384 M
119.6 354.6 L
164.2 354.6 L
164.2 384 L
119.6 384 L
S
GR
GS
0.149 GC
2 setlinecap
10.0 ML
N
164.2 384 M
164.2 384 L
208.8 384 L
208.8 384 L
164.2 384 L
S
GR
GS
0.149 GC
2 setlinecap
10.0 ML
N
208.8 384 M
208.8 384 L
253.4 384 L
253.4 384 L
208.8 384 L
S
GR
GS
0.149 GC
2 setlinecap
10.0 ML
N
253.4 384 M
253.4 384 L
298 384 L
298 384 L
253.4 384 L
S
GR
GS
0.149 GC
2 setlinecap
10.0 ML
N
298 384 M
298 384 L
342.6 384 L
342.6 384 L
298 384 L
S
GR
GS
0.149 GC
2 setlinecap
10.0 ML
N
342.6 384 M
342.6 384 L
387.2 384 L
387.2 384 L
342.6 384 L
S
GR
GS
0.149 GC
2 setlinecap
10.0 ML
N
387.2 384 M
387.2 384 L
431.8 384 L
431.8 384 L
387.2 384 L
S
GR
GS
0.149 GC
2 setlinecap
10.0 ML
N
431.8 384 M
431.8 384 L
476.4 384 L
476.4 384 L
431.8 384 L
S
GR
GS
0.149 GC
2 setlinecap
10.0 ML
N
476.4 384 M
476.4 369.3 L
521 369.3 L
521 384 L
476.4 384 L
S
GR
GS
1 0 0 RC
[8 8] 0 setdash
2 LJ
2 LW
N
521 369.3 M
521 354.6 L
521 339.9 L
521 325.2 L
521 310.5 L
521 295.8 L
521 281.1 L
521 266.4 L
521 251.7 L
521 237 L
S
GR
%%Trailer
%%BoundingBox: 46 34 529 412
%%Pages: 1
%%EOF
