\hline $0.5$ / $0.5$ & $215.3$ & $554$ & $223.3$ & $240.6$ & $-0.0141$ & $0.8451$ & $1.5510$ & $2.1400$ & $0.0000$ \\
\hline $0.6$ / $0.4$ & $279.5$ & $549$ & $287.5$ & $304.7$ & $0.0217$ & $0.6617$ & $1.5945$ & $1.9399$ & $0.0000$ \\
\hline $0.7$ / $0.3$ & $155.1$ & $368$ & $163.1$ & $178.7$ & $0.2378$ & $0.8368$ & $1.6386$ & $2.1799$ & $0.0000$ \\
\hline $0.8$ / $0.2$ & $149.5$ & $444$ & $157.5$ & $173.9$ & $0.9004$ & $0.0535$ & $1.6639$ & $1.7501$ & $0.0000$ \\
