*********************************************
* Combray
* Date/Time: 10-Oct-2015 14:08:27
* Seed: 211636.1435
* Subject Number: 19
* Subject Name: KL
*********************************************

Block	Trial	RunningTime	Image	CorrResp	Resp	RT
