*********************************************
* Combray
* Date/Time: 11-Aug-2015 13:01:46
* Seed: 208866.948
* Subject Number: 01
* Subject Name: TB
*********************************************

Block	Trial	RunningTime	Image	CorrResp	Resp	RT
1	1	0.00		3	3		NaN	NaN
1	2	7.03		2	2		2	0.68
1	3	15.05		2	2		2	0.34
1	4	23.06		4	4		1	0.65
1	5	31.08		2	2		2	0.52
1	6	39.10		1	1		4	0.73
1	7	47.12		4	4		4	1.00
1	8	55.13		2	2		2	0.75
1	9	63.15		3	3		3	0.77
1	10	71.17		2	2		2	0.64
1	11	79.18		2	2		2	0.57
1	12	87.20		3	3		3	0.98
1	13	95.22		2	2		2	0.67
1	14	103.24		1	1		1	0.55
1	15	111.25		3	3		3	0.53
1	16	119.27		4	4		4	0.55
1	17	127.29		1	1		1	0.55
1	18	135.30		3	3		3	0.83
1	19	143.32		4	4		4	0.63
1	20	151.34		1	1		1	0.63
1	21	159.36		4	4		4	0.86
1	22	167.37		1	1		1	0.54
1	23	175.39		3	3		3	0.67
1	24	183.41		4	4		4	0.62
1	25	191.43		1	1		1	0.55
1	26	199.44		4	4		4	0.65
1	27	207.46		1	1		1	0.54
1	28	215.48		1	1		1	0.50
1	29	223.49		3	3		3	0.54
1	30	231.51		4	4		4	0.67
1	31	239.53		4	4		4	0.62
1	32	247.55		1	1		1	0.47
1	33	255.56		2	2		2	0.72
1	34	263.58		3	3		3	0.60
1	35	271.60		3	3		3	0.57
1	36	279.61		2	2		2	0.62
1	37	287.63		2	2		2	0.50
1	38	295.65		1	1		1	0.55
1	39	303.67		4	4		4	0.75
1	40	311.68		3	3		3	0.63
