*********************************************
* Combray
* Date/Time: 21-Nov-2015 17:09:16
* Seed: 214265.7905
* Subject Number: 31
* Subject Name: EF
*********************************************

Block	Trial	RunningTime	Image	CorrResp	Resp	RT
