*********************************************
* Combray
* Date/Time: 11-Aug-2015 14:05:16
* Seed: 208866.948
* Subject Number: 01
* Subject Name: TB
*********************************************

Block	Trial	RunningTime	Image	CorrResp	Resp	RT
2	1	0.00		4	4		4	0.74
2	2	7.03		4	4		4	0.78
2	3	15.04		4	4		4	0.65
2	4	23.06		1	1		1	0.98
2	5	31.08		1	1		1	0.37
2	6	39.09		2	2		2	0.70
2	7	47.11		1	1		1	0.69
2	8	55.13		2	2		2	1.25
2	9	63.15		2	2		2	0.78
2	10	71.16		4	4		4	0.69
2	11	79.18		4	4		4	0.69
2	12	87.20		3	3		3	0.65
2	13	95.21		1	1		1	0.87
2	14	103.23		3	3		3	1.32
2	15	111.25		2	2		2	0.88
2	16	119.27		1	1		1	0.70
2	17	127.28		1	1		1	0.68
2	18	135.30		4	4		4	0.71
2	19	143.32		1	1		1	0.58
2	20	151.33		1	1		1	0.58
2	21	159.35		4	4		4	0.65
2	22	167.37		3	3		3	0.54
2	23	175.39		3	3		3	0.76
2	24	183.40		1	1		1	0.67
2	25	191.42		3	3		3	0.84
2	26	199.44		3	3		3	0.66
2	27	207.46		2	2		2	0.62
2	28	215.47		3	3		3	0.62
2	29	223.49		2	2		2	0.67
2	30	231.51		2	2		2	0.59
2	31	239.52		2	2		2	0.65
2	32	247.54		3	3		3	0.68
2	33	255.56		1	1		1	0.82
2	34	263.58		4	4		4	0.59
2	35	271.59		4	4		4	0.82
2	36	279.61		4	4		4	0.56
2	37	287.63		3	3		3	0.70
2	38	295.64		2	2		2	0.72
2	39	303.66		2	2		2	0.60
2	40	311.68		3	3		3	0.72
