*********************************************
* Combray
* Date/Time: 10-Oct-2015 13:19:50
* Seed: 211636.1435
* Subject Number: 19
* Subject Name: KL
*********************************************

Block	Phase	Trial	RunningTime	Cue	Image	CorrResp	Resp	Accuracy	ISI	RT_from_CueOnset	ITI
1	1	1	0.51		2	2	2		2	1		1.00		2.46		2.500000e+00
1	1	2	7.30		4	4	4		4	1		1.00		2.68		1.500000e+00
1	1	3	13.08		2	2	2		2	1		1.00		0.67		4.500000e+00
1	1	4	21.86		4	4	4		4	1		1.00		0.92		5.000000e-01
1	1	5	26.65		2	2	2		2	1		1.00		0.70		5.000000e-01
1	1	6	31.43		2	2	2		2	1		1.00		0.60		5.500000e+00
1	1	7	41.21		4	3	3		4	0		1.00		0.62		5.000000e-01
1	1	8	46.00		1	2	2		1	0		1.00		2.02		1.500000e+00
1	1	9	51.78		1	1	1		1	1		1.00		2.88		5.500000e+00
1	1	10	61.57		4	3	3		3	1		1.00		2.38		1.500000e+00
1	1	11	67.35		2	1	1		2	0		1.00		1.07		5.000000e-01
1	1	12	72.13		2	2	2		2	1		1.00		1.83		5.000000e-01
1	1	13	76.92		3	3	3		3	1		1.00		2.30		5.000000e-01
1	1	14	81.70		4	4	4		4	1		1.00		2.33		5.000000e-01
1	1	15	86.48		3	4	4		3	0		1.00		1.35		3.500000e+00
1	1	16	94.27		4	4	4		4	1		1.00		1.44		8
1	1	17	106.55		2	2	2		2	1		1.00		0.88		3.500000e+00
1	1	18	114.34		3	4	4		3	0		1.00		1.27		8
1	1	19	126.62		3	3	3		4	0		1.00		0.94		2.500000e+00
1	1	20	133.40		4	3	3		4	0		1.00		2.11		5.000000e-01
1	1	21	138.19		3	4	4		4	1		1.00		2.98		5.000000e-01
1	1	22	142.97		3	3	3		3	1		1.00		2.36		1.500000e+00
1	1	23	148.75		2	1	1		2	0		1.00		2.12		2.500000e+00
1	1	24	155.54		3	4	4		4	1		1.00		2.42		5.000000e-01
1	1	25	160.32		1	1	1		1	1		1.00		2.23		1.500000e+00
1	1	26	166.11		1	1	1		1	1		1.00		2.30		3.500000e+00
1	1	27	173.89		2	2	2		2	1		1.00		2.25		5.000000e-01
1	1	28	178.67		3	3	3		3	1		1.00		2.42		1.500000e+00
1	1	29	184.46		1	1	1		1	1		1.00		2.13		5.000000e-01
1	1	30	189.24		2	2	2		2	1		1.00		1.51		5.000000e-01
1	1	31	194.02		4	3	3		4	0		1.00		1.60		4.500000e+00
1	1	32	202.81		4	3	3		3	1		1.00		2.09		5.000000e-01
1	1	33	207.59		2	2	2		2	1		1.00		1.32		5.000000e-01
1	1	34	212.38		3	4	4		3	0		1.00		1.40		3.500000e+00
1	1	35	220.16		4	3	3		3	1		1.00		2.12		2.500000e+00
1	1	36	226.94		2	1	1		2	0		1.00		1.00		2.500000e+00
1	1	37	233.73		2	2	2		2	1		1.00		2.19		1.500000e+00
1	1	38	239.51		2	2	2		2	1		1.00		2.10		3.500000e+00
1	1	39	247.29		4	4	4		4	1		1.00		2.34		4.500000e+00
1	1	40	256.08		2	2	2		2	1		1.00		1.33		1.500000e+00
1	1	41	261.86		4	4	4		3	0		1.00		1.66		5.000000e-01
1	1	42	266.65		4	4	4		4	1		1.00		2.40		1.500000e+00
1	1	43	272.43		3	3	3		3	1		1.00		1.98		5.000000e-01
1	1	44	277.21		3	4	4		4	1		1.00		2.48		1.500000e+00
1	1	45	283.00		2	1	1		2	0		1.00		1.48		2.500000e+00
1	1	46	289.78		2	2	2		2	1		1.00		0.68		5.500000e+00
1	1	47	299.57		1	1	1		1	1		1.00		1.20		5.000000e-01
1	1	48	304.35		1	2	2		1	0		1.00		0.74		5.000000e-01
1	1	49	309.13		4	3	3		3	1		1.00		2.61		5.000000e-01
1	1	50	313.92		4	3	3		3	1		1.00		1.03		5.000000e-01
1	1	51	318.70		3	4	4		3	0		1.00		0.73		1.500000e+00
1	1	52	324.48		3	4	4		3	0		1.00		0.61		2.500000e+00
1	1	53	331.27		1	1	1		1	1		1.00		0.68		4.500000e+00
1	1	54	340.05		1	1	1		1	1		1.00		0.61		5.000000e-01
1	1	55	344.83		1	2	2		1	0		1.00		0.55		5.000000e-01
1	1	56	349.62		4	4	4		3	0		1.00		2.18		1.500000e+00
1	1	57	355.40		1	1	1		1	1		1.00		1.25		1.500000e+00
1	1	58	361.19		4	4	4		4	1		1.00		2.43		1.500000e+00
1	1	59	366.97		4	3	3		4	0		1.00		0.58		3.500000e+00
1	1	60	374.75		1	1	1		1	1		1.00		0.81		2.500000e+00
1	1	61	381.54		4	3	3		3	1		1.00		1.41		1.500000e+00
1	1	62	387.32		4	3	3		4	0		1.00		1.11		5.000000e-01
1	1	63	392.10		1	1	1		1	1		1.00		0.67		5.000000e-01
1	1	64	396.89		3	4	4		4	1		1.00		1.09		5.000000e-01
1	1	65	401.67		4	4	4		1	0		1.00		0.75		1.500000e+00
1	1	66	407.46		4	3	3		4	0		1.00		1.85		5.000000e-01
1	1	67	412.24		1	1	1		1	1		1.00		0.62		3.500000e+00
1	1	68	420.02		1	1	1		1	1		1.00		0.62		5.500000e+00
1	1	69	429.81		2	1	1		2	0		1.00		0.68		5.000000e-01
1	1	70	434.59		4	4	4		3	0		1.00		1.35		1.500000e+00
1	1	71	440.37		1	1	1		1	1		1.00		0.64		5.500000e+00
1	1	72	450.16		2	1	1		1	1		1.00		0.93		1.500000e+00
1	1	73	455.94		3	3	3		3	1		1.00		0.97		5.000000e-01
1	1	74	460.73		1	1	1		1	1		1.00		0.58		5.500000e+00
1	1	75	470.51		2	1	1		1	1		1.00		1.09		5.000000e-01
1	1	76	475.29		3	3	3		3	1		1.00		0.67		4.500000e+00
1	1	77	484.08		3	3	3		3	1		1.00		0.60		5.000000e-01
1	1	78	488.86		3	4	4		3	0		1.00		0.50		5.000000e-01
1	1	79	493.65		1	2	2		1	0		1.00		0.64		5.000000e-01
1	1	80	498.43		3	3	3		4	0		1.00		0.59		3.500000e+00
1	1	81	506.21		2	2	2		1	0		1.00		1.30		1.500000e+00
1	1	82	512.00		3	3	3		3	1		1.00		2.47		1.500000e+00
1	1	83	517.78		1	2	2		1	0		1.00		0.75		5.000000e-01
1	1	84	522.56		3	3	3		3	1		1.00		2.12		5.000000e-01
1	1	85	527.35		2	1	1		1	1		1.00		2.28		3.500000e+00
1	1	86	535.13		1	1	1		1	1		1.00		0.71		5.000000e-01
1	1	87	539.91		3	3	3		3	1		1.00		2.61		5.000000e-01
1	1	88	544.70		4	3	3		4	0		1.00		1.60		5.000000e-01
1	1	89	549.48		1	1	1		1	1		1.00		0.96		5.000000e-01
1	1	90	554.27		1	1	1		1	1		1.00		0.73		5.000000e-01
1	1	91	559.05		1	2	2		1	0		1.00		0.58		5.000000e-01
1	1	92	563.83		2	2	2		2	1		1.00		0.57		2.500000e+00
1	1	93	570.62		3	4	4		3	0		1.00		0.56		2.500000e+00
1	1	94	577.40		2	2	2		2	1		1.00		0.87		1.500000e+00
1	1	95	583.18		4	4	4		3	0		1.00		2.14		1.500000e+00
1	1	96	588.97		2	2	2		2	1		1.00		0.67		5.000000e-01
1	1	97	593.75		3	3	3		3	1		1.00		2.48		5.000000e-01
1	1	98	598.54		3	4	4		3	0		1.00		0.58		5.000000e-01
1	1	99	603.32		1	2	2		1	0		1.00		0.63		5.000000e-01
1	1	100	608.10		1	1	1		1	1		1.00		0.52		5.500000e+00
1	2	101	0.50		2	2	2		2	1		6.00		1.07		1.500000e+00
1	2	102	12.27		1	2	2		1	0		4.00		0.83		1.500000e+00
1	2	103	22.06		3	4	4		NaN	0		4.00		NaN		1.500000e+00
1	2	104	31.84		1	2	2		2	1		8.00		10.43		5.000000e-01
1	2	105	44.63		2	2	2		1	0		8.00		2.71		5.000000e-01
1	2	106	57.41		2	2	2		2	1		8.00		1.81		3.500000e+00
1	2	107	73.19		3	3	3		3	1		8.00		2.90		2.500000e+00
1	2	108	87.98		1	1	1		1	1		6.00		0.98		1.500000e+00
1	2	109	99.76		2	2	2		2	1		4.00		1.70		3.500000e+00
1	2	110	111.55		1	2	2		1	0		4.00		1.89		5.000000e-01
1	2	111	120.33		4	3	3		4	0		8.00		10.71		5.000000e-01
1	2	112	133.12		2	1	1		2	0		8.00		1.42		8
1	2	113	153.40		4	4	4		4	1		8.00		3.13		5.000000e-01
1	2	114	166.18		1	2	2		1	0		6.00		7.48		3.500000e+00
1	2	115	179.97		3	3	3		3	1		8.00		3.82		3.500000e+00
1	2	116	195.75		1	2	2		1	0		6.00		1.37		5.000000e-01
1	2	117	206.54		3	4	4		3	0		8.00		1.09		1.500000e+00
1	2	118	220.32		4	3	3		4	0		4.00		1.27		5.000000e-01
1	2	119	229.11		2	1	1		2	0		4.00		0.69		8
1	2	120	245.39		3	3	3		3	1		8.00		1.36		1.500000e+00
1	2	121	259.17		3	3	3		3	1		6.00		8.85		5.000000e-01
1	2	122	269.96		4	3	3		4	0		4.00		4.34		4.500000e+00
1	2	123	282.74		2	2	2		1	0		4.00		1.70		3.500000e+00
1	2	124	294.53		3	3	3		3	1		4.00		0.70		5.500000e+00
1	2	125	308.31		1	1	1		1	1		4.00		0.83		5.000000e-01
1	2	126	317.09		2	2	2		1	0		6.00		1.10		8
1	2	127	335.38		2	2	2		2	1		6.00		1.14		3.500000e+00
1	2	128	349.16		1	1	1		1	1		6.00		0.59		5.000000e-01
1	2	129	359.95		3	4	4		3	0		4.00		0.58		5.000000e-01
1	2	130	368.73		4	3	3		4	0		8.00		3.81		1.500000e+00
1	2	131	382.52		2	1	1		1	1		6.00		1.49		4.500000e+00
1	2	132	397.30		4	4	4		4	1		4.00		0.70		8
1	2	133	413.58		3	3	3		3	1		6.00		0.58		7.500000e+00
1	2	134	431.37		2	1	1		2	0		6.00		1.34		8
1	2	135	449.65		1	1	1		1	1		4.00		0.71		8
1	2	136	465.94		4	3	3		4	0		6.00		0.79		1.500000e+00
1	2	137	477.72		2	1	1		1	1		8.00		9.96		8
1	2	138	498.01		3	4	4		3	0		4.00		0.57		3.500000e+00
1	2	139	509.79		1	1	1		1	1		8.00		0.59		1.500000e+00
1	2	140	523.58		1	1	1		1	1		6.00		0.57		2.500000e+00
1	2	141	536.36		2	2	2		2	1		4.00		0.64		6.500000e+00
1	2	142	551.14		2	2	2		2	1		6.00		0.70		5.000000e-01
1	2	143	561.93		2	2	2		2	1		8.00		0.58		7.500000e+00
1	2	144	581.71		2	2	2		2	1		4.00		0.51		1.500000e+00
1	2	145	591.50		1	1	1		1	1		8.00		0.62		3.500000e+00
1	2	146	607.28		3	4	4		3	0		8.00		0.82		3.500000e+00
1	2	147	623.06		4	3	3		4	0		4.00		0.73		1.500000e+00
1	2	148	632.85		4	3	3		4	0		6.00		0.63		5.000000e-01
1	2	149	643.63		1	1	1		1	1		6.00		1.10		8
1	2	150	661.92		3	3	3		3	1		6.00		0.63		6.500000e+00
1	2	151	678.70		4	4	4		4	1		6.00		0.71		6.500000e+00
1	2	152	695.49		4	4	4		4	1		6.00		1.36		1.500000e+00
1	2	153	707.27		3	3	3		3	1		4.00		0.71		5.000000e-01
1	2	154	716.05		1	1	1		1	1		8.00		0.55		1.500000e+00
1	2	155	729.84		2	2	2		2	1		8.00		0.57		5.500000e+00
1	2	156	747.62		4	3	3		4	0		6.00		0.92		3.500000e+00
1	2	157	761.41		4	4	4		4	1		6.00		0.62		8
1	2	158	779.69		2	2	2		2	1		4.00		0.60		5.000000e-01
1	2	159	788.48		3	4	4		3	0		8.00		0.68		1.500000e+00
1	2	160	802.26		4	4	4		4	1		8.00		0.70		4.500000e+00
1	2	161	819.04		2	1	1		2	0		8.00		0.87		5.000000e-01
1	2	162	831.83		1	1	1		1	1		6.00		0.54		4.500000e+00
1	2	163	846.61		1	2	2		1	0		8.00		0.48		5.000000e-01
1	2	164	859.40		4	4	4		4	1		4.00		0.54		1.500000e+00
1	2	165	869.18		1	1	1		1	1		4.00		0.59		6.500000e+00
1	2	166	883.97		1	1	1		1	1		8.00		0.66		5.000000e-01
1	2	167	896.75		1	1	1		1	1		4.00		0.51		2.500000e+00
1	2	168	907.53		3	3	3		3	1		4.00		0.60		1.500000e+00
1	2	169	917.32		2	1	1		2	0		4.00		0.64		5.500000e+00
1	2	170	931.10		4	3	3		1	0		8.00		1.73		1.500000e+00
1	2	171	944.89		3	4	4		3	0		6.00		0.73		2.500000e+00
1	2	172	957.67		3	4	4		3	0		6.00		0.58		3.500000e+00
1	2	173	971.45		3	3	3		3	1		6.00		0.48		5.000000e-01
1	2	174	982.24		4	4	4		3	0		8.00		10.66		5.000000e-01
1	2	175	995.02		3	4	4		3	0		8.00		0.74		6.500000e+00
1	2	176	1013.81		4	4	4		4	1		8.00		0.59		2.500000e+00
1	2	177	1028.59		3	4	4		3	0		6.00		0.54		5.000000e-01
1	2	178	1039.38		1	1	1		1	1		4.00		6.02		4.500000e+00
1	2	179	1052.16		4	4	4		4	1		6.00		0.68		4.500000e+00
1	2	180	1066.94		4	3	3		4	0		4.00		0.70		1.500000e+00
