*********************************************
* Combray
* Date/Time: 16-Jul-2015 11:17:22
* Seed: 208821.3718
* Subject Number: 01
* Subject Name: SF_SKIPTRAIN
*********************************************

