*********************************************
* Combray
* Date/Time: 21-Nov-2015 16:22:59
* Seed: 214265.7905
* Subject Number: 31
* Subject Name: EF
*********************************************

Block	Phase	Trial	RunningTime	Cue	Image	CorrResp	Resp	Accuracy	ISI	RT_from_CueOnset	ITI
1	1	1	0.51		3	4	4		4	1		1.00		3.14		5.000000e-01
1	1	2	5.29		3	4	4		4	1		1.00		2.28		5.000000e-01
1	1	3	10.07		1	1	1		1	1		1.00		2.50		5.000000e-01
1	1	4	14.86		1	1	1		1	1		1.00		1.00		5.000000e-01
1	1	5	19.64		2	2	2		2	1		1.00		2.61		5.000000e-01
1	1	6	24.42		2	1	1		2	0		1.00		1.23		5.000000e-01
1	1	7	29.21		1	2	2		2	1		1.00		2.49		2.500000e+00
1	1	8	35.99		1	2	2		2	1		1.00		2.28		5.000000e-01
1	1	9	40.77		2	2	2		2	1		1.00		2.42		5.000000e-01
1	1	10	45.56		4	4	4		4	1		1.00		2.60		1.500000e+00
1	1	11	51.34		3	3	3		3	1		1.00		2.44		5.000000e-01
1	1	12	56.13		4	3	3		3	1		1.00		2.49		1.500000e+00
1	1	13	61.91		2	1	1		1	1		1.00		2.47		5.000000e-01
1	1	14	66.69		1	2	2		2	1		1.00		2.18		1.500000e+00
1	1	15	72.48		1	1	1		1	1		1.00		2.20		5.000000e-01
1	1	16	77.26		2	2	2		2	1		1.00		2.30		2.500000e+00
1	1	17	84.04		2	2	2		2	1		1.00		2.42		8
1	1	18	96.33		2	1	1		2	0		1.00		1.12		5.000000e-01
1	1	19	101.11		1	1	1		1	1		1.00		2.32		5.000000e-01
1	1	20	105.90		1	1	1		1	1		1.00		2.14		5.000000e-01
1	1	21	110.68		2	2	2		2	1		1.00		2.20		5.000000e-01
1	1	22	115.46		4	3	3		3	1		1.00		2.24		5.000000e-01
1	1	23	120.25		2	1	1		1	1		1.00		2.34		4.500000e+00
1	1	24	129.03		3	3	3		3	1		1.00		2.33		1.500000e+00
1	1	25	134.81		1	2	2		2	1		1.00		2.30		1.500000e+00
1	1	26	140.60		1	1	1		1	1		1.00		2.26		1.500000e+00
1	1	27	146.38		4	3	3		3	1		1.00		2.19		3.500000e+00
1	1	28	154.17		2	2	2		2	1		1.00		2.15		1.500000e+00
1	1	29	159.95		1	1	1		1	1		1.00		1.05		1.500000e+00
1	1	30	165.73		2	1	1		2	0		1.00		0.99		1.500000e+00
1	1	31	171.52		2	2	2		2	1		1.00		2.27		3.500000e+00
1	1	32	179.30		3	4	4		3	0		1.00		1.38		5.500000e+00
1	1	33	189.09		4	3	3		3	1		1.00		2.24		5.000000e-01
1	1	34	193.87		4	4	4		4	1		1.00		2.46		2.500000e+00
1	1	35	200.65		2	2	2		2	1		1.00		2.15		5.500000e+00
1	1	36	210.44		3	3	3		3	1		1.00		2.45		5.000000e-01
1	1	37	215.22		4	4	4		4	1		1.00		2.51		4.500000e+00
1	1	38	224.00		1	1	1		1	1		1.00		2.13		2.500000e+00
1	1	39	230.79		4	4	4		3	0		1.00		1.20		5.000000e-01
1	1	40	235.57		3	4	4		4	1		1.00		2.38		5.000000e-01
1	1	41	240.35		2	1	1		1	1		1.00		2.37		5.000000e-01
1	1	42	245.14		2	2	2		2	1		1.00		1.17		5.000000e-01
1	1	43	249.92		2	2	2		1	0		1.00		1.16		5.000000e-01
1	1	44	254.71		4	3	3		3	1		1.00		2.35		5.000000e-01
1	1	45	259.49		3	3	3		3	1		1.00		2.21		5.000000e-01
1	1	46	264.27		4	4	4		4	1		1.00		1.11		5.000000e-01
1	1	47	269.06		1	1	1		1	1		1.00		2.38		3.500000e+00
1	1	48	276.84		2	2	2		2	1		1.00		2.34		2.500000e+00
1	1	49	283.62		4	4	4		4	1		1.00		2.34		5.000000e-01
1	1	50	288.41		3	4	4		3	0		1.00		1.06		2.500000e+00
1	1	51	295.19		4	3	3		3	1		1.00		2.32		5.000000e-01
1	1	52	299.98		3	3	3		3	1		1.00		1.80		5.000000e-01
1	1	53	304.76		3	3	3		4	0		1.00		1.05		3.500000e+00
1	1	54	312.54		1	1	1		1	1		1.00		2.40		3.500000e+00
1	1	55	320.33		1	1	1		1	1		1.00		2.25		1.500000e+00
1	1	56	326.11		3	4	4		4	1		1.00		2.65		4.500000e+00
1	1	57	334.89		4	3	3		3	1		1.00		2.18		5.000000e-01
1	1	58	339.68		3	3	3		3	1		1.00		2.38		1.500000e+00
1	1	59	345.46		2	1	1		1	1		1.00		2.41		5.500000e+00
1	1	60	355.25		4	3	3		3	1		1.00		2.23		5.000000e-01
1	1	61	360.03		3	4	4		4	1		1.00		2.20		3.500000e+00
1	1	62	367.81		1	1	1		1	1		1.00		2.26		5.000000e-01
1	1	63	372.60		1	2	2		2	1		1.00		2.18		5.500000e+00
1	1	64	382.38		1	1	1		1	1		1.00		1.28		5.000000e-01
1	1	65	387.17		3	3	3		4	0		1.00		1.25		5.000000e-01
1	1	66	391.95		3	3	3		3	1		1.00		2.68		5.500000e+00
1	1	67	401.73		3	4	4		4	1		1.00		2.28		1.500000e+00
1	1	68	407.52		3	3	3		3	1		1.00		1.25		3.500000e+00
1	1	69	415.30		1	2	2		2	1		1.00		1.11		8
1	1	70	427.58		1	2	2		1	0		1.00		1.16		1.500000e+00
1	1	71	433.37		3	3	3		3	1		1.00		1.47		5.000000e-01
1	1	72	438.15		4	3	3		3	1		1.00		2.20		3.500000e+00
1	1	73	445.94		3	4	4		4	1		1.00		1.05		5.000000e-01
1	1	74	450.72		1	2	2		1	0		1.00		1.72		1.500000e+00
1	1	75	456.50		4	4	4		4	1		1.00		2.43		5.000000e-01
1	1	76	461.29		1	1	1		2	0		1.00		1.79		1.500000e+00
1	1	77	467.07		2	1	1		1	1		1.00		2.41		5.000000e-01
1	1	78	471.85		4	3	3		3	1		1.00		1.57		5.000000e-01
1	1	79	476.64		2	1	1		2	0		1.00		1.25		1.500000e+00
1	1	80	482.42		4	3	3		4	0		1.00		1.41		5.000000e-01
1	1	81	487.20		1	2	2		2	1		1.00		2.42		5.500000e+00
1	1	82	496.99		2	1	1		1	1		1.00		2.32		5.000000e-01
1	1	83	501.77		3	3	3		3	1		1.00		2.29		2.500000e+00
1	1	84	508.56		4	4	4		4	1		1.00		2.49		5.000000e-01
1	1	85	513.34		3	4	4		4	1		1.00		1.53		1.500000e+00
1	1	86	519.12		3	4	4		3	0		1.00		1.08		5.000000e-01
1	1	87	523.91		3	4	4		4	1		1.00		2.22		2.500000e+00
1	1	88	530.69		3	3	3		3	1		1.00		2.19		1.500000e+00
1	1	89	536.47		4	3	3		3	1		1.00		2.38		1.500000e+00
1	1	90	542.26		2	2	2		2	1		1.00		1.58		1.500000e+00
1	1	91	548.04		4	4	4		4	1		1.00		1.30		1.500000e+00
1	1	92	553.83		4	4	4		3	0		1.00		1.00		4.500000e+00
1	1	93	562.61		4	3	3		3	1		1.00		2.44		1.500000e+00
1	1	94	568.39		1	1	1		1	1		1.00		2.36		5.500000e+00
1	1	95	578.18		4	4	4		4	1		1.00		2.21		4.500000e+00
1	1	96	586.96		1	2	2		1	0		1.00		1.42		5.000000e-01
1	1	97	591.75		2	2	2		2	1		1.00		2.16		2.500000e+00
1	1	98	598.53		2	2	2		2	1		1.00		1.44		5.000000e-01
1	1	99	603.31		2	2	2		1	0		1.00		1.05		2.500000e+00
1	1	100	610.10		4	4	4		4	1		1.00		2.37		3.500000e+00
1	2	101	0.50		2	2	2		2	1		8.00		6.59		3.500000e+00
1	2	102	16.29		1	1	1		1	1		6.00		1.34		1.500000e+00
1	2	103	28.07		3	4	4		4	1		8.00		2.04		6.500000e+00
1	2	104	46.86		4	3	3		3	1		4.00		1.18		5.000000e-01
1	2	105	55.64		3	4	4		3	0		6.00		2.73		5.000000e-01
1	2	106	66.42		1	1	1		1	1		8.00		10.63		1.500000e+00
1	2	107	80.21		4	4	4		4	1		4.00		5.88		5.500000e+00
1	2	108	93.99		2	1	1		1	1		8.00		10.67		1.500000e+00
1	2	109	107.78		1	1	1		2	0		4.00		2.36		5.000000e-01
1	2	110	116.56		2	2	2		2	1		8.00		10.11		3.500000e+00
1	2	111	132.35		2	2	2		2	1		6.00		1.54		6.500000e+00
1	2	112	149.13		4	4	4		3	0		6.00		2.27		5.000000e-01
1	2	113	159.91		1	2	2		2	1		4.00		6.20		5.000000e-01
1	2	114	168.70		3	3	3		4	0		6.00		8.54		1.500000e+00
1	2	115	180.48		4	4	4		4	1		8.00		3.14		2.500000e+00
1	2	116	195.27		1	2	2		1	0		6.00		2.20		8
1	2	117	213.55		4	4	4		3	0		6.00		2.94		3.500000e+00
1	2	118	227.34		4	4	4		4	1		4.00		1.66		5.500000e+00
1	2	119	241.12		1	1	1		2	0		6.00		8.87		2.500000e+00
1	2	120	253.90		2	1	1		2	0		8.00		3.45		4.500000e+00
1	2	121	270.69		2	2	2		1	0		8.00		1.41		8
1	2	122	290.97		1	2	2		1	0		4.00		1.79		4.500000e+00
1	2	123	303.76		4	4	4		3	0		8.00		9.27		1.500000e+00
1	2	124	317.54		2	1	1		2	0		6.00		8.83		1.500000e+00
1	2	125	329.33		2	1	1		2	0		4.00		7.53		5.500000e+00
1	2	126	343.11		1	2	2		2	1		8.00		11.00		5.000000e-01
1	2	127	355.89		2	2	2		2	1		4.00		7.38		6.500000e+00
1	2	128	370.68		3	3	3		4	0		6.00		2.33		4.500000e+00
1	2	129	385.46		1	2	2		1	0		6.00		2.22		1.500000e+00
1	2	130	397.25		2	2	2		2	1		6.00		8.67		1.500000e+00
1	2	131	409.03		4	3	3		4	0		4.00		6.90		8
1	2	132	425.32		1	1	1		1	1		4.00		6.40		8
1	2	133	441.60		3	3	3		3	1		6.00		8.27		5.000000e-01
1	2	134	452.38		3	3	3		3	1		8.00		10.30		8
1	2	135	472.67		3	4	4		3	0		6.00		1.74		6.500000e+00
1	2	136	489.45		2	2	2		2	1		6.00		8.87		5.000000e-01
1	2	137	500.24		2	1	1		2	0		4.00		6.64		1.500000e+00
1	2	138	510.02		4	3	3		3	1		8.00		10.11		3.500000e+00
1	2	139	525.81		4	3	3		3	1		6.00		8.20		5.000000e-01
1	2	140	536.59		1	1	1		2	0		8.00		11.00		1.500000e+00
1	2	141	550.37		1	1	1		1	1		6.00		2.66		7.500000e+00
1	2	142	568.16		4	3	3		3	1		6.00		8.27		5.000000e-01
1	2	143	578.94		2	2	2		2	1		4.00		2.19		5.000000e-01
1	2	144	587.73		3	3	3		4	0		4.00		1.33		3.500000e+00
1	2	145	599.51		1	1	1		1	1		8.00		11.00		4.500000e+00
1	2	146	616.30		3	4	4		3	0		8.00		1.92		1.500000e+00
1	2	147	630.08		1	2	2		2	1		4.00		6.64		3.500000e+00
1	2	148	641.86		1	1	1		1	1		4.00		6.47		2.500000e+00
1	2	149	652.65		4	3	3		4	0		8.00		3.02		8
1	2	150	672.93		2	1	1		NaN	0		6.00		NaN		5.000000e-01
1	2	151	683.72		4	4	4		4	1		4.00		5.87		6.500000e+00
1	2	152	698.50		2	1	1		1	1		8.00		10.23		1.500000e+00
1	2	153	712.29		3	3	3		4	0		8.00		3.22		1.500000e+00
1	2	154	726.07		3	4	4		3	0		8.00		1.98		4.500000e+00
1	2	155	742.85		1	1	1		1	1		6.00		8.60		5.000000e-01
1	2	156	753.64		4	3	3		3	1		4.00		6.58		7.500000e+00
1	2	157	769.42		2	2	2		2	1		4.00		3.13		3.500000e+00
1	2	158	781.21		1	2	2		1	0		6.00		1.78		8
1	2	159	799.49		3	3	3		3	1		4.00		6.50		2.500000e+00
1	2	160	810.28		3	4	4		4	1		8.00		10.43		1.500000e+00
1	2	161	824.06		1	2	2		2	1		8.00		10.10		5.000000e-01
1	2	162	836.84		1	1	1		2	0		8.00		3.64		8
1	2	163	857.13		4	4	4		4	1		6.00		8.17		1.500000e+00
1	2	164	868.91		3	4	4		4	1		6.00		7.83		4.500000e+00
1	2	165	883.70		4	3	3		3	1		8.00		2.66		3.500000e+00
1	2	166	899.48		3	4	4		3	0		4.00		4.39		5.000000e-01
1	2	167	908.27		3	3	3		3	1		4.00		6.50		5.000000e-01
1	2	168	917.05		2	2	2		2	1		4.00		6.37		1.500000e+00
1	2	169	926.83		2	2	2		2	1		8.00		1.64		5.000000e-01
1	2	170	939.62		3	4	4		4	1		4.00		6.75		5.000000e-01
1	2	171	948.40		3	4	4		4	1		4.00		1.35		8
1	2	172	964.69		2	1	1		1	1		4.00		4.90		5.000000e-01
1	2	173	973.47		1	1	1		1	1		4.00		2.78		3.500000e+00
1	2	174	985.25		3	3	3		4	0		6.00		2.98		2.500000e+00
1	2	175	998.04		4	3	3		4	0		4.00		3.15		1.500000e+00
1	2	176	1007.82		4	4	4		3	0		6.00		2.50		1.500000e+00
1	2	177	1019.61		4	3	3		3	1		6.00		1.83		5.000000e-01
1	2	178	1030.39		4	4	4		4	1		8.00		1.58		3.500000e+00
1	2	179	1046.17		3	3	3		3	1		8.00		2.87		3.500000e+00
1	2	180	1061.96		2	2	2		2	1		6.00		2.57		5.000000e-01
