*********************************************
* Combray
* Date/Time: 23-Nov-2015 15:57:05
* Seed: 212503.7835
* Subject Number: 35
* Subject Name: MW_3
*********************************************

Block	Phase	Trial	RunningTime	Cue	Image	CorrResp	Resp	Accuracy	ISI	RT_from_CueOnset	ITI
1	1	1	0.51		1	1	1		1	1		1.00		2.80		2.500000e+00
1	1	2	7.30		3	3	3		3	1		1.00		2.58		5.000000e-01
1	1	3	12.08		4	4	4		4	1		1.00		2.71		3.500000e+00
1	1	4	19.86		1	1	1		1	1		1.00		2.51		1.500000e+00
1	1	5	25.65		2	1	1		1	1		1.00		2.48		8
1	1	6	37.93		4	3	3		3	1		1.00		2.43		3.500000e+00
1	1	7	45.72		4	3	3		3	1		1.00		2.20		5.000000e-01
1	1	8	50.50		4	3	3		3	1		1.00		0.78		5.000000e-01
1	1	9	55.28		1	2	2		2	1		1.00		2.30		2.500000e+00
1	1	10	62.07		4	4	4		3	0		1.00		0.69		5.000000e-01
1	1	11	66.85		2	2	2		2	1		1.00		2.47		1.500000e+00
1	1	12	72.63		3	3	3		3	1		1.00		2.50		5.000000e-01
1	1	13	77.42		1	2	2		4	0		1.00		1.88		8
1	1	14	89.70		4	3	3		3	1		1.00		2.21		5.000000e-01
1	1	15	94.49		4	3	3		3	1		1.00		0.53		5.000000e-01
1	1	16	99.27		1	1	1		1	1		1.00		2.46		5.000000e-01
1	1	17	104.05		3	3	3		3	1		1.00		2.53		5.000000e-01
1	1	18	108.84		3	4	4		3	0		1.00		2.13		5.500000e+00
1	1	19	118.62		4	4	4		3	0		1.00		2.18		5.000000e-01
1	1	20	123.40		1	1	1		1	1		1.00		2.47		5.000000e-01
1	1	21	128.19		3	4	4		4	1		1.00		2.29		2.500000e+00
1	1	22	134.97		2	2	2		2	1		1.00		2.34		1.500000e+00
1	1	23	140.75		3	3	3		3	1		1.00		2.56		1.500000e+00
1	1	24	146.54		3	4	4		4	1		1.00		2.43		2.500000e+00
1	1	25	153.32		4	4	4		3	0		1.00		2.24		5.000000e-01
1	1	26	158.11		2	2	2		2	1		1.00		2.24		5.000000e-01
1	1	27	162.89		1	1	1		1	1		1.00		2.44		5.000000e-01
1	1	28	167.67		2	2	2		2	1		1.00		2.48		3.500000e+00
1	1	29	175.46		2	2	2		2	1		1.00		2.28		5.500000e+00
1	1	30	185.24		1	1	1		1	1		1.00		2.30		5.000000e-01
1	1	31	190.03		2	2	2		2	1		1.00		2.23		3.500000e+00
1	1	32	197.81		3	4	4		4	1		1.00		2.49		5.000000e-01
1	1	33	202.59		3	4	4		4	1		1.00		2.31		5.000000e-01
1	1	34	207.38		4	3	3		3	1		1.00		1.13		1.500000e+00
1	1	35	213.16		4	3	3		3	1		1.00		2.13		2.500000e+00
1	1	36	219.94		3	3	3		4	0		1.00		1.52		5.000000e-01
1	1	37	224.73		2	2	2		2	1		1.00		2.17		1.500000e+00
1	1	38	230.51		4	3	3		3	1		1.00		2.50		1.500000e+00
1	1	39	236.29		1	1	1		1	1		1.00		1.68		5.000000e-01
1	1	40	241.08		1	1	1		1	1		1.00		1.03		5.000000e-01
1	1	41	245.86		3	3	3		3	1		1.00		2.41		5.000000e-01
1	1	42	250.65		3	3	3		3	1		1.00		0.94		2.500000e+00
1	1	43	257.43		3	4	4		4	1		1.00		2.45		1.500000e+00
1	1	44	263.21		4	4	4		4	1		1.00		2.49		4.500000e+00
1	1	45	272.00		2	2	2		2	1		1.00		2.13		1.500000e+00
1	1	46	277.78		4	4	4		4	1		1.00		2.49		5.500000e+00
1	1	47	287.56		1	2	2		1	0		1.00		1.43		4.500000e+00
1	1	48	296.35		4	3	3		3	1		1.00		2.54		5.500000e+00
1	1	49	306.13		4	3	3		3	1		1.00		2.34		5.000000e-01
1	1	50	310.92		3	3	3		3	1		1.00		2.41		1.500000e+00
1	1	51	316.70		4	4	4		4	1		1.00		2.19		3.500000e+00
1	1	52	324.48		3	4	4		3	0		1.00		1.29		4.500000e+00
1	1	53	333.27		2	2	2		2	1		1.00		2.63		3.500000e+00
1	1	54	341.05		3	4	4		3	0		1.00		2.24		3.500000e+00
1	1	55	348.84		1	2	2		1	0		1.00		1.28		5.500000e+00
1	1	56	358.62		1	1	1		1	1		1.00		2.19		5.000000e-01
1	1	57	363.40		3	4	4		4	1		1.00		2.54		1.500000e+00
1	1	58	369.19		4	4	4		4	1		1.00		2.49		5.000000e-01
1	1	59	373.97		1	1	1		1	1		1.00		1.26		5.000000e-01
1	1	60	378.75		3	4	4		4	1		1.00		1.70		1.500000e+00
1	1	61	384.54		2	2	2		2	1		1.00		2.34		5.000000e-01
1	1	62	389.32		1	1	1		1	1		1.00		1.88		5.000000e-01
1	1	63	394.10		2	1	1		4	0		1.00		1.03		2.500000e+00
1	1	64	400.89		2	2	2		1	0		1.00		1.00		4.500000e+00
1	1	65	409.67		3	4	4		4	1		1.00		1.31		5.000000e-01
1	1	66	414.46		3	3	3		4	0		1.00		1.21		5.000000e-01
1	1	67	419.24		4	4	4		4	1		1.00		1.25		5.000000e-01
1	1	68	424.02		2	2	2		2	1		1.00		1.43		5.000000e-01
1	1	69	428.81		1	1	1		1	1		1.00		0.86		5.000000e-01
1	1	70	433.59		1	1	1		1	1		1.00		1.03		1.500000e+00
1	1	71	439.37		2	1	1		1	1		1.00		2.46		2.500000e+00
1	1	72	446.16		2	1	1		1	1		1.00		2.24		5.500000e+00
1	1	73	455.94		3	3	3		3	1		1.00		2.62		1.500000e+00
1	1	74	461.73		1	1	1		1	1		1.00		2.15		3.500000e+00
1	1	75	469.51		1	1	1		1	1		1.00		0.68		1.500000e+00
1	1	76	475.29		2	2	2		2	1		1.00		1.12		1.500000e+00
1	1	77	481.08		4	4	4		4	1		1.00		0.82		4.500000e+00
1	1	78	489.86		2	2	2		2	1		1.00		1.13		5.000000e-01
1	1	79	494.65		3	3	3		3	1		1.00		1.05		5.000000e-01
1	1	80	499.43		3	3	3		3	1		1.00		0.66		1.500000e+00
1	1	81	505.21		1	1	1		1	1		1.00		1.05		1.500000e+00
1	1	82	511.00		3	3	3		3	1		1.00		0.70		5.000000e-01
1	1	83	515.78		1	1	1		1	1		1.00		0.69		5.500000e+00
1	1	84	525.56		2	2	2		3	0		1.00		1.12		2.500000e+00
1	1	85	532.35		4	3	3		4	0		1.00		1.22		1.500000e+00
1	1	86	538.13		3	4	4		4	1		1.00		2.42		1.500000e+00
1	1	87	543.92		1	2	2		1	0		1.00		1.30		5.000000e-01
1	1	88	548.70		2	2	2		2	1		1.00		2.24		1.500000e+00
1	1	89	554.48		2	2	2		2	1		1.00		1.05		5.000000e-01
1	1	90	559.27		1	1	1		1	1		1.00		2.37		5.000000e-01
1	1	91	564.05		2	2	2		2	1		1.00		0.92		5.000000e-01
1	1	92	568.83		2	2	2		2	1		1.00		1.12		5.000000e-01
1	1	93	573.62		4	4	4		4	1		1.00		1.54		2.500000e+00
1	1	94	580.40		2	1	1		2	0		1.00		0.86		3.500000e+00
1	1	95	588.19		1	1	1		1	1		1.00		0.73		5.000000e-01
1	1	96	592.97		4	4	4		4	1		1.00		1.11		5.000000e-01
1	1	97	597.75		4	3	3		4	0		1.00		1.22		5.000000e-01
1	1	98	602.54		2	2	2		2	1		1.00		1.55		1.500000e+00
1	1	99	608.32		1	1	1		1	1		1.00		1.12		5.000000e-01
1	1	100	613.10		4	3	3		3	1		1.00		1.24		5.000000e-01
1	2	101	0.52		1	1	1		1	1		6.00		7.89		5.000000e-01
1	2	102	11.30		2	2	2		2	1		6.00		7.50		5.000000e-01
1	2	103	22.08		4	3	3		3	1		4.00		5.87		5.000000e-01
1	2	104	30.87		3	4	4		4	1		8.00		9.65		5.500000e+00
1	2	105	48.65		3	4	4		4	1		4.00		5.30		3.500000e+00
1	2	106	60.44		4	4	4		3	0		6.00		1.69		6.500000e+00
1	2	107	77.22		2	2	2		2	1		4.00		5.27		5.000000e-01
1	2	108	86.01		4	4	4		4	1		8.00		9.87		5.000000e-01
1	2	109	98.79		2	2	2		2	1		4.00		1.55		8
1	2	110	115.07		2	2	2		2	1		8.00		1.69		2.500000e+00
1	2	111	129.86		4	4	4		4	1		6.00		7.61		1.500000e+00
1	2	112	141.64		1	1	1		1	1		4.00		0.81		6.500000e+00
1	2	113	156.43		1	1	1		1	1		4.00		1.44		1.500000e+00
1	2	114	166.21		3	4	4		4	1		8.00		9.67		1.500000e+00
1	2	115	180.00		1	1	1		1	1		6.00		1.00		5.000000e-01
1	2	116	190.78		4	3	3		4	0		4.00		1.46		5.000000e-01
1	2	117	199.56		4	4	4		4	1		4.00		5.83		5.000000e-01
1	2	118	208.35		3	3	3		4	0		6.00		1.67		2.500000e+00
1	2	119	221.13		1	1	1		1	1		8.00		1.06		5.000000e-01
1	2	120	233.92		1	2	2		1	0		6.00		0.95		6.500000e+00
1	2	121	250.70		2	1	1		2	0		8.00		1.00		1.500000e+00
1	2	122	264.48		4	3	3		3	1		6.00		8.21		3.500000e+00
1	2	123	278.27		4	4	4		4	1		6.00		7.60		5.000000e-01
1	2	124	289.05		1	2	2		1	0		6.00		8.14		5.000000e-01
1	2	125	299.84		2	2	2		2	1		4.00		5.81		3.500000e+00
1	2	126	311.62		3	4	4		4	1		4.00		1.28		1.500000e+00
1	2	127	321.40		3	3	3		4	0		6.00		1.14		4.500000e+00
1	2	128	336.19		2	1	1		1	1		6.00		7.74		8
1	2	129	354.46		1	1	1		1	1		8.00		9.90		4.500000e+00
1	2	130	371.24		1	1	1		1	1		8.00		1.70		3.500000e+00
1	2	131	387.03		4	3	3		3	1		8.00		9.78		1.500000e+00
1	2	132	400.81		1	2	2		1	0		4.00		1.58		8
1	2	133	417.09		4	3	3		3	1		6.00		2.25		8
1	2	134	435.38		1	1	1		1	1		4.00		5.80		5.000000e-01
1	2	135	444.16		4	4	4		3	0		8.00		1.26		3.500000e+00
1	2	136	459.95		4	4	4		3	0		8.00		9.88		5.000000e-01
1	2	137	472.73		2	1	1		1	1		8.00		9.38		1.500000e+00
1	2	138	486.52		2	2	2		1	0		6.00		1.48		4.500000e+00
1	2	139	501.30		2	2	2		2	1		8.00		9.98		1.500000e+00
1	2	140	515.08		4	3	3		4	0		6.00		7.37		8
1	2	141	533.37		2	2	2		2	1		8.00		10.00		5.000000e-01
1	2	142	546.15		3	3	3		3	1		6.00		8.52		3.500000e+00
1	2	143	559.94		2	2	2		2	1		4.00		1.94		4.500000e+00
1	2	144	572.72		3	4	4		3	0		6.00		1.12		5.000000e-01
1	2	145	583.51		3	3	3		3	1		6.00		8.10		1.500000e+00
1	2	146	595.29		2	2	2		2	1		6.00		1.37		4.500000e+00
1	2	147	610.07		1	2	2		1	0		8.00		9.60		3.500000e+00
1	2	148	625.86		2	2	2		2	1		8.00		1.73		2.500000e+00
1	2	149	640.64		2	2	2		2	1		6.00		1.15		1.500000e+00
1	2	150	652.43		4	3	3		3	1		8.00		10.11		1.500000e+00
1	2	151	666.21		4	3	3		3	1		4.00		5.71		4.500000e+00
1	2	152	679.00		2	2	2		2	1		4.00		5.40		5.000000e-01
1	2	153	687.78		3	4	4		4	1		6.00		7.77		3.500000e+00
1	2	154	701.56		3	3	3		4	0		8.00		1.07		8
1	2	155	721.85		2	2	2		2	1		8.00		1.05		1.500000e+00
1	2	156	735.63		1	1	1		1	1		8.00		1.70		5.500000e+00
1	2	157	753.42		4	4	4		3	0		6.00		1.99		5.500000e+00
1	2	158	769.20		1	1	1		1	1		4.00		1.21		8
1	2	159	785.49		3	4	4		4	1		6.00		8.10		1.500000e+00
1	2	160	797.27		3	3	3		4	0		4.00		1.61		3.500000e+00
1	2	161	809.05		1	1	1		1	1		4.00		5.77		1.500000e+00
1	2	162	818.84		2	2	2		2	1		4.00		1.49		7.500000e+00
1	2	163	834.62		4	4	4		3	0		8.00		9.90		1.500000e+00
1	2	164	848.41		1	1	1		1	1		4.00		1.64		7.500000e+00
1	2	165	864.19		3	4	4		4	1		4.00		5.80		5.000000e-01
1	2	166	872.98		1	1	1		1	1		6.00		1.17		5.000000e-01
1	2	167	883.76		4	3	3		3	1		4.00		2.61		1.500000e+00
1	2	168	893.54		2	2	2		2	1		6.00		2.43		1.500000e+00
1	2	169	905.33		1	1	1		1	1		6.00		1.05		5.000000e-01
1	2	170	916.11		2	1	1		2	0		4.00		1.58		2.500000e+00
1	2	171	926.90		4	3	3		3	1		8.00		2.01		1.500000e+00
1	2	172	940.68		3	3	3		4	0		8.00		1.77		2.500000e+00
1	2	173	955.46		3	4	4		4	1		8.00		9.64		3.500000e+00
1	2	174	971.25		4	4	4		3	0		4.00		1.59		6.500000e+00
1	2	175	986.03		3	3	3		4	0		4.00		5.83		8
1	2	176	1002.32		1	1	1		1	1		8.00		1.73		3.500000e+00
1	2	177	1018.10		1	1	1		1	1		6.00		1.76		5.000000e-01
1	2	178	1028.89		3	3	3		3	1		8.00		10.14		8
1	2	179	1049.17		3	3	3		3	1		4.00		5.67		5.000000e-01
1	2	180	1057.95		3	4	4		3	0		8.00		1.29		6.500000e+00
