*********************************************
* Combray
* Date/Time: 09-Oct-2015 14:46:42
* Seed: 213532.9132
* Subject Number: 17
* Subject Name: JH
*********************************************

Block	Phase	Trial	RunningTime	Cue	Image	CorrResp	Resp	Accuracy	ISI	RT_from_CueOnset	ITI
1	1	1	0.50		4	4	4		4	1		1.00		2.67		2.500000e+00
1	1	2	7.29		1	2	2		2	1		1.00		2.54		5.000000e-01
1	1	3	12.07		4	4	4		4	1		1.00		2.29		5.000000e-01
1	1	4	16.85		1	1	1		2	0		1.00		0.61		1.500000e+00
1	1	5	22.64		4	4	4		4	1		1.00		2.43		5.000000e-01
1	1	6	27.42		2	1	1		1	1		1.00		2.64		5.000000e-01
1	1	7	32.20		2	2	2		2	1		1.00		2.55		5.000000e-01
1	1	8	36.99		3	4	4		4	1		1.00		2.44		5.000000e-01
1	1	9	41.77		4	3	3		3	1		1.00		2.22		1.500000e+00
1	1	10	47.55		1	2	2		2	1		1.00		2.33		1.500000e+00
1	1	11	53.34		3	4	4		4	1		1.00		2.45		5.000000e-01
1	1	12	58.12		1	1	1		1	1		1.00		2.38		5.000000e-01
1	1	13	62.91		1	1	1		1	1		1.00		2.36		2.500000e+00
1	1	14	69.69		3	4	4		4	1		1.00		2.44		5.000000e-01
1	1	15	74.47		2	2	2		2	1		1.00		2.41		5.500000e+00
1	1	16	84.26		1	1	1		1	1		1.00		1.56		1.500000e+00
1	1	17	90.04		2	2	2		2	1		1.00		2.21		5.000000e-01
1	1	18	94.83		2	2	2		2	1		1.00		1.26		2.500000e+00
1	1	19	101.61		2	1	1		2	0		1.00		1.01		5.000000e-01
1	1	20	106.39		4	3	3		3	1		1.00		2.21		5.000000e-01
1	1	21	111.18		3	4	4		4	1		1.00		1.13		2.500000e+00
1	1	22	117.96		2	1	1		1	1		1.00		2.43		5.000000e-01
1	1	23	122.74		4	3	3		3	1		1.00		1.66		5.000000e-01
1	1	24	127.53		4	4	4		4	1		1.00		2.49		3.500000e+00
1	1	25	135.31		1	1	1		1	1		1.00		1.68		1.500000e+00
1	1	26	141.09		3	3	3		4	0		1.00		1.05		5.000000e-01
1	1	27	145.88		2	1	1		1	1		1.00		2.66		4.500000e+00
1	1	28	154.66		3	4	4		4	1		1.00		2.48		5.000000e-01
1	1	29	159.45		1	1	1		1	1		1.00		2.35		5.000000e-01
1	1	30	164.23		2	2	2		2	1		1.00		2.13		5.000000e-01
1	1	31	169.01		4	4	4		4	1		1.00		2.53		1.500000e+00
1	1	32	174.80		3	3	3		3	1		1.00		2.17		5.000000e-01
1	1	33	179.58		2	2	2		1	0		1.00		1.78		5.000000e-01
1	1	34	184.36		3	3	3		3	1		1.00		2.23		1.500000e+00
1	1	35	190.15		2	2	2		2	1		1.00		2.19		4.500000e+00
1	1	36	198.93		2	2	2		2	1		1.00		2.20		5.000000e-01
1	1	37	203.72		2	2	2		2	1		1.00		2.19		3.500000e+00
1	1	38	211.50		4	3	3		3	1		1.00		2.37		4.500000e+00
1	1	39	220.28		4	3	3		3	1		1.00		2.38		5.000000e-01
1	1	40	225.07		3	4	4		4	1		1.00		2.46		5.000000e-01
1	1	41	229.85		1	1	1		1	1		1.00		2.67		1.500000e+00
1	1	42	235.63		3	3	3		3	1		1.00		2.44		3.500000e+00
1	1	43	243.42		4	4	4		3	0		1.00		1.53		5.000000e-01
1	1	44	248.20		3	3	3		4	0		1.00		1.61		2.500000e+00
1	1	45	254.99		2	1	1		1	1		1.00		2.35		1.500000e+00
1	1	46	260.77		1	2	2		2	1		1.00		2.21		2.500000e+00
1	1	47	267.55		4	3	3		3	1		1.00		2.40		5.000000e-01
1	1	48	272.34		2	2	2		2	1		1.00		2.51		1.500000e+00
1	1	49	278.12		1	2	2		2	1		1.00		2.30		1.500000e+00
1	1	50	283.90		4	4	4		4	1		1.00		2.42		5.500000e+00
1	1	51	293.69		4	4	4		4	1		1.00		2.35		5.000000e-01
1	1	52	298.47		2	1	1		1	1		1.00		2.54		2.500000e+00
1	1	53	305.26		4	4	4		4	1		1.00		2.42		2.500000e+00
1	1	54	312.04		3	3	3		3	1		1.00		2.56		5.000000e-01
1	1	55	316.82		1	2	2		2	1		1.00		2.14		5.500000e+00
1	1	56	326.61		2	2	2		2	1		1.00		2.17		5.000000e-01
1	1	57	331.39		1	1	1		1	1		1.00		2.19		3.500000e+00
1	1	58	339.18		4	3	3		3	1		1.00		1.27		5.000000e-01
1	1	59	343.96		2	1	1		1	1		1.00		2.52		1.500000e+00
1	1	60	349.74		3	3	3		4	0		1.00		1.44		5.000000e-01
1	1	61	354.53		1	1	1		1	1		1.00		2.37		3.500000e+00
1	1	62	362.31		4	4	4		4	1		1.00		1.63		4.500000e+00
1	1	63	371.09		4	3	3		3	1		1.00		1.72		5.000000e-01
1	1	64	375.88		1	2	2		1	0		1.00		1.54		5.000000e-01
1	1	65	380.66		4	3	3		3	1		1.00		1.81		1.500000e+00
1	1	66	386.44		1	1	1		2	0		1.00		1.59		1.500000e+00
1	1	67	392.23		1	1	1		1	1		1.00		2.30		1.500000e+00
1	1	68	398.01		1	2	2		2	1		1.00		2.41		1.500000e+00
1	1	69	403.80		2	2	2		2	1		1.00		2.44		1.500000e+00
1	1	70	409.58		4	4	4		4	1		1.00		2.43		3.500000e+00
1	1	71	417.36		2	2	2		2	1		1.00		2.33		1.500000e+00
1	1	72	423.15		2	2	2		2	1		1.00		2.66		5.500000e+00
1	1	73	432.93		2	1	1		1	1		1.00		2.37		5.000000e-01
1	1	74	437.71		2	1	1		1	1		1.00		2.39		5.000000e-01
1	1	75	442.50		1	2	2		2	1		1.00		2.18		3.500000e+00
1	1	76	450.28		4	3	3		3	1		1.00		2.58		5.500000e+00
1	1	77	460.07		1	1	1		1	1		1.00		2.45		1.500000e+00
1	1	78	465.85		1	2	2		2	1		1.00		2.83		8
1	1	79	478.13		2	2	2		2	1		1.00		2.40		5.000000e-01
1	1	80	482.92		3	3	3		3	1		1.00		2.60		5.000000e-01
1	1	81	487.70		4	3	3		3	1		1.00		2.29		1.500000e+00
1	1	82	493.49		3	4	4		4	1		1.00		1.93		3.500000e+00
1	1	83	501.27		3	4	4		3	0		1.00		1.42		5.000000e-01
1	1	84	506.05		3	4	4		4	1		1.00		2.46		8
1	1	85	518.34		2	1	1		1	1		1.00		2.47		2.500000e+00
1	1	86	525.12		4	4	4		4	1		1.00		2.38		5.000000e-01
1	1	87	529.90		3	3	3		3	1		1.00		3.57		1.500000e+00
1	1	88	535.69		1	1	1		1	1		1.00		2.32		5.000000e-01
1	1	89	540.47		1	1	1		1	1		1.00		2.23		5.000000e-01
1	1	90	545.26		3	3	3		3	1		1.00		2.73		5.000000e-01
1	1	91	550.04		3	3	3		3	1		1.00		3.28		1.500000e+00
1	1	92	555.82		4	3	3		3	1		1.00		2.89		5.000000e-01
1	1	93	560.61		3	4	4		4	1		1.00		2.53		3.500000e+00
1	1	94	568.39		1	2	2		2	1		1.00		2.48		5.000000e-01
1	1	95	573.17		1	1	1		1	1		1.00		2.46		5.000000e-01
1	1	96	577.96		4	3	3		3	1		1.00		2.59		2.500000e+00
1	1	97	584.74		3	3	3		3	1		1.00		2.72		5.000000e-01
1	1	98	589.53		3	4	4		4	1		1.00		2.53		5.500000e+00
1	1	99	599.31		3	4	4		4	1		1.00		2.48		4.500000e+00
1	1	100	608.09		3	3	3		3	1		1.00		2.79		5.500000e+00
1	2	101	0.50		3	4	4		4	1		6.00		2.73		5.000000e-01
1	2	102	11.27		3	3	3		3	1		8.00		1.20		1.500000e+00
1	2	103	25.06		1	2	2		1	0		8.00		2.49		5.000000e-01
1	2	104	37.84		1	2	2		NaN	0		6.00		NaN		1.500000e+00
1	2	105	49.63		3	3	3		4	0		6.00		8.07		5.000000e-01
1	2	106	60.41		3	4	4		4	1		4.00		5.65		1.500000e+00
1	2	107	70.20		1	1	1		2	0		4.00		5.31		3.500000e+00
1	2	108	81.98		3	3	3		3	1		8.00		9.97		3.500000e+00
1	2	109	97.76		4	3	3		3	1		8.00		9.44		3.500000e+00
1	2	110	113.55		1	2	2		2	1		6.00		7.83		7.500000e+00
1	2	111	131.33		3	4	4		4	1		8.00		9.83		5.000000e-01
1	2	112	144.12		3	4	4		3	0		8.00		11.17		1.500000e+00
1	2	113	157.90		1	1	1		2	0		8.00		9.31		2.500000e+00
1	2	114	172.68		4	3	3		3	1		8.00		10.95		8
1	2	115	192.97		2	1	1		2	0		8.00		9.83		5.000000e-01
1	2	116	205.75		2	1	1		2	0		8.00		10.65		3.500000e+00
1	2	117	221.54		4	4	4		4	1		8.00		10.38		5.500000e+00
1	2	118	239.32		3	4	4		4	1		6.00		7.75		6.500000e+00
1	2	119	256.11		1	1	1		2	0		6.00		7.85		1.500000e+00
1	2	120	267.89		4	3	3		3	1		6.00		8.38		3.500000e+00
1	2	121	281.68		2	1	1		2	0		6.00		7.85		8
1	2	122	299.96		4	4	4		3	0		8.00		9.37		4.500000e+00
1	2	123	316.74		3	3	3		3	1		8.00		9.72		5.000000e-01
1	2	124	329.53		1	1	1		1	1		6.00		8.07		8
1	2	125	347.81		1	2	2		2	1		8.00		10.60		4.500000e+00
1	2	126	364.60		3	4	4		3	0		4.00		6.96		1.500000e+00
1	2	127	374.38		1	1	1		1	1		8.00		10.64		5.000000e-01
1	2	128	387.17		2	2	2		2	1		6.00		8.77		3.500000e+00
1	2	129	400.95		2	2	2		2	1		8.00		4.00		3.500000e+00
1	2	130	416.74		3	3	3		3	1		4.00		2.92		4.500000e+00
1	2	131	429.52		4	4	4		3	0		4.00		3.33		5.000000e-01
1	2	132	438.30		4	4	4		4	1		6.00		8.40		5.500000e+00
1	2	133	454.09		3	3	3		3	1		6.00		8.70		8
1	2	134	472.37		2	1	1		1	1		4.00		5.51		3.500000e+00
1	2	135	484.16		1	1	1		1	1		6.00		8.92		1.500000e+00
1	2	136	495.94		1	1	1		2	0		4.00		6.21		5.000000e-01
1	2	137	504.72		3	3	3		3	1		4.00		6.17		5.000000e-01
1	2	138	513.51		1	1	1		1	1		4.00		6.28		7.500000e+00
1	2	139	529.29		4	4	4		3	0		8.00		10.27		1.500000e+00
1	2	140	543.08		4	3	3		3	1		4.00		6.82		4.500000e+00
1	2	141	555.86		1	2	2		2	1		4.00		5.77		6.500000e+00
1	2	142	570.65		3	3	3		3	1		6.00		7.64		5.000000e-01
1	2	143	581.43		2	1	1		1	1		4.00		3.80		3.500000e+00
1	2	144	593.21		1	1	1		2	0		4.00		1.67		2.500000e+00
1	2	145	604.00		4	3	3		3	1		4.00		6.10		1.500000e+00
1	2	146	613.78		3	4	4		4	1		8.00		10.13		6.500000e+00
1	2	147	632.57		4	3	3		3	1		4.00		7.00		5.000000e-01
1	2	148	641.35		2	2	2		2	1		4.00		2.87		2.500000e+00
1	2	149	652.13		1	1	1		1	1		8.00		9.43		5.000000e-01
1	2	150	664.92		1	2	2		1	0		4.00		5.72		6.500000e+00
1	2	151	679.70		2	2	2		2	1		4.00		5.70		2.500000e+00
1	2	152	690.49		2	2	2		2	1		6.00		7.20		1.500000e+00
1	2	153	702.27		4	3	3		3	1		6.00		7.73		5.000000e-01
1	2	154	713.05		2	2	2		1	0		6.00		3.83		5.000000e-01
1	2	155	723.84		2	2	2		2	1		4.00		5.55		1.500000e+00
1	2	156	733.62		2	1	1		1	1		8.00		9.83		8
1	2	157	753.91		3	4	4		4	1		8.00		10.70		2.500000e+00
1	2	158	768.69		2	2	2		2	1		8.00		9.35		1.500000e+00
1	2	159	782.48		4	4	4		4	1		6.00		7.68		1.500000e+00
1	2	160	794.26		3	3	3		3	1		6.00		7.42		5.500000e+00
1	2	161	810.04		4	4	4		3	0		6.00		8.42		5.000000e-01
1	2	162	820.83		1	1	1		1	1		6.00		8.13		5.000000e-01
1	2	163	831.61		3	4	4		4	1		4.00		6.77		5.000000e-01
1	2	164	840.40		3	3	3		3	1		4.00		5.82		1.500000e+00
1	2	165	850.18		4	3	3		3	1		6.00		9.32		8
1	2	166	868.46		4	3	3		3	1		4.00		5.60		8
1	2	167	884.75		2	1	1		2	0		4.00		7.07		6.500000e+00
1	2	168	899.53		1	1	1		NaN	0		8.00		NaN		5.000000e-01
1	2	169	912.32		1	2	2		1	0		4.00		5.47		8
1	2	170	928.60		2	2	2		1	0		4.00		5.23		1.500000e+00
1	2	171	938.39		2	2	2		2	1		6.00		1.59		5.000000e-01
1	2	172	949.17		1	2	2		2	1		6.00		7.81		1.500000e+00
1	2	173	960.95		2	2	2		1	0		8.00		10.27		8
1	2	174	981.24		4	4	4		4	1		8.00		10.07		5.000000e-01
1	2	175	994.02		2	1	1		1	1		6.00		7.65		1.500000e+00
1	2	176	1005.81		3	4	4		3	0		6.00		7.35		4.500000e+00
1	2	177	1020.59		4	4	4		4	1		4.00		6.28		3.500000e+00
1	2	178	1032.38		2	2	2		2	1		8.00		9.92		1.500000e+00
1	2	179	1046.16		4	3	3		3	1		8.00		9.98		4.500000e+00
1	2	180	1062.94		4	4	4		4	1		8.00		9.97		3.500000e+00
Block	Phase	Trial	RunningTime	Cue	Image	CorrResp	Resp	Accuracy	ISI	RT_from_CueOnset	ITI
2	1	1	0.51		3	3	3		3	1		1.00		2.68		5.000000e-01
2	1	2	5.28		1	1	1		1	1		1.00		2.41		5.000000e-01
2	1	3	10.06		4	4	4		4	1		1.00		2.32		5.000000e-01
2	1	4	14.84		3	3	3		3	1		1.00		2.22		8
2	1	5	27.13		2	2	2		2	1		1.00		2.32		3.500000e+00
2	1	6	34.91		2	2	2		2	1		1.00		1.46		5.000000e-01
2	1	7	39.70		2	2	2		2	1		1.00		1.02		1.500000e+00
2	1	8	45.48		4	3	3		4	0		1.00		1.62		5.500000e+00
2	1	9	55.26		1	2	2		1	0		1.00		1.81		3.500000e+00
2	1	10	63.05		2	1	1		1	1		1.00		2.20		4.500000e+00
2	1	11	71.83		1	1	1		1	1		1.00		2.50		5.000000e-01
2	1	12	76.61		4	4	4		4	1		1.00		2.61		5.000000e-01
2	1	13	81.40		1	1	1		1	1		1.00		2.25		3.500000e+00
2	1	14	89.18		4	4	4		4	1		1.00		2.62		5.000000e-01
2	1	15	93.97		1	2	2		2	1		1.00		2.45		5.000000e-01
2	1	16	98.75		1	2	2		2	1		1.00		2.45		1.500000e+00
2	1	17	104.53		1	1	1		1	1		1.00		2.38		5.000000e-01
2	1	18	109.32		2	2	2		2	1		1.00		2.47		1.500000e+00
2	1	19	115.10		4	4	4		4	1		1.00		2.42		5.000000e-01
2	1	20	119.88		3	3	3		3	1		1.00		2.78		5.000000e-01
2	1	21	124.67		3	4	4		4	1		1.00		2.69		5.000000e-01
2	1	22	129.45		1	1	1		1	1		1.00		2.37		5.000000e-01
2	1	23	134.23		2	2	2		2	1		1.00		2.52		5.000000e-01
2	1	24	139.02		2	2	2		2	1		1.00		2.45		5.000000e-01
2	1	25	143.80		4	4	4		4	1		1.00		2.54		4.500000e+00
2	1	26	152.59		2	1	1		1	1		1.00		2.33		5.000000e-01
2	1	27	157.37		2	1	1		1	1		1.00		2.25		2.500000e+00
2	1	28	164.15		4	4	4		4	1		1.00		2.38		5.000000e-01
2	1	29	168.94		2	1	1		1	1		1.00		2.41		1.500000e+00
2	1	30	174.72		3	3	3		3	1		1.00		2.72		5.000000e-01
2	1	31	179.50		3	3	3		3	1		1.00		2.58		3.500000e+00
2	1	32	187.29		3	3	3		3	1		1.00		2.48		4.500000e+00
2	1	33	196.07		3	4	4		4	1		1.00		2.30		5.000000e-01
2	1	34	200.86		4	4	4		4	1		1.00		2.23		5.000000e-01
2	1	35	205.64		2	2	2		2	1		1.00		2.29		2.500000e+00
2	1	36	212.42		3	3	3		NaN	NaN		1.00		NaN		5.000000e-01
2	1	37	217.21		4	3	3		3	1		1.00		2.30		1.500000e+00
2	1	38	222.99		4	3	3		3	1		1.00		2.32		5.000000e-01
2	1	39	227.77		2	2	2		2	1		1.00		2.31		5.000000e-01
2	1	40	232.56		4	4	4		4	1		1.00		2.33		4.500000e+00
2	1	41	241.34		1	2	2		2	1		1.00		2.45		8
2	1	42	253.63		3	4	4		4	1		1.00		2.50		2.500000e+00
2	1	43	260.41		3	3	3		3	1		1.00		2.65		5.000000e-01
2	1	44	265.19		2	2	2		2	1		1.00		2.25		5.000000e-01
2	1	45	269.98		3	3	3		3	1		1.00		2.42		3.500000e+00
2	1	46	277.76		1	1	1		1	1		1.00		2.29		5.000000e-01
2	1	47	282.54		3	3	3		3	1		1.00		2.42		5.000000e-01
2	1	48	287.33		2	2	2		2	1		1.00		2.49		5.000000e-01
2	1	49	292.11		4	4	4		4	1		1.00		2.63		3.500000e+00
2	1	50	299.90		4	4	4		4	1		1.00		2.40		1.500000e+00
2	1	51	305.68		2	2	2		2	1		1.00		2.59		5.500000e+00
2	1	52	315.46		4	4	4		4	1		1.00		2.41		2.500000e+00
2	1	53	322.25		4	4	4		4	1		1.00		2.38		5.000000e-01
2	1	54	327.03		4	4	4		4	1		1.00		2.31		1.500000e+00
2	1	55	332.82		4	4	4		4	1		1.00		2.31		5.000000e-01
2	1	56	337.60		2	2	2		2	1		1.00		2.52		5.000000e-01
2	1	57	342.38		3	3	3		3	1		1.00		2.54		5.500000e+00
2	1	58	352.17		2	2	2		2	1		1.00		2.48		5.000000e-01
2	1	59	356.95		4	4	4		4	1		1.00		2.55		5.500000e+00
2	1	60	366.73		1	1	1		1	1		1.00		2.41		3.500000e+00
2	1	61	374.52		1	1	1		1	1		1.00		2.59		2.500000e+00
2	1	62	381.30		1	1	1		1	1		1.00		2.19		1.500000e+00
2	1	63	387.09		1	1	1		1	1		1.00		2.36		5.000000e-01
2	1	64	391.87		3	3	3		3	1		1.00		1.20		5.000000e-01
2	1	65	396.65		2	2	2		2	1		1.00		1.21		5.000000e-01
2	1	66	401.44		4	4	4		4	1		1.00		1.04		2.500000e+00
2	1	67	408.22		3	3	3		3	1		1.00		1.23		1.500000e+00
2	1	68	414.00		2	1	1		2	0		1.00		0.98		1.500000e+00
2	1	69	419.79		3	4	4		4	1		1.00		2.29		5.000000e-01
2	1	70	424.57		1	1	1		1	1		1.00		2.25		1.500000e+00
2	1	71	430.36		4	4	4		4	1		1.00		2.42		2.500000e+00
2	1	72	437.14		1	1	1		1	1		1.00		2.49		1.500000e+00
2	1	73	442.92		1	1	1		1	1		1.00		2.49		1.500000e+00
2	1	74	448.71		1	1	1		1	1		1.00		2.29		1.500000e+00
2	1	75	454.49		2	1	1		1	1		1.00		2.33		2.500000e+00
2	1	76	461.27		4	4	4		4	1		1.00		2.47		1.500000e+00
2	1	77	467.06		3	3	3		3	1		1.00		2.78		1.500000e+00
2	1	78	472.84		3	3	3		3	1		1.00		2.62		5.000000e-01
2	1	79	477.63		1	2	2		2	1		1.00		2.50		2.500000e+00
2	1	80	484.41		2	2	2		2	1		1.00		2.57		1.500000e+00
2	1	81	490.19		2	2	2		2	1		1.00		2.30		5.500000e+00
2	1	82	499.98		2	1	1		1	1		1.00		2.31		5.000000e-01
2	1	83	504.76		4	3	3		3	1		1.00		2.51		5.000000e-01
2	1	84	509.54		2	1	1		1	1		1.00		2.34		5.000000e-01
2	1	85	514.33		4	3	3		3	1		1.00		2.40		5.000000e-01
2	1	86	519.11		2	2	2		2	1		1.00		2.43		4.500000e+00
2	1	87	527.89		3	3	3		3	1		1.00		2.61		1.500000e+00
2	1	88	533.68		4	4	4		4	1		1.00		2.21		5.000000e-01
2	1	89	538.46		3	3	3		3	1		1.00		2.19		5.000000e-01
2	1	90	543.25		4	4	4		4	1		1.00		2.29		3.500000e+00
2	1	91	551.03		1	1	1		1	1		1.00		2.30		1.500000e+00
2	1	92	556.81		1	1	1		1	1		1.00		2.23		1.500000e+00
2	1	93	562.60		3	3	3		3	1		1.00		2.59		5.000000e-01
2	1	94	567.38		1	1	1		1	1		1.00		2.47		5.000000e-01
2	1	95	572.16		1	1	1		1	1		1.00		2.30		1.500000e+00
2	1	96	577.95		3	3	3		3	1		1.00		2.32		2.500000e+00
2	1	97	584.73		3	3	3		3	1		1.00		2.42		5.500000e+00
2	1	98	594.52		1	2	2		2	1		1.00		2.32		1.500000e+00
2	1	99	600.30		3	4	4		4	1		1.00		2.43		3.500000e+00
2	1	100	608.08		1	2	2		2	1		1.00		2.20		5.500000e+00
2	2	101	0.50		2	2	2		2	1		8.00		9.41		8
2	2	102	20.77		1	1	1		1	1		8.00		1.74		2.500000e+00
2	2	103	35.56		3	3	3		3	1		8.00		1.48		1.500000e+00
2	2	104	49.34		4	3	3		4	0		4.00		0.98		8
2	2	105	65.62		2	1	1		1	1		6.00		8.17		1.500000e+00
2	2	106	77.41		4	4	4		3	0		8.00		10.04		3.500000e+00
2	2	107	93.19		1	1	1		1	1		6.00		7.68		1.500000e+00
2	2	108	104.98		4	4	4		4	1		6.00		7.90		3.500000e+00
2	2	109	118.76		4	4	4		4	1		4.00		5.57		4.500000e+00
2	2	110	131.55		1	1	1		1	1		6.00		7.43		8
2	2	111	149.83		2	2	2		2	1		4.00		5.58		1.500000e+00
2	2	112	159.61		1	2	2		2	1		6.00		7.47		1.500000e+00
2	2	113	171.40		4	4	4		4	1		6.00		7.82		8
2	2	114	189.68		2	2	2		2	1		4.00		5.56		1.500000e+00
2	2	115	199.47		1	2	2		1	0		8.00		9.48		4.500000e+00
2	2	116	216.25		1	1	1		1	1		8.00		9.52		5.000000e-01
2	2	117	229.04		1	2	2		2	1		8.00		9.69		5.000000e-01
2	2	118	241.82		3	3	3		3	1		4.00		6.13		5.000000e-01
2	2	119	250.60		2	2	2		2	1		4.00		5.47		6.500000e+00
2	2	120	265.39		2	1	1		1	1		8.00		9.40		8
2	2	121	285.67		3	3	3		4	0		6.00		7.93		5.000000e-01
2	2	122	296.46		4	4	4		4	1		8.00		9.88		8
2	2	123	316.74		1	1	1		1	1		4.00		5.31		7.500000e+00
2	2	124	332.53		2	2	2		1	0		4.00		5.70		2.500000e+00
2	2	125	343.31		3	3	3		3	1		8.00		9.88		1.500000e+00
2	2	126	357.09		3	3	3		3	1		6.00		7.68		5.500000e+00
2	2	127	372.88		1	1	1		1	1		4.00		6.22		6.500000e+00
2	2	128	387.66		4	4	4		3	0		6.00		1.76		5.000000e-01
2	2	129	398.45		4	4	4		4	1		8.00		4.69		4.500000e+00
2	2	130	415.23		4	4	4		3	0		4.00		5.53		5.000000e-01
2	2	131	424.02		3	3	3		3	1		6.00		7.52		8
2	2	132	442.30		2	2	2		2	1		8.00		10.03		1.500000e+00
2	2	133	456.08		2	2	2		2	1		4.00		5.84		2.500000e+00
2	2	134	466.87		3	3	3		3	1		6.00		7.75		5.000000e-01
2	2	135	477.65		2	1	1		1	1		8.00		9.60		5.000000e-01
2	2	136	490.44		1	1	1		1	1		8.00		9.87		5.000000e-01
2	2	137	503.22		4	4	4		4	1		8.00		9.92		5.000000e-01
2	2	138	516.01		4	4	4		4	1		6.00		8.17		5.500000e+00
2	2	139	531.79		3	3	3		4	0		8.00		10.06		3.500000e+00
2	2	140	547.57		2	1	1		1	1		6.00		7.64		8
2	2	141	565.86		1	1	1		1	1		6.00		8.10		7.500000e+00
2	2	142	583.64		1	1	1		1	1		4.00		5.37		2.500000e+00
2	2	143	594.43		1	2	2		2	1		6.00		7.45		1.500000e+00
2	2	144	606.21		4	4	4		4	1		8.00		9.61		1.500000e+00
2	2	145	620.00		1	1	1		1	1		4.00		5.52		3.500000e+00
2	2	146	631.78		2	2	2		2	1		6.00		7.47		5.000000e-01
2	2	147	642.56		3	3	3		3	1		4.00		5.84		1.500000e+00
2	2	148	652.35		1	1	1		1	1		6.00		3.02		1.500000e+00
2	2	149	664.13		2	1	1		1	1		4.00		5.78		3.500000e+00
2	2	150	675.92		3	3	3		3	1		4.00		5.32		5.000000e-01
2	2	151	684.70		4	4	4		4	1		4.00		5.69		3.500000e+00
2	2	152	696.48		4	4	4		4	1		6.00		7.30		5.500000e+00
2	2	153	712.27		4	4	4		3	0		6.00		7.62		1.500000e+00
2	2	154	724.05		1	2	2		1	0		4.00		5.45		8
2	2	155	740.34		3	3	3		3	1		4.00		5.57		1.500000e+00
2	2	156	750.12		4	3	3		3	1		4.00		6.51		1.500000e+00
2	2	157	759.90		1	1	1		1	1		6.00		7.53		5.000000e-01
2	2	158	770.69		2	2	2		2	1		8.00		9.68		1.500000e+00
2	2	159	784.47		3	3	3		3	1		8.00		9.64		5.000000e-01
2	2	160	797.26		2	2	2		2	1		6.00		7.62		3.500000e+00
2	2	161	811.04		4	3	3		4	0		6.00		7.40		5.000000e-01
2	2	162	821.83		3	4	4		3	0		8.00		4.16		5.000000e-01
2	2	163	834.61		1	1	1		1	1		8.00		9.45		5.000000e-01
2	2	164	847.39		3	3	3		3	1		6.00		8.04		5.000000e-01
2	2	165	858.18		1	1	1		1	1		4.00		5.42		5.000000e-01
2	2	166	866.96		3	3	3		3	1		4.00		5.92		4.500000e+00
2	2	167	879.75		2	1	1		1	1		4.00		5.37		3.500000e+00
2	2	168	891.53		2	2	2		2	1		8.00		9.54		3.500000e+00
2	2	169	907.32		2	1	1		1	1		8.00		9.35		3.500000e+00
2	2	170	923.10		3	4	4		3	0		8.00		9.73		6.500000e+00
2	2	171	941.87		4	4	4		4	1		4.00		5.91		5.000000e-01
2	2	172	950.65		4	3	3		3	1		8.00		9.48		3.500000e+00
2	2	173	966.44		2	2	2		2	1		6.00		7.52		1.500000e+00
2	2	174	978.22		1	2	2		1	0		4.00		1.02		6.500000e+00
2	2	175	993.00		4	4	4		3	0		4.00		5.38		4.500000e+00
2	2	176	1005.79		3	4	4		4	1		4.00		6.34		1.500000e+00
2	2	177	1015.57		3	4	4		4	1		6.00		7.81		4.500000e+00
2	2	178	1030.36		2	2	2		2	1		6.00		7.38		5.000000e-01
2	2	179	1041.14		3	3	3		3	1		6.00		7.55		6.500000e+00
2	2	180	1057.93		3	3	3		4	0		8.00		9.98		2.500000e+00
