*********************************************
* Combray
* Date/Time: 16-Sep-2015 14:51:45
* Seed: 214972.9414
* Subject Number: 05
* Subject Name: MH3
*********************************************

Block	Phase	Trial	RunningTime	Cue	Image	CorrResp	Resp	Accuracy	ISI	RT_from_CueOnset	ITI
1	1	1	0.51		3	3	3		3	1		1.00		2.63		5.000000e-01
1	1	2	5.29		4	4	4		4	1		1.00		2.71		5.000000e-01
1	1	3	10.07		1	1	1		1	1		1.00		2.39		3.500000e+00
1	1	4	17.86		2	1	1		1	1		1.00		2.57		5.000000e-01
1	1	5	22.64		1	1	1		1	1		1.00		2.35		5.500000e+00
1	1	6	32.43		1	2	2		2	1		1.00		2.32		2.500000e+00
1	1	7	39.21		3	4	4		4	1		1.00		2.63		5.000000e-01
1	1	8	43.99		3	4	4		4	1		1.00		2.39		5.500000e+00
1	1	9	53.78		1	2	2		2	1		1.00		2.59		5.000000e-01
1	1	10	58.56		2	1	1		1	1		1.00		2.19		3.500000e+00
1	1	11	66.35		4	4	4		4	1		1.00		2.52		5.500000e+00
1	1	12	76.13		3	3	3		3	1		1.00		2.24		5.000000e-01
1	1	13	80.91		1	1	1		1	1		1.00		2.39		5.000000e-01
1	1	14	85.70		3	3	3		3	1		1.00		2.19		1.500000e+00
1	1	15	91.48		4	4	4		4	1		1.00		2.69		3.500000e+00
1	1	16	99.26		3	3	3		3	1		1.00		2.34		5.000000e-01
1	1	17	104.05		2	1	1		1	1		1.00		2.19		5.000000e-01
1	1	18	108.83		1	2	2		2	1		1.00		2.17		1.500000e+00
1	1	19	114.61		2	2	2		2	1		1.00		2.34		1.500000e+00
1	1	20	120.40		2	2	2		2	1		1.00		2.23		3.500000e+00
1	1	21	128.17		2	2	2		2	1		1.00		2.23		1.500000e+00
1	1	22	133.95		1	2	2		2	1		1.00		2.39		1.500000e+00
1	1	23	139.73		1	2	2		2	1		1.00		2.35		4.500000e+00
1	1	24	148.52		2	2	2		2	1		1.00		2.35		5.000000e-01
1	1	25	153.30		4	4	4		4	1		1.00		2.49		5.000000e-01
1	1	26	158.08		4	4	4		4	1		1.00		2.19		2.500000e+00
1	1	27	164.87		1	2	2		2	1		1.00		2.45		5.000000e-01
1	1	28	169.64		4	3	3		3	1		1.00		2.59		1.500000e+00
1	1	29	175.42		3	3	3		3	1		1.00		2.49		5.000000e-01
1	1	30	180.20		2	1	1		1	1		1.00		2.36		1.500000e+00
1	1	31	185.99		3	4	4		4	1		1.00		2.83		3.500000e+00
1	1	32	193.77		2	1	1		1	1		1.00		2.26		2.500000e+00
1	1	33	200.55		1	2	2		2	1		1.00		2.21		2.500000e+00
1	1	34	207.34		1	1	1		1	1		1.00		2.40		5.000000e-01
1	1	35	212.12		4	4	4		4	1		1.00		2.68		5.000000e-01
1	1	36	216.91		1	1	1		1	1		1.00		2.59		3.500000e+00
1	1	37	224.69		4	3	3		4	0		1.00		1.28		5.000000e-01
1	1	38	229.47		3	3	3		3	1		1.00		0.97		1.500000e+00
1	1	39	235.26		4	3	3		4	0		1.00		0.97		5.000000e-01
1	1	40	240.04		3	4	4		3	0		1.00		0.93		5.000000e-01
1	1	41	244.82		2	1	1		1	1		1.00		2.80		3.500000e+00
1	1	42	252.61		1	1	1		1	1		1.00		2.53		4.500000e+00
1	1	43	261.39		3	3	3		3	1		1.00		1.00		5.000000e-01
1	1	44	266.18		2	2	2		2	1		1.00		2.25		5.000000e-01
1	1	45	270.96		4	4	4		4	1		1.00		1.03		5.500000e+00
1	1	46	280.74		3	4	4		3	0		1.00		0.84		1.500000e+00
1	1	47	286.53		1	1	1		1	1		1.00		2.35		1.500000e+00
1	1	48	292.31		3	4	4		3	0		1.00		0.72		4.500000e+00
1	1	49	301.09		1	1	1		1	1		1.00		1.37		2.500000e+00
1	1	50	307.88		2	1	1		4	0		1.00		0.88		1.500000e+00
1	1	51	313.66		3	4	4		3	0		1.00		0.85		5.000000e-01
1	1	52	318.45		2	2	2		2	1		1.00		2.28		5.000000e-01
1	1	53	323.23		3	3	3		3	1		1.00		1.58		5.000000e-01
1	1	54	328.01		1	1	1		1	1		1.00		2.30		5.000000e-01
1	1	55	332.80		4	3	3		4	0		1.00		1.27		1.500000e+00
1	1	56	338.58		4	3	3		4	0		1.00		1.05		2.500000e+00
1	1	57	345.36		4	4	4		4	1		1.00		2.50		1.500000e+00
1	1	58	351.15		1	1	1		1	1		1.00		2.44		5.000000e-01
1	1	59	355.93		1	2	2		1	0		1.00		1.55		5.000000e-01
1	1	60	360.72		2	2	2		4	0		1.00		0.98		5.000000e-01
1	1	61	365.50		3	3	3		3	1		1.00		0.69		5.000000e-01
1	1	62	370.28		4	4	4		4	1		1.00		2.57		5.000000e-01
1	1	63	375.07		3	3	3		3	1		1.00		0.86		5.000000e-01
1	1	64	379.85		4	4	4		4	1		1.00		2.26		5.000000e-01
1	1	65	384.63		4	4	4		4	1		1.00		0.83		5.000000e-01
1	1	66	389.42		4	3	3		4	0		1.00		1.41		5.000000e-01
1	1	67	394.20		2	2	2		2	1		1.00		2.68		5.000000e-01
1	1	68	398.98		1	2	2		1	0		1.00		0.84		1.500000e+00
1	1	69	404.77		4	3	3		4	0		1.00		2.44		8
1	1	70	417.04		4	4	4		4	1		1.00		2.36		1.500000e+00
1	1	71	422.82		4	4	4		4	1		1.00		0.69		5.000000e-01
1	1	72	427.60		4	4	4		4	1		1.00		0.89		4.500000e+00
1	1	73	436.39		2	1	1		2	0		1.00		0.99		5.000000e-01
1	1	74	441.17		3	3	3		3	1		1.00		0.81		2.500000e+00
1	1	75	447.95		4	4	4		4	1		1.00		2.34		5.000000e-01
1	1	76	452.74		2	2	2		2	1		1.00		2.53		5.000000e-01
1	1	77	457.52		4	3	3		4	0		1.00		1.52		5.000000e-01
1	1	78	462.31		4	3	3		3	1		1.00		2.75		2.500000e+00
1	1	79	469.09		2	1	1		2	0		1.00		2.15		2.500000e+00
1	1	80	475.87		1	1	1		1	1		1.00		1.00		5.000000e-01
1	1	81	480.66		3	4	4		3	0		1.00		2.31		4.500000e+00
1	1	82	489.44		1	2	2		1	0		1.00		1.72		5.000000e-01
1	1	83	494.22		3	3	3		3	1		1.00		2.34		5.000000e-01
1	1	84	499.01		2	2	2		2	1		1.00		1.07		1.500000e+00
1	1	85	504.79		4	3	3		4	0		1.00		1.12		1.500000e+00
1	1	86	510.58		3	3	3		3	1		1.00		1.20		5.500000e+00
1	1	87	520.36		2	2	2		2	1		1.00		1.05		5.000000e-01
1	1	88	525.14		1	2	2		1	0		1.00		0.60		3.500000e+00
1	1	89	532.93		2	1	1		2	0		1.00		0.81		5.000000e-01
1	1	90	537.71		3	4	4		3	0		1.00		0.68		2.500000e+00
1	1	91	544.49		2	1	1		2	0		1.00		0.83		5.000000e-01
1	1	92	549.28		1	1	1		1	1		1.00		1.00		8
1	1	93	561.55		1	1	1		1	1		1.00		0.72		3.500000e+00
1	1	94	569.33		3	3	3		3	1		1.00		1.43		1.500000e+00
1	1	95	575.10		1	2	2		1	0		1.00		2.30		5.500000e+00
1	1	96	584.88		3	3	3		3	1		1.00		0.99		1.500000e+00
1	1	97	590.66		3	4	4		3	0		1.00		0.82		1.500000e+00
1	1	98	596.45		2	1	1		2	0		1.00		0.90		1.500000e+00
1	1	99	602.23		2	1	1		1	1		1.00		2.78		1.500000e+00
1	1	100	608.02		2	2	2		2	1		1.00		1.24		5.500000e+00
1	2	101	0.51		2	1	1		2	0		4.00		6.26		5.000000e-01
1	2	102	9.30		4	4	4		4	1		6.00		8.30		8
1	2	103	27.56		4	4	4		4	1		8.00		4.42		5.000000e-01
1	2	104	40.33		2	1	1		2	0		8.00		1.43		5.000000e-01
1	2	105	53.10		4	4	4		4	1		6.00		1.39		8
1	2	106	71.37		1	2	2		1	0		4.00		1.07		5.000000e-01
1	2	107	80.15		4	3	3		4	0		6.00		1.80		1.500000e+00
1	2	108	91.92		3	4	4		3	0		8.00		0.88		2.500000e+00
1	2	109	106.69		4	4	4		4	1		8.00		10.43		3.500000e+00
1	2	110	122.45		4	3	3		4	0		4.00		1.49		5.000000e-01
1	2	111	131.24		4	4	4		4	1		8.00		1.44		5.000000e-01
1	2	112	144.01		4	3	3		4	0		6.00		1.61		2.500000e+00
1	2	113	156.77		2	2	2		2	1		8.00		10.20		1.500000e+00
1	2	114	170.54		1	1	1		1	1		8.00		1.49		1.500000e+00
1	2	115	184.31		3	4	4		3	0		6.00		0.85		8
1	2	116	202.58		3	4	4		3	0		6.00		0.78		1.500000e+00
1	2	117	214.34		2	2	2		2	1		4.00		1.66		6.500000e+00
1	2	118	229.11		1	1	1		1	1		8.00		1.03		5.000000e-01
1	2	119	241.88		3	3	3		3	1		8.00		1.71		6.500000e+00
1	2	120	260.65		1	2	2		1	0		6.00		0.90		3.500000e+00
1	2	121	274.41		3	3	3		3	1		6.00		8.44		7.500000e+00
1	2	122	292.18		4	3	3		4	0		4.00		1.69		8
1	2	123	308.45		4	3	3		4	0		8.00		10.18		8
1	2	124	328.72		3	4	4		3	0		4.00		2.46		6.500000e+00
1	2	125	343.49		4	3	3		4	0		8.00		4.51		5.000000e-01
1	2	126	356.25		1	1	1		1	1		4.00		6.70		1.500000e+00
1	2	127	366.02		3	3	3		3	1		4.00		2.27		5.000000e-01
1	2	128	374.80		3	3	3		4	0		8.00		10.97		5.000000e-01
1	2	129	387.57		1	2	2		2	1		6.00		8.77		1.500000e+00
1	2	130	399.34		1	2	2		2	1		8.00		10.97		4.500000e+00
1	2	131	416.11		3	4	4		3	0		6.00		3.63		2.500000e+00
1	2	132	428.87		1	1	1		1	1		4.00		6.20		8
1	2	133	445.14		3	4	4		3	0		4.00		1.08		5.500000e+00
1	2	134	458.91		3	3	3		4	0		6.00		9.17		1.500000e+00
1	2	135	470.68		3	3	3		4	0		8.00		10.67		3.500000e+00
1	2	136	486.45		1	1	1		1	1		6.00		8.92		3.500000e+00
1	2	137	500.21		1	2	2		1	0		6.00		1.19		6.500000e+00
1	2	138	516.98		1	2	2		1	0		8.00		2.86		5.500000e+00
1	2	139	534.75		2	1	1		1	1		8.00		10.60		6.500000e+00
1	2	140	553.52		1	1	1		1	1		8.00		1.17		5.000000e-01
1	2	141	566.28		3	3	3		3	1		6.00		1.73		3.500000e+00
1	2	142	580.05		2	1	1		4	0		8.00		1.19		1.500000e+00
1	2	143	593.82		2	1	1		2	0		6.00		1.60		3.500000e+00
1	2	144	607.59		4	4	4		4	1		4.00		1.30		5.000000e-01
1	2	145	616.37		1	1	1		1	1		4.00		6.97		1.500000e+00
1	2	146	626.15		4	3	3		4	0		4.00		6.60		2.500000e+00
1	2	147	636.94		3	4	4		3	0		8.00		11.17		5.000000e-01
1	2	148	649.71		4	4	4		3	0		6.00		8.13		4.500000e+00
1	2	149	664.47		1	1	1		1	1		4.00		7.54		5.500000e+00
1	2	150	678.24		2	2	2		2	1		8.00		1.37		5.000000e-01
1	2	151	691.01		2	2	2		2	1		6.00		8.13		5.000000e-01
1	2	152	701.78		2	1	1		2	0		6.00		2.89		4.500000e+00
1	2	153	716.54		1	1	1		1	1		6.00		9.11		1.500000e+00
1	2	154	728.31		3	3	3		3	1		8.00		10.93		1.500000e+00
1	2	155	742.08		4	4	4		4	1		4.00		1.71		4.500000e+00
1	2	156	754.85		2	1	1		2	0		4.00		1.23		3.500000e+00
1	2	157	766.61		4	4	4		4	1		4.00		1.95		5.000000e-01
1	2	158	775.40		1	2	2		1	0		4.00		1.75		5.000000e-01
1	2	159	784.18		4	4	4		4	1		4.00		2.88		3.500000e+00
1	2	160	795.95		2	1	1		2	0		8.00		0.93		1.500000e+00
1	2	161	809.72		4	4	4		4	1		8.00		1.74		3.500000e+00
1	2	162	825.48		3	3	3		3	1		4.00		1.03		1.500000e+00
1	2	163	835.25		2	2	2		2	1		6.00		2.99		8
1	2	164	853.52		1	2	2		1	0		4.00		1.50		2.500000e+00
1	2	165	864.29		1	2	2		1	0		6.00		9.63		1.500000e+00
1	2	166	876.05		3	3	3		3	1		4.00		6.61		1.500000e+00
1	2	167	885.84		2	2	2		1	0		8.00		1.31		4.500000e+00
1	2	168	902.61		3	3	3		3	1		4.00		6.50		5.000000e-01
1	2	169	911.39		2	2	2		2	1		4.00		7.01		1.500000e+00
1	2	170	921.17		2	1	1		2	0		6.00		9.04		1.500000e+00
1	2	171	932.94		2	2	2		2	1		6.00		8.65		5.000000e-01
1	2	172	943.71		3	4	4		4	1		8.00		10.93		3.500000e+00
1	2	173	959.48		4	3	3		4	0		6.00		6.46		5.000000e-01
1	2	174	970.24		1	1	1		1	1		6.00		7.88		8
1	2	175	988.51		2	1	1		1	1		4.00		7.47		4.500000e+00
1	2	176	1001.28		2	2	2		2	1		4.00		6.28		1.500000e+00
1	2	177	1011.06		4	4	4		4	1		8.00		9.97		8
1	2	178	1031.33		3	3	3		4	0		6.00		8.64		5.000000e-01
1	2	179	1042.10		1	2	2		2	1		8.00		10.18		3.500000e+00
1	2	180	1057.87		2	2	2		2	1		4.00		6.67		7.500000e+00
Block	Phase	Trial	RunningTime	Cue	Image	CorrResp	Resp	Accuracy	ISI	RT_from_CueOnset	ITI
2	1	1	0.51		4	4	4		4	1		1.00		2.78		5.000000e-01
2	1	2	5.29		2	2	2		2	1		1.00		2.50		5.000000e-01
2	1	3	10.08		3	4	4		4	1		1.00		2.51		5.000000e-01
2	1	4	14.86		1	1	1		1	1		1.00		2.56		8
2	1	5	27.13		3	3	3		3	1		1.00		2.84		1.500000e+00
2	1	6	32.91		2	1	1		1	1		1.00		3.08		1.500000e+00
2	1	7	38.69		4	3	3		3	1		1.00		2.91		1.500000e+00
2	1	8	44.48		3	3	3		3	1		1.00		2.50		5.000000e-01
2	1	9	49.25		1	1	1		1	1		1.00		2.42		4.500000e+00
2	1	10	58.03		3	3	3		3	1		1.00		2.13		5.000000e-01
2	1	11	62.81		3	3	3		3	1		1.00		2.27		1.500000e+00
2	1	12	68.60		1	1	1		1	1		1.00		2.17		5.500000e+00
2	1	13	78.38		1	2	2		2	1		1.00		2.41		1.500000e+00
2	1	14	84.16		2	2	2		2	1		1.00		2.48		1.500000e+00
2	1	15	89.95		2	2	2		2	1		1.00		2.42		3.500000e+00
2	1	16	97.73		3	3	3		3	1		1.00		2.23		5.000000e-01
2	1	17	102.52		3	3	3		3	1		1.00		2.25		5.000000e-01
2	1	18	107.30		2	2	2		2	1		1.00		2.46		1.500000e+00
2	1	19	113.08		3	4	4		3	0		1.00		2.31		1.500000e+00
2	1	20	118.87		1	1	1		1	1		1.00		2.30		1.500000e+00
2	1	21	124.65		1	2	2		1	0		1.00		0.84		4.500000e+00
2	1	22	133.43		2	2	2		2	1		1.00		2.32		3.500000e+00
2	1	23	141.22		1	1	1		1	1		1.00		2.43		5.000000e-01
2	1	24	146.00		3	4	4		4	1		1.00		2.49		1.500000e+00
2	1	25	151.77		1	1	1		1	1		1.00		2.49		3.500000e+00
2	1	26	159.55		3	3	3		3	1		1.00		2.60		5.000000e-01
2	1	27	164.34		1	2	2		2	1		1.00		2.63		5.000000e-01
2	1	28	169.12		4	3	3		3	1		1.00		2.62		8
2	1	29	181.39		4	4	4		4	1		1.00		2.78		5.000000e-01
2	1	30	186.17		4	4	4		4	1		1.00		2.31		5.500000e+00
2	1	31	195.96		4	4	4		4	1		1.00		1.21		2.500000e+00
2	1	32	202.74		1	1	1		1	1		1.00		1.69		5.000000e-01
2	1	33	207.52		4	3	3		4	0		1.00		1.57		1.500000e+00
2	1	34	213.31		2	1	1		1	1		1.00		2.89		5.000000e-01
2	1	35	218.09		1	1	1		1	1		1.00		1.21		3.500000e+00
2	1	36	225.87		2	1	1		1	1		1.00		2.61		5.000000e-01
2	1	37	230.66		2	2	2		2	1		1.00		2.69		3.500000e+00
2	1	38	238.44		4	4	4		4	1		1.00		1.87		3.500000e+00
2	1	39	246.23		1	2	2		1	0		1.00		0.97		5.000000e-01
2	1	40	251.01		4	3	3		4	0		1.00		1.60		1.500000e+00
2	1	41	256.79		3	3	3		2	0		1.00		1.28		5.000000e-01
2	1	42	261.58		2	2	2		2	1		1.00		0.67		5.000000e-01
2	1	43	266.36		2	2	2		2	1		1.00		1.17		5.000000e-01
2	1	44	271.14		2	2	2		2	1		1.00		2.45		5.000000e-01
2	1	45	275.93		2	2	2		2	1		1.00		2.51		5.500000e+00
2	1	46	285.71		2	2	2		2	1		1.00		2.05		1.500000e+00
2	1	47	291.50		3	4	4		3	0		1.00		0.67		5.000000e-01
2	1	48	296.28		1	1	1		1	1		1.00		1.48		5.000000e-01
2	1	49	301.06		4	4	4		4	1		1.00		2.51		5.000000e-01
2	1	50	305.85		3	3	3		3	1		1.00		2.34		2.500000e+00
2	1	51	312.63		4	4	4		3	0		1.00		2.81		4.500000e+00
2	1	52	321.41		2	2	2		2	1		1.00		1.44		1.500000e+00
2	1	53	327.20		1	1	1		1	1		1.00		1.18		1.500000e+00
2	1	54	332.98		4	4	4		4	1		1.00		2.55		1.500000e+00
2	1	55	338.76		3	3	3		3	1		1.00		1.95		1.500000e+00
2	1	56	344.55		2	2	2		2	1		1.00		2.47		5.000000e-01
2	1	57	349.33		4	3	3		3	1		1.00		2.87		5.000000e-01
2	1	58	354.12		3	3	3		3	1		1.00		1.97		5.000000e-01
2	1	59	358.90		4	4	4		4	1		1.00		1.58		2.500000e+00
2	1	60	365.68		4	4	4		4	1		1.00		0.94		1.500000e+00
2	1	61	371.47		2	2	2		2	1		1.00		1.38		5.000000e-01
2	1	62	376.25		2	2	2		2	1		1.00		1.66		5.000000e-01
2	1	63	381.03		3	3	3		3	1		1.00		0.75		5.000000e-01
2	1	64	385.82		2	2	2		2	1		1.00		0.80		2.500000e+00
2	1	65	392.60		1	2	2		1	0		1.00		0.68		2.500000e+00
2	1	66	399.39		4	4	4		4	1		1.00		1.36		2.500000e+00
2	1	67	406.17		3	4	4		3	0		1.00		1.27		4.500000e+00
2	1	68	414.95		3	3	3		4	0		1.00		2.72		1.500000e+00
2	1	69	420.74		1	1	1		1	1		1.00		0.90		3.500000e+00
2	1	70	428.52		3	3	3		3	1		1.00		1.25		5.000000e-01
2	1	71	433.30		4	4	4		4	1		1.00		1.00		5.000000e-01
2	1	72	438.09		3	3	3		3	1		1.00		0.90		3.500000e+00
2	1	73	445.87		3	4	4		3	0		1.00		0.67		5.500000e+00
2	1	74	455.66		2	2	2		2	1		1.00		1.34		1.500000e+00
2	1	75	461.44		2	2	2		2	1		1.00		3.02		5.000000e-01
2	1	76	466.22		2	2	2		2	1		1.00		1.30		5.000000e-01
2	1	77	471.01		4	3	3		4	0		1.00		0.70		5.000000e-01
2	1	78	475.79		2	2	2		2	1		1.00		1.23		5.000000e-01
2	1	79	480.57		1	1	1		1	1		1.00		1.64		5.000000e-01
2	1	80	485.36		1	1	1		1	1		1.00		2.42		5.000000e-01
2	1	81	490.14		3	3	3		3	1		1.00		0.98		4.500000e+00
2	1	82	498.93		3	3	3		3	1		1.00		1.05		5.000000e-01
2	1	83	503.71		1	1	1		1	1		1.00		0.80		2.500000e+00
2	1	84	510.49		4	3	3		4	0		1.00		1.40		5.000000e-01
2	1	85	515.28		4	4	4		4	1		1.00		2.85		5.000000e-01
2	1	86	520.06		2	1	1		1	1		1.00		2.49		2.500000e+00
2	1	87	526.84		1	1	1		1	1		1.00		0.95		5.500000e+00
2	1	88	536.63		4	4	4		4	1		1.00		0.85		5.000000e-01
2	1	89	541.41		1	1	1		1	1		1.00		0.86		5.000000e-01
2	1	90	546.20		1	1	1		1	1		1.00		0.57		3.500000e+00
2	1	91	553.98		2	1	1		1	1		1.00		3.26		1.500000e+00
2	1	92	559.76		3	4	4		3	0		1.00		0.83		2.500000e+00
2	1	93	566.55		1	1	1		1	1		1.00		0.86		2.500000e+00
2	1	94	573.33		4	4	4		4	1		1.00		0.97		5.000000e-01
2	1	95	578.11		4	4	4		4	1		1.00		0.69		5.500000e+00
2	1	96	587.90		1	1	1		1	1		1.00		0.58		1.500000e+00
2	1	97	593.68		3	3	3		3	1		1.00		2.29		5.500000e+00
2	1	98	603.47		4	3	3		NaN	NaN		1.00		NaN		5.000000e-01
2	1	99	608.25		4	4	4		4	1		1.00		0.75		5.000000e-01
2	1	100	613.03		1	1	1		1	1		1.00		0.56		5.000000e-01
2	2	101	0.51		4	4	4		4	1		8.00		0.99		5.000000e-01
2	2	102	13.28		3	3	3		3	1		6.00		0.85		3.500000e+00
2	2	103	27.05		2	1	1		2	0		6.00		1.75		4.500000e+00
2	2	104	41.82		4	4	4		4	1		4.00		1.33		3.500000e+00
2	2	105	53.58		4	4	4		4	1		8.00		1.52		8
2	2	106	73.85		3	3	3		3	1		4.00		1.08		5.000000e-01
2	2	107	82.63		4	3	3		4	0		4.00		0.90		2.500000e+00
2	2	108	93.40		3	3	3		3	1		4.00		0.90		1.500000e+00
2	2	109	103.17		1	2	2		1	0		6.00		0.70		3.500000e+00
2	2	110	116.94		1	1	1		1	1		6.00		0.84		3.500000e+00
2	2	111	130.70		4	4	4		4	1		6.00		0.71		4.500000e+00
2	2	112	145.47		1	1	1		1	1		4.00		0.65		5.000000e-01
2	2	113	154.26		3	3	3		3	1		6.00		1.23		7.500000e+00
2	2	114	172.02		4	3	3		4	0		6.00		0.83		1.500000e+00
2	2	115	183.79		3	3	3		3	1		4.00		1.60		1.500000e+00
2	2	116	193.58		1	1	1		1	1		6.00		1.39		8
2	2	117	211.84		1	1	1		1	1		4.00		0.65		5.500000e+00
2	2	118	225.61		3	3	3		3	1		6.00		0.68		5.000000e-01
2	2	119	236.38		1	1	1		2	0		6.00		8.43		1.500000e+00
2	2	120	248.15		3	4	4		3	0		6.00		0.69		2.500000e+00
2	2	121	260.91		4	3	3		4	0		8.00		0.75		8
2	2	122	281.18		2	2	2		2	1		6.00		1.19		8
2	2	123	299.45		1	1	1		1	1		6.00		1.38		1.500000e+00
2	2	124	311.22		2	2	2		2	1		8.00		1.08		4.500000e+00
2	2	125	327.98		2	2	2		2	1		4.00		1.04		4.500000e+00
2	2	126	340.75		2	1	1		2	0		8.00		1.29		1.500000e+00
2	2	127	354.52		2	2	2		2	1		4.00		1.60		7.500000e+00
2	2	128	370.29		4	4	4		4	1		4.00		0.71		4.500000e+00
2	2	129	383.06		1	1	1		1	1		4.00		0.68		1.500000e+00
2	2	130	392.84		4	4	4		4	1		4.00		0.59		5.000000e-01
2	2	131	401.62		2	2	2		2	1		4.00		0.96		1.500000e+00
2	2	132	411.41		4	4	4		4	1		6.00		0.91		2.500000e+00
2	2	133	424.17		2	2	2		2	1		8.00		0.62		5.000000e-01
2	2	134	436.94		3	4	4		3	0		6.00		1.03		1.500000e+00
2	2	135	448.71		3	3	3		3	1		8.00		10.27		3.500000e+00
2	2	136	464.48		1	1	1		1	1		8.00		0.96		3.500000e+00
2	2	137	480.24		3	4	4		3	0		8.00		1.15		5.000000e-01
2	2	138	493.01		2	2	2		1	0		6.00		8.50		3.500000e+00
2	2	139	506.78		2	2	2		2	1		4.00		1.03		6.500000e+00
2	2	140	521.55		3	3	3		3	1		4.00		1.16		5.000000e-01
2	2	141	530.33		3	3	3		3	1		8.00		0.94		5.000000e-01
2	2	142	543.10		3	3	3		3	1		6.00		8.21		1.500000e+00
2	2	143	554.87		2	2	2		2	1		6.00		1.62		1.500000e+00
2	2	144	566.63		4	3	3		4	0		6.00		1.55		5.000000e-01
2	2	145	577.40		2	2	2		2	1		8.00		1.34		1.500000e+00
2	2	146	591.17		4	4	4		4	1		8.00		0.69		5.000000e-01
2	2	147	603.94		1	1	1		1	1		8.00		0.90		5.000000e-01
2	2	148	616.70		2	2	2		2	1		8.00		0.80		1.500000e+00
2	2	149	630.47		2	2	2		2	1		6.00		0.73		5.000000e-01
2	2	150	641.24		4	4	4		4	1		8.00		0.65		3.500000e+00
2	2	151	657.01		1	1	1		1	1		4.00		0.66		8
2	2	152	673.27		3	4	4		3	0		4.00		1.05		6.500000e+00
2	2	153	688.04		3	4	4		3	0		4.00		0.80		5.500000e+00
2	2	154	701.81		3	3	3		3	1		6.00		0.83		8
2	2	155	720.08		3	3	3		3	1		8.00		0.85		1.500000e+00
2	2	156	733.85		3	3	3		3	1		8.00		10.10		6.500000e+00
2	2	157	752.61		1	2	2		1	0		8.00		0.58		4.500000e+00
2	2	158	769.38		1	1	1		1	1		6.00		0.80		6.500000e+00
2	2	159	786.15		2	1	1		2	0		8.00		0.92		5.000000e-01
2	2	160	798.92		2	2	2		2	1		6.00		1.19		5.000000e-01
2	2	161	809.68		4	4	4		4	1		4.00		0.64		3.500000e+00
2	2	162	821.45		3	4	4		3	0		8.00		0.82		3.500000e+00
2	2	163	837.22		2	2	2		2	1		4.00		6.44		1.500000e+00
2	2	164	847.00		1	1	1		1	1		8.00		0.59		1.500000e+00
2	2	165	860.77		2	1	1		3	0		4.00		0.67		3.500000e+00
2	2	166	872.54		4	3	3		4	0		4.00		1.51		8
2	2	167	888.81		1	2	2		1	0		6.00		8.20		1.500000e+00
2	2	168	900.57		2	2	2		2	1		8.00		1.11		6.500000e+00
2	2	169	919.34		1	1	1		1	1		4.00		0.61		2.500000e+00
2	2	170	930.11		1	2	2		1	0		4.00		0.60		5.000000e-01
2	2	171	938.89		4	3	3		4	0		4.00		1.12		5.000000e-01
2	2	172	947.68		4	4	4		4	1		6.00		0.99		8
2	2	173	965.94		1	1	1		1	1		8.00		0.61		5.500000e+00
2	2	174	983.71		1	1	1		1	1		8.00		0.62		5.000000e-01
2	2	175	996.48		2	2	2		2	1		4.00		1.79		5.000000e-01
2	2	176	1005.26		4	3	3		4	0		8.00		0.67		5.000000e-01
2	2	177	1018.03		4	4	4		4	1		8.00		0.78		5.000000e-01
2	2	178	1030.80		3	3	3		3	1		8.00		1.27		2.500000e+00
2	2	179	1045.57		1	1	1		1	1		4.00		0.58		1.500000e+00
2	2	180	1055.35		4	4	4		4	1		6.00		0.64		8
