*********************************************
* Combray
* Date/Time: 04-Nov-2015 15:03:16
* Seed: 206374.5173
* Subject Number: 25
* Subject Name: NP
*********************************************

Block	Phase	Trial	RunningTime	Cue	Image	CorrResp	Resp	Accuracy	ISI	RT_from_CueOnset	ITI
1	1	1	0.51		4	4	4		4	1		1.00		2.69		5.000000e-01
1	1	2	5.27		2	2	2		2	1		1.00		2.50		1.500000e+00
1	1	3	11.04		1	1	1		1	1		1.00		2.38		4.500000e+00
1	1	4	19.81		1	2	2		1	0		1.00		1.01		1.500000e+00
1	1	5	25.57		3	4	4		4	1		1.00		2.36		5.000000e-01
1	1	6	30.34		2	2	2		2	1		1.00		2.36		2.500000e+00
1	1	7	37.11		2	1	1		1	1		1.00		2.33		5.000000e-01
1	1	8	41.87		4	3	3		4	0		1.00		2.28		5.000000e-01
1	1	9	46.64		2	2	2		2	1		1.00		2.44		5.000000e-01
1	1	10	51.41		4	4	4		4	1		1.00		2.24		5.000000e-01
1	1	11	56.18		4	4	4		4	1		1.00		2.15		3.500000e+00
1	1	12	63.94		3	3	3		3	1		1.00		2.17		5.000000e-01
1	1	13	68.71		1	1	1		1	1		1.00		2.27		5.000000e-01
1	1	14	73.48		4	4	4		1	0		1.00		0.93		5.000000e-01
1	1	15	78.24		4	3	3		4	0		1.00		0.65		1.500000e+00
1	1	16	84.01		2	2	2		2	1		1.00		1.11		5.000000e-01
1	1	17	88.78		4	4	4		4	1		1.00		1.00		5.000000e-01
1	1	18	93.55		3	3	3		3	1		1.00		2.31		2.500000e+00
1	1	19	100.31		2	1	1		2	0		1.00		1.37		1.500000e+00
1	1	20	106.08		1	2	2		2	1		1.00		2.41		5.000000e-01
1	1	21	110.85		3	3	3		3	1		1.00		1.42		5.500000e+00
1	1	22	120.61		2	2	2		2	1		1.00		2.38		5.000000e-01
1	1	23	125.38		4	3	3		4	0		1.00		1.69		5.000000e-01
1	1	24	130.15		1	1	1		1	1		1.00		2.31		4.500000e+00
1	1	25	138.92		2	2	2		2	1		1.00		0.94		5.000000e-01
1	1	26	143.68		1	1	1		1	1		1.00		2.27		5.000000e-01
1	1	27	148.45		2	1	1		2	0		1.00		0.81		1.500000e+00
1	1	28	154.22		1	2	2		2	1		1.00		3.27		5.000000e-01
1	1	29	158.98		3	3	3		3	1		1.00		0.98		5.000000e-01
1	1	30	163.75		3	3	3		3	1		1.00		0.89		5.500000e+00
1	1	31	173.52		4	4	4		4	1		1.00		2.39		5.000000e-01
1	1	32	178.28		3	4	4		3	0		1.00		0.79		2.500000e+00
1	1	33	185.05		4	4	4		4	1		1.00		2.37		5.000000e-01
1	1	34	189.82		1	1	1		1	1		1.00		2.19		5.000000e-01
1	1	35	194.59		2	1	1		2	0		1.00		0.99		2.500000e+00
1	1	36	201.35		1	2	2		1	0		1.00		1.36		5.000000e-01
1	1	37	206.12		3	3	3		3	1		1.00		0.96		5.500000e+00
1	1	38	215.89		3	4	4		3	0		1.00		0.91		5.500000e+00
1	1	39	225.65		4	4	4		4	1		1.00		2.44		3.500000e+00
1	1	40	233.42		3	3	3		3	1		1.00		2.44		5.000000e-01
1	1	41	238.19		2	2	2		2	1		1.00		2.30		5.000000e-01
1	1	42	242.95		3	3	3		3	1		1.00		1.40		1.500000e+00
1	1	43	248.72		2	1	1		2	0		1.00		0.98		2.500000e+00
1	1	44	255.49		3	3	3		3	1		1.00		2.36		1.500000e+00
1	1	45	261.26		3	3	3		3	1		1.00		0.79		3.500000e+00
1	1	46	269.02		4	3	3		4	0		1.00		1.50		2.500000e+00
1	1	47	275.79		2	2	2		2	1		1.00		0.93		3.500000e+00
1	1	48	283.56		2	2	2		2	1		1.00		0.65		5.000000e-01
1	1	49	288.33		2	2	2		2	1		1.00		0.58		5.000000e-01
1	1	50	293.09		1	1	1		1	1		1.00		2.22		5.000000e-01
1	1	51	297.86		4	4	4		4	1		1.00		0.88		5.000000e-01
1	1	52	302.63		1	2	2		2	1		1.00		2.32		2.500000e+00
1	1	53	309.39		4	3	3		4	0		1.00		2.14		5.000000e-01
1	1	54	314.16		1	1	1		1	1		1.00		2.24		1.500000e+00
1	1	55	319.93		3	3	3		3	1		1.00		1.08		1.500000e+00
1	1	56	325.69		1	1	1		1	1		1.00		1.30		5.000000e-01
1	1	57	330.46		1	1	1		1	1		1.00		0.50		5.000000e-01
1	1	58	335.23		2	2	2		2	1		1.00		2.49		2.500000e+00
1	1	59	342.00		2	2	2		2	1		1.00		1.23		4.500000e+00
1	1	60	350.76		3	3	3		3	1		1.00		1.06		5.000000e-01
1	1	61	355.53		4	4	4		4	1		1.00		2.33		3.500000e+00
1	1	62	363.30		4	3	3		4	0		1.00		0.65		1.500000e+00
1	1	63	369.06		2	2	2		3	0		1.00		0.77		1.500000e+00
1	1	64	374.83		1	1	1		1	1		1.00		0.97		5.000000e-01
1	1	65	379.60		1	1	1		1	1		1.00		0.81		1.500000e+00
1	1	66	385.36		4	4	4		4	1		1.00		1.34		3.500000e+00
1	1	67	393.13		2	1	1		2	0		1.00		0.45		5.000000e-01
1	1	68	397.90		1	1	1		1	1		1.00		2.17		1.500000e+00
1	1	69	403.67		3	4	4		3	0		1.00		2.26		1.500000e+00
1	1	70	409.43		3	3	3		3	1		1.00		2.39		1.500000e+00
1	1	71	415.20		4	4	4		4	1		1.00		2.38		5.000000e-01
1	1	72	419.97		3	4	4		4	1		1.00		2.63		5.000000e-01
1	1	73	424.73		3	3	3		2	0		1.00		2.21		5.000000e-01
1	1	74	429.50		4	3	3		3	1		1.00		2.38		1.500000e+00
1	1	75	435.27		2	1	1		2	0		1.00		2.01		5.000000e-01
1	1	76	440.04		3	3	3		3	1		1.00		2.22		4.500000e+00
1	1	77	448.80		1	2	2		2	1		1.00		2.44		5.500000e+00
1	1	78	458.57		1	2	2		1	0		1.00		1.04		2.500000e+00
1	1	79	465.34		1	2	2		2	1		1.00		2.34		5.000000e-01
1	1	80	470.10		1	2	2		2	1		1.00		0.51		5.500000e+00
1	1	81	479.87		1	1	1		2	0		1.00		1.33		5.000000e-01
1	1	82	484.64		4	4	4		4	1		1.00		2.57		8
1	1	83	496.91		3	3	3		3	1		1.00		1.03		1.500000e+00
1	1	84	502.67		2	1	1		2	0		1.00		1.24		5.000000e-01
1	1	85	507.44		3	3	3		NaN	NaN		1.00		NaN		8
1	1	86	519.71		1	1	1		1	1		1.00		2.38		2.500000e+00
1	1	87	526.47		3	3	3		3	1		1.00		2.48		3.500000e+00
1	1	88	534.24		4	4	4		4	1		1.00		2.45		3.500000e+00
1	1	89	542.01		4	4	4		4	1		1.00		2.85		4.500000e+00
1	1	90	550.78		2	1	1		1	1		1.00		2.39		5.000000e-01
1	1	91	555.54		3	4	4		3	0		1.00		0.95		1.500000e+00
1	1	92	561.31		4	4	4		4	1		1.00		2.36		3.500000e+00
1	1	93	569.08		4	3	3		4	0		1.00		2.18		5.500000e+00
1	1	94	578.84		1	1	1		1	1		1.00		2.41		1.500000e+00
1	1	95	584.61		4	4	4		NaN	NaN		1.00		NaN		5.000000e-01
1	1	96	589.38		2	2	2		2	1		1.00		1.21		1.500000e+00
1	1	97	595.15		2	1	1		2	0		1.00		0.67		1.500000e+00
1	1	98	600.91		2	2	2		2	1		1.00		1.42		5.000000e-01
1	1	99	605.68		3	4	4		4	1		1.00		2.43		1.500000e+00
1	1	100	611.45		1	2	2		1	0		1.00		2.57		5.000000e-01
1	2	101	0.50		4	3	3		4	0		6.00		8.07		1.500000e+00
1	2	102	12.27		2	1	1		1	1		6.00		9.32		8
1	2	103	30.54		4	4	4		4	1		4.00		7.15		8
1	2	104	46.81		2	1	1		1	1		4.00		5.94		4.500000e+00
1	2	105	59.58		4	4	4		4	1		4.00		6.04		2.500000e+00
1	2	106	70.34		4	4	4		4	1		4.00		7.76		1.500000e+00
1	2	107	80.11		1	1	1		1	1		6.00		8.70		3.500000e+00
1	2	108	93.88		4	4	4		4	1		8.00		10.43		4.500000e+00
1	2	109	110.65		2	2	2		2	1		8.00		9.93		2.500000e+00
1	2	110	125.41		3	4	4		NaN	0		8.00		NaN		8
1	2	111	145.68		1	2	2		NaN	0		8.00		NaN		8
1	2	112	165.95		4	3	3		4	0		4.00		6.22		6.500000e+00
1	2	113	180.72		2	2	2		2	1		8.00		9.88		8
1	2	114	200.98		1	1	1		1	1		4.00		5.77		5.000000e-01
1	2	115	209.75		4	3	3		NaN	0		8.00		NaN		4.500000e+00
1	2	116	226.52		2	1	1		1	1		8.00		10.00		1.500000e+00
1	2	117	240.29		4	3	3		NaN	0		8.00		NaN		7.500000e+00
1	2	118	260.06		3	3	3		3	1		8.00		10.10		5.000000e-01
1	2	119	272.82		1	2	2		NaN	0		4.00		NaN		5.000000e-01
1	2	120	281.59		2	1	1		1	1		6.00		7.83		7.500000e+00
1	2	121	299.36		1	2	2		NaN	0		6.00		NaN		5.000000e-01
1	2	122	310.12		1	2	2		NaN	0		6.00		NaN		4.500000e+00
1	2	123	324.89		4	4	4		4	1		6.00		7.74		5.000000e-01
1	2	124	335.66		4	3	3		NaN	0		4.00		NaN		2.500000e+00
1	2	125	346.43		2	2	2		NaN	0		6.00		NaN		3.500000e+00
1	2	126	360.19		1	1	1		NaN	0		4.00		NaN		6.500000e+00
1	2	127	374.96		2	2	2		NaN	0		4.00		NaN		4.500000e+00
1	2	128	387.73		3	3	3		4	0		4.00		6.09		3.500000e+00
1	2	129	399.50		3	3	3		NaN	0		8.00		NaN		1.500000e+00
1	2	130	413.27		3	3	3		3	1		6.00		9.13		1.500000e+00
1	2	131	425.03		2	2	2		NaN	0		6.00		NaN		5.000000e-01
1	2	132	435.80		3	3	3		NaN	0		6.00		NaN		1.500000e+00
1	2	133	447.57		2	2	2		1	0		6.00		8.74		5.000000e-01
1	2	134	458.33		3	3	3		3	1		6.00		8.58		3.500000e+00
1	2	135	472.10		2	2	2		NaN	0		4.00		NaN		5.000000e-01
1	2	136	480.87		2	1	1		NaN	0		8.00		NaN		1.500000e+00
1	2	137	494.64		1	2	2		NaN	0		4.00		NaN		3.500000e+00
1	2	138	506.41		3	3	3		4	0		8.00		9.94		5.000000e-01
1	2	139	519.17		3	4	4		3	0		4.00		1.14		2.500000e+00
1	2	140	529.94		4	4	4		4	1		8.00		10.97		3.500000e+00
1	2	141	545.71		4	4	4		NaN	0		8.00		NaN		1.500000e+00
1	2	142	559.48		1	2	2		2	1		8.00		9.83		5.000000e-01
1	2	143	572.24		3	4	4		NaN	0		6.00		NaN		5.500000e+00
1	2	144	588.01		1	1	1		1	1		8.00		9.78		3.500000e+00
1	2	145	603.78		3	3	3		NaN	0		4.00		NaN		4.500000e+00
1	2	146	616.55		1	1	1		1	1		6.00		7.70		3.500000e+00
1	2	147	630.31		2	2	2		NaN	0		6.00		NaN		5.000000e-01
1	2	148	641.08		2	2	2		NaN	0		8.00		NaN		1.500000e+00
1	2	149	654.85		4	4	4		4	1		8.00		11.57		1.500000e+00
1	2	150	668.62		3	4	4		NaN	0		8.00		NaN		5.000000e-01
1	2	151	681.38		2	2	2		NaN	0		4.00		NaN		5.000000e-01
1	2	152	690.15		1	2	2		2	1		6.00		8.61		5.000000e-01
1	2	153	700.92		1	1	1		NaN	0		6.00		NaN		3.500000e+00
1	2	154	714.69		4	3	3		NaN	0		6.00		NaN		1.500000e+00
1	2	155	726.45		1	1	1		1	1		8.00		11.04		5.500000e+00
1	2	156	744.22		1	1	1		NaN	0		6.00		NaN		5.000000e-01
1	2	157	754.99		1	1	1		1	1		4.00		7.48		8
1	2	158	771.26		3	3	3		NaN	0		6.00		NaN		1.500000e+00
1	2	159	783.02		4	4	4		4	1		6.00		7.97		1.500000e+00
1	2	160	794.79		1	1	1		NaN	0		4.00		NaN		5.000000e-01
1	2	161	803.56		4	3	3		NaN	0		4.00		NaN		5.000000e-01
1	2	162	812.32		3	3	3		3	1		8.00		11.25		1.500000e+00
1	2	163	826.09		1	1	1		NaN	0		8.00		NaN		3.500000e+00
1	2	164	841.86		4	4	4		NaN	0		4.00		NaN		6.500000e+00
1	2	165	856.63		2	1	1		1	1		4.00		5.87		1.500000e+00
1	2	166	866.40		2	1	1		1	1		4.00		6.77		1.500000e+00
1	2	167	876.16		3	4	4		NaN	0		6.00		NaN		1.500000e+00
1	2	168	887.93		3	3	3		3	1		4.00		7.55		5.000000e-01
1	2	169	896.70		3	3	3		3	1		4.00		5.87		5.000000e-01
1	2	170	905.47		4	4	4		NaN	0		6.00		NaN		6.500000e+00
1	2	171	922.23		1	1	1		1	1		8.00		9.76		8
1	2	172	942.50		3	3	3		NaN	0		8.00		NaN		5.000000e-01
1	2	173	955.27		1	2	2		1	0		4.00		5.99		6.500000e+00
1	2	174	970.04		4	4	4		NaN	0		6.00		NaN		2.500000e+00
1	2	175	982.80		3	4	4		NaN	0		4.00		NaN		8
1	2	176	999.07		2	2	2		NaN	0		8.00		NaN		1.500000e+00
1	2	177	1012.84		4	4	4		4	1		4.00		6.26		5.500000e+00
1	2	178	1026.61		3	3	3		4	0		6.00		7.57		3.500000e+00
1	2	179	1040.37		2	2	2		2	1		4.00		5.47		8
1	2	180	1056.64		2	1	1		2	0		8.00		0.99		5.000000e-01
Block	Phase	Trial	RunningTime	Cue	Image	CorrResp	Resp	Accuracy	ISI	RT_from_CueOnset	ITI
2	1	1	0.51		1	2	2		2	1		1.00		2.52		5.000000e-01
2	1	2	5.27		4	3	3		3	1		1.00		2.46		1.500000e+00
2	1	3	11.04		3	4	4		4	1		1.00		2.59		1.500000e+00
2	1	4	16.81		2	2	2		1	0		1.00		2.16		4.500000e+00
2	1	5	25.58		4	3	3		3	1		1.00		2.40		3.500000e+00
2	1	6	33.34		4	4	4		3	0		1.00		0.59		5.000000e-01
2	1	7	38.11		2	2	2		2	1		1.00		2.26		1.500000e+00
2	1	8	43.88		3	3	3		3	1		1.00		2.41		4.500000e+00
2	1	9	52.64		2	2	2		2	1		1.00		2.49		1.500000e+00
2	1	10	58.41		3	3	3		3	1		1.00		2.18		1.500000e+00
2	1	11	64.18		1	2	2		2	1		1.00		2.36		5.000000e-01
2	1	12	68.95		1	1	1		1	1		1.00		1.97		2.500000e+00
2	1	13	75.71		1	1	1		1	1		1.00		2.20		2.500000e+00
2	1	14	82.48		1	1	1		1	1		1.00		0.58		4.500000e+00
2	1	15	91.25		1	1	1		1	1		1.00		1.19		5.000000e-01
2	1	16	96.01		2	1	1		2	0		1.00		1.26		1.500000e+00
2	1	17	101.78		3	4	4		4	1		1.00		2.31		1.500000e+00
2	1	18	107.55		2	2	2		2	1		1.00		2.30		5.000000e-01
2	1	19	112.32		4	3	3		3	1		1.00		1.70		4.500000e+00
2	1	20	121.08		1	1	1		1	1		1.00		2.46		5.500000e+00
2	1	21	130.85		4	3	3		3	1		1.00		1.00		2.500000e+00
2	1	22	137.62		4	4	4		3	0		1.00		0.54		5.000000e-01
2	1	23	142.38		1	1	1		1	1		1.00		1.21		1.500000e+00
2	1	24	148.15		4	3	3		3	1		1.00		0.57		5.000000e-01
2	1	25	152.92		4	3	3		3	1		1.00		1.21		5.000000e-01
2	1	26	157.68		1	1	1		1	1		1.00		0.67		4.500000e+00
2	1	27	166.45		3	4	4		4	1		1.00		2.34		1.500000e+00
2	1	28	172.22		3	4	4		4	1		1.00		0.69		5.000000e-01
2	1	29	176.99		1	1	1		1	1		1.00		0.84		5.000000e-01
2	1	30	181.75		1	1	1		1	1		1.00		0.74		5.000000e-01
2	1	31	186.52		1	1	1		1	1		1.00		0.95		5.000000e-01
2	1	32	191.29		4	4	4		4	1		1.00		2.54		5.000000e-01
2	1	33	196.05		3	4	4		4	1		1.00		0.92		1.500000e+00
2	1	34	201.82		2	2	2		2	1		1.00		2.21		1.500000e+00
2	1	35	207.59		4	4	4		3	0		1.00		0.63		5.000000e-01
2	1	36	212.35		1	1	1		1	1		1.00		0.68		5.000000e-01
2	1	37	217.12		3	3	3		3	1		1.00		2.33		5.000000e-01
2	1	38	221.89		2	1	1		1	1		1.00		3.32		1.500000e+00
2	1	39	227.66		4	4	4		3	0		1.00		0.79		8
2	1	40	239.92		4	3	3		3	1		1.00		0.55		5.000000e-01
2	1	41	244.69		3	4	4		4	1		1.00		1.32		2.500000e+00
2	1	42	251.46		3	3	3		4	0		1.00		0.59		5.500000e+00
2	1	43	261.23		2	2	2		2	1		1.00		2.48		1.500000e+00
2	1	44	266.99		1	1	1		1	1		1.00		0.64		1.500000e+00
2	1	45	272.76		3	4	4		4	1		1.00		2.89		5.500000e+00
2	1	46	282.53		4	4	4		3	0		1.00		0.63		5.000000e-01
2	1	47	287.29		4	3	3		3	1		1.00		2.79		1.500000e+00
2	1	48	293.06		2	2	2		2	1		1.00		1.47		5.000000e-01
2	1	49	297.83		3	4	4		NaN	NaN		1.00		NaN		8
2	1	50	310.10		3	4	4		4	1		1.00		1.01		2.500000e+00
2	1	51	316.86		2	2	2		2	1		1.00		2.25		3.500000e+00
2	1	52	324.63		3	3	3		3	1		1.00		2.45		5.500000e+00
2	1	53	334.40		2	1	1		2	0		1.00		0.94		5.000000e-01
2	1	54	339.16		1	2	2		1	0		1.00		1.19		5.000000e-01
2	1	55	343.93		3	4	4		4	1		1.00		3.18		1.500000e+00
2	1	56	349.70		3	3	3		4	0		1.00		1.08		1.500000e+00
2	1	57	355.46		4	4	4		3	0		1.00		0.83		3.500000e+00
2	1	58	363.23		1	1	1		1	1		1.00		0.65		5.000000e-01
2	1	59	368.00		1	2	2		1	0		1.00		0.59		5.500000e+00
2	1	60	377.77		2	2	2		NaN	NaN		1.00		NaN		2.500000e+00
2	1	61	384.53		2	2	2		1	0		1.00		0.58		2.500000e+00
2	1	62	391.30		4	3	3		3	1		1.00		0.74		5.000000e-01
2	1	63	396.07		1	1	1		1	1		1.00		0.85		5.000000e-01
2	1	64	400.83		3	3	3		NaN	NaN		1.00		NaN		5.000000e-01
2	1	65	405.60		3	3	3		4	0		1.00		0.66		5.000000e-01
2	1	66	410.37		2	2	2		2	1		1.00		0.88		5.000000e-01
2	1	67	415.14		3	4	4		4	1		1.00		0.88		5.500000e+00
2	1	68	424.90		3	3	3		4	0		1.00		1.14		1.500000e+00
2	1	69	430.67		1	1	1		NaN	NaN		1.00		NaN		1.500000e+00
2	1	70	436.44		2	2	2		2	1		1.00		1.22		5.000000e-01
2	1	71	441.20		1	1	1		1	1		1.00		0.72		1.500000e+00
2	1	72	446.97		4	3	3		3	1		1.00		3.64		3.500000e+00
2	1	73	454.74		3	3	3		4	0		1.00		0.81		3.500000e+00
2	1	74	462.51		2	2	2		2	1		1.00		2.47		5.000000e-01
2	1	75	467.27		2	1	1		2	0		1.00		0.74		5.000000e-01
2	1	76	472.04		1	1	1		1	1		1.00		0.62		5.000000e-01
2	1	77	476.81		2	2	2		2	1		1.00		0.97		2.500000e+00
2	1	78	483.57		1	1	1		1	1		1.00		1.90		1.500000e+00
2	1	79	489.34		1	1	1		1	1		1.00		1.52		5.000000e-01
2	1	80	494.11		1	2	2		1	0		1.00		0.43		2.500000e+00
2	1	81	500.87		4	4	4		3	0		1.00		0.66		5.000000e-01
2	1	82	505.64		2	2	2		2	1		1.00		0.85		2.500000e+00
2	1	83	512.41		2	1	1		2	0		1.00		1.57		5.000000e-01
2	1	84	517.18		4	4	4		3	0		1.00		2.44		3.500000e+00
2	1	85	524.94		4	3	3		3	1		1.00		0.70		3.500000e+00
2	1	86	532.71		2	2	2		2	1		1.00		2.81		5.000000e-01
2	1	87	537.48		3	3	3		4	0		1.00		1.04		3.500000e+00
2	1	88	545.24		4	4	4		4	1		1.00		3.59		5.000000e-01
2	1	89	550.01		3	3	3		4	0		1.00		0.74		5.000000e-01
2	1	90	554.78		1	1	1		1	1		1.00		0.68		5.000000e-01
2	1	91	559.55		3	3	3		4	0		1.00		1.45		5.000000e-01
2	1	92	564.31		2	2	2		2	1		1.00		1.05		5.000000e-01
2	1	93	569.08		2	2	2		2	1		1.00		3.52		5.000000e-01
2	1	94	573.85		4	4	4		3	0		1.00		0.81		5.000000e-01
2	1	95	578.61		2	2	2		2	1		1.00		2.45		5.000000e-01
2	1	96	583.38		4	3	3		3	1		1.00		0.60		1.500000e+00
2	1	97	589.15		2	2	2		2	1		1.00		2.44		5.000000e-01
2	1	98	593.91		4	3	3		NaN	NaN		1.00		NaN		5.500000e+00
2	1	99	603.68		3	4	4		4	1		1.00		2.52		5.000000e-01
2	1	100	608.45		4	4	4		3	0		1.00		0.67		3.500000e+00
2	2	101	0.51		3	4	4		4	1		4.00		6.07		4.500000e+00
2	2	102	13.27		4	3	3		4	0		6.00		9.23		1.500000e+00
2	2	103	25.04		2	2	2		1	0		8.00		10.28		1.500000e+00
2	2	104	38.81		4	3	3		3	1		6.00		1.96		5.000000e-01
2	2	105	49.58		3	4	4		4	1		6.00		1.23		5.500000e+00
2	2	106	65.34		4	4	4		3	0		6.00		0.51		2.500000e+00
2	2	107	78.11		1	1	1		1	1		8.00		10.01		5.500000e+00
2	2	108	95.88		1	1	1		1	1		6.00		8.23		4.500000e+00
2	2	109	110.65		3	3	3		4	0		8.00		1.08		5.000000e-01
2	2	110	123.41		3	3	3		4	0		6.00		0.70		1.500000e+00
2	2	111	135.18		4	3	3		4	0		4.00		1.08		5.500000e+00
2	2	112	148.95		3	4	4		4	1		8.00		10.14		5.000000e-01
2	2	113	161.72		1	1	1		1	1		8.00		0.93		5.000000e-01
2	2	114	174.48		3	4	4		4	1		4.00		1.00		8
2	2	115	190.75		1	1	1		1	1		4.00		0.75		5.000000e-01
2	2	116	199.52		4	4	4		3	0		6.00		0.97		6.500000e+00
2	2	117	216.29		2	2	2		2	1		6.00		0.83		3.500000e+00
2	2	118	230.05		4	4	4		3	0		8.00		1.05		4.500000e+00
2	2	119	246.82		1	1	1		1	1		8.00		0.83		3.500000e+00
2	2	120	262.59		2	1	1		2	0		4.00		0.97		4.500000e+00
2	2	121	275.36		1	1	1		1	1		4.00		0.68		5.000000e-01
2	2	122	284.12		2	2	2		2	1		4.00		6.80		5.000000e-01
2	2	123	292.89		3	3	3		4	0		4.00		1.78		3.500000e+00
2	2	124	304.66		2	2	2		2	1		4.00		1.08		1.500000e+00
2	2	125	314.43		1	2	2		1	0		6.00		0.63		5.000000e-01
2	2	126	325.19		1	1	1		1	1		4.00		0.84		6.500000e+00
2	2	127	339.96		1	2	2		1	0		6.00		2.41		5.000000e-01
2	2	128	350.73		2	2	2		2	1		4.00		0.91		8
2	2	129	367.00		4	4	4		3	0		8.00		1.16		1.500000e+00
2	2	130	380.76		2	2	2		2	1		6.00		0.87		5.000000e-01
2	2	131	391.53		4	4	4		3	0		4.00		1.78		8
2	2	132	407.80		3	3	3		4	0		4.00		0.88		5.000000e-01
2	2	133	416.57		2	1	1		NaN	0		6.00		NaN		7.500000e+00
2	2	134	434.33		3	3	3		NaN	0		8.00		NaN		5.000000e-01
2	2	135	447.10		2	2	2		2	1		8.00		1.05		1.500000e+00
2	2	136	460.87		3	4	4		NaN	0		4.00		NaN		2.500000e+00
2	2	137	471.64		2	2	2		2	1		6.00		0.87		5.000000e-01
2	2	138	482.41		2	2	2		2	1		4.00		0.90		4.500000e+00
2	2	139	495.17		4	4	4		4	1		6.00		7.67		6.500000e+00
2	2	140	511.94		3	4	4		NaN	0		6.00		NaN		1.500000e+00
2	2	141	523.71		2	2	2		NaN	0		8.00		NaN		2.500000e+00
2	2	142	538.48		1	1	1		NaN	0		6.00		NaN		3.500000e+00
2	2	143	552.24		4	3	3		3	1		6.00		8.28		1.500000e+00
2	2	144	564.01		4	3	3		NaN	0		8.00		NaN		4.500000e+00
2	2	145	580.78		2	2	2		NaN	0		8.00		NaN		1.500000e+00
2	2	146	594.55		2	1	1		2	0		8.00		0.75		1.500000e+00
2	2	147	608.31		2	2	2		NaN	0		8.00		NaN		8
2	2	148	628.58		4	3	3		3	1		4.00		5.72		6.500000e+00
2	2	149	643.35		4	4	4		3	0		8.00		1.03		3.500000e+00
2	2	150	659.12		1	1	1		2	0		6.00		9.35		3.500000e+00
2	2	151	672.88		1	2	2		1	0		8.00		0.87		8
2	2	152	693.15		4	4	4		4	1		8.00		9.97		1.500000e+00
2	2	153	706.92		1	1	1		1	1		8.00		0.84		8
2	2	154	727.19		1	1	1		NaN	0		4.00		NaN		8
2	2	155	743.46		3	3	3		3	1		4.00		6.65		5.000000e-01
2	2	156	752.22		2	2	2		2	1		4.00		1.38		1.500000e+00
2	2	157	761.99		4	3	3		3	1		4.00		6.13		2.500000e+00
2	2	158	772.76		3	3	3		3	1		8.00		10.35		1.500000e+00
2	2	159	786.53		4	4	4		NaN	0		6.00		NaN		1.500000e+00
2	2	160	798.29		4	3	3		3	1		4.00		6.10		5.000000e-01
2	2	161	807.06		3	3	3		4	0		6.00		1.46		3.500000e+00
2	2	162	820.83		1	1	1		1	1		6.00		8.12		3.500000e+00
2	2	163	834.60		2	2	2		1	0		6.00		8.82		8
2	2	164	852.86		3	4	4		NaN	0		8.00		NaN		5.000000e-01
2	2	165	865.63		1	2	2		1	0		4.00		1.45		3.500000e+00
2	2	166	877.40		3	3	3		NaN	0		6.00		NaN		1.500000e+00
2	2	167	889.17		3	3	3		NaN	0		6.00		NaN		3.500000e+00
2	2	168	902.93		2	2	2		NaN	0		4.00		NaN		5.000000e-01
2	2	169	911.70		1	1	1		1	1		4.00		5.89		6.500000e+00
2	2	170	926.47		4	3	3		3	1		8.00		1.44		7.500000e+00
2	2	171	946.24		4	4	4		3	0		4.00		7.26		2.500000e+00
2	2	172	957.00		1	1	1		1	1		4.00		0.75		5.000000e-01
2	2	173	965.77		3	4	4		NaN	0		8.00		NaN		8
2	2	174	986.04		1	1	1		NaN	0		6.00		NaN		5.000000e-01
2	2	175	996.81		2	2	2		2	1		6.00		0.96		5.000000e-01
2	2	176	1007.57		2	1	1		NaN	0		8.00		NaN		5.000000e-01
2	2	177	1020.34		1	1	1		1	1		8.00		1.00		3.500000e+00
2	2	178	1036.11		4	3	3		3	1		8.00		2.40		1.500000e+00
2	2	179	1049.88		3	4	4		4	1		6.00		7.82		1.500000e+00
2	2	180	1061.64		3	4	4		4	1		8.00		2.10		1.500000e+00
